0 2
92 0
131 0
203 0
297 4
393 27
480 0
544 10
574 0
679 2
724 15
836 19
887 16
0 79
73 68
170 89
211 53
272 100
403 75
462 84
522 50
577 69
651 79
743 78
795 60
925 50
30 120
86 122
174 125
200 166
299 174
356 139
452 130
543 180
582 131
664 168
756 163
840 129
910 136
0 215
66 205
146 242
230 229
328 195
345 232
437 244
539 255
618 231
657 210
727 232
844 212
870 197
0 285
104 329
129 303
239 299
328 287
402 276
451 309
495 327
573 323
688 283
758 281
806 286
925 321
0 363
79 351
170 378
228 351
298 379
352 383
421 371
521 379
579 370
701 362
752 392
851 398
921 375
0 476
75 459
139 447
231 429
283 457
380 472
433 428
507 446
586 427
673 461
763 467
821 468
910 450
0 553
50 522
177 501
229 536
329 496
350 527
455 553
519 534
610 507
655 506
731 496
805 535
898 555
0 607
80 574
127 624
254 627
296 607
345 577
444 627
532 592
571 612
656 615
747 628
806 605
909 607
0 679
90 688
131 652
250 697
301 664
369 690
469 701
509 699
603 690
650 678
762 702
850 678
918 678
0 763
94 721
156 734
254 752
287 763
383 740
449 720
531 762
584 733
688 724
768 725
797 726
870 765
7 830
72 828
164 806
200 800
283 850
357 834
469 808
502 813
572 852
679 845
727 847
829 820
894 818
13 901
77 873
153 905
245 923
314 914
398 881
438 870
521 897
610 920
683 913
757 896
805 921
892 901
