2 0
93 4
161 16
215 0
318 0
352 0
467 13
524 15
626 0
702 9
732 13
819 2
887 0
0 52
79 92
166 69
230 99
289 91
371 88
421 103
522 101
578 52
688 58
743 54
827 103
906 48
17 154
99 166
167 172
214 135
288 126
382 151
480 146
522 173
622 170
659 165
766 172
800 122
883 121
3 248
69 212
158 230
206 200
282 205
388 195
449 233
497 226
589 233
672 203
746 219
842 198
920 228
0 318
55 326
125 274
228 325
277 311
394 327
476 311
535 330
622 323
671 307
778 307
844 276
930 328
0 380
65 373
174 391
232 353
296 383
368 346
473 392
498 364
612 371
671 405
762 393
852 404
905 398
0 448
71 444
171 462
232 441
313 438
383 442
469 466
531 440
576 458
675 476
776 468
799 475
921 433
0 515
48 543
174 527
246 540
292 500
371 496
433 500
496 524
623 495
664 522
748 553
811 541
877 507
0 590
61 592
142 623
196 606
278 607
353 604
447 624
555 612
620 589
694 575
727 573
803 583
884 629
0 675
47 672
139 693
232 656
278 677
396 697
461 648
551 649
619 676
689 691
749 676
821 661
908 660
0 771
60 733
147 742
204 780
324 740
354 724
473 767
515 757
606 736
681 734
724 773
817 740
889 733
18 810
73 855
174 804
201 845
285 835
380 843
449 827
522 796
622 836
701 802
734 826
797 795
913 838
0 926
95 904
167 891
207 928
315 917
383 918
438 872
527 927
581 887
686 924
743 886
850 917
876 890
