3 0
95 17
168 0
247 1
312 19
387 0
449 0
514 25
609 2
703 0
736 0
844 14
884 16
9 73
69 63
129 58
249 73
274 52
372 48
459 84
526 71
577 83
701 59
745 93
826 79
886 58
0 145
76 127
177 167
227 155
297 148
405 151
420 174
506 156
579 149
686 120
727 137
837 170
880 161
19 210
78 209
157 219
206 251
285 227
385 255
448 231
532 242
592 250
661 219
740 209
835 201
918 196
16 279
79 286
165 289
247 326
298 321
384 288
465 305
505 307
572 321
653 313
743 281
845 319
926 281
14 388
54 394
163 356
202 388
312 359
366 382
420 366
505 352
590 370
677 349
747 363
809 385
928 353
0 447
83 430
153 478
213 464
274 420
384 466
442 434
527 446
610 456
682 458
775 459
797 449
873 450
12 533
105 542
157 518
234 495
303 515
387 517
470 511
516 548
593 496
692 514
730 508
842 544
873 541
0 603
84 616
170 592
212 622
288 586
375 590
422 587
516 583
578 598
649 615
752 578
808 593
911 570
0 674
96 694
134 675
211 704
285 684
398 693
453 693
503 686
600 660
662 691
746 683
835 685
915 650
29 773
47 779
175 773
197 743
310 764
392 756
450 738
510 750
592 776
686 765
721 742
821 749
916 721
7 835
59 848
171 831
227 855
283 796
400 805
478 836
538 848
620 835
649 822
746 855
814 832
919 804
0 896
79 880
122 893
215 907
272 898
405 902
477 916
534 904
581 913
673 930
759 902
838 899
871 927
