15 0
85 7
151 23
246 19
326 4
363 0
466 18
554 27
595 0
676 0
758 8
830 0
891 14
9 96
75 104
174 72
243 84
281 78
368 97
430 72
540 100
618 64
690 100
776 67
826 46
877 56
0 130
47 127
166 150
214 132
272 125
382 180
478 132
536 126
608 172
697 180
728 151
799 162
912 148
0 241
64 254
144 206
216 209
318 198
345 219
473 227
505 240
583 231
652 218
735 217
836 216
923 243
0 311
89 315
127 307
222 304
282 321
397 310
462 323
555 324
578 314
663 307
725 284
800 290
891 317
0 399
56 405
165 360
216 405
302 397
386 389
471 382
506 393
616 364
677 402
727 368
831 375
908 386
3 457
93 449
179 470
249 422
305 436
387 478
430 470
533 455
613 476
679 445
728 448
853 440
878 440
14 541
66 524
153 535
225 534
325 526
378 536
467 502
555 546
586 497
682 553
759 549
828 546
894 550
0 625
63 621
179 575
214 596
281 582
359 604
464 623
509 625
617 628
663 573
751 576
829 618
888 573
0 645
46 655
144 653
249 692
307 676
373 645
456 656
515 647
594 648
701 658
751 647
808 654
896 664
0 760
60 728
131 738
250 731
310 732
384 769
428 761
524 746
603 755
671 769
736 740
816 744
885 760
12 840
69 853
124 848
219 816
306 806
350 854
439 854
531 821
624 822
655 822
724 835
850 821
920 826
23 906
76 883
147 883
198 876
329 907
373 913
471 914
520 888
588 918
664 876
744 883
800 916
918 907
