30 6
46 30
175 1
215 0
316 0
353 12
438 0
527 4
590 7
656 19
739 2
821 0
894 0
0 98
91 81
152 72
222 66
282 102
379 98
425 45
525 91
628 80
702 81
728 90
828 52
872 85
0 157
75 171
177 143
245 164
306 159
385 169
429 154
507 172
604 129
670 126
736 168
798 121
882 147
0 240
103 202
167 233
238 233
288 229
393 195
444 228
547 196
571 245
689 220
738 205
834 199
880 252
0 318
55 291
138 330
230 293
321 286
360 329
430 313
551 277
570 296
679 287
762 270
848 310
929 320
21 378
93 389
178 346
205 393
284 348
359 385
433 345
516 347
623 345
648 350
727 349
802 370
916 400
0 431
99 445
178 462
235 433
275 458
356 456
426 452
544 454
615 442
665 432
778 476
818 436
910 445
0 509
63 540
180 517
230 505
272 510
395 531
427 497
554 530
617 506
661 523
722 550
803 499
896 530
16 582
63 598
173 593
196 615
291 629
367 588
443 602
503 612
626 621
694 606
733 570
809 600
877 625
0 676
84 662
175 680
237 658
325 670
379 679
465 683
535 648
579 646
697 665
720 702
824 677
917 678
0 754
98 732
138 747
196 777
317 733
399 740
429 721
529 765
583 752
649 771
748 775
821 724
898 763
16 805
49 822
165 842
241 853
319 820
404 820
454 841
518 826
622 802
650 819
767 828
810 824
920 830
0 893
66 871
171 879
209 875
270 921
397 896
439 910
531 886
617 925
671 924
741 905
835 891
926 882
