1 13
52 0
89 0
137 0
175 8
224 0
288 18
312 14
377 0
420 17
455 0
508 0
559 14
593 16
644 7
720 0
735 6
782 7
847 10
890 11
0 34
59 41
99 50
123 56
192 30
253 29
284 43
314 55
372 38
424 37
483 50
507 33
551 42
628 39
674 54
695 47
741 54
786 44
853 32
897 45
0 98
56 78
84 82
139 108
200 84
246 86
296 103
336 107
391 90
407 112
454 79
507 90
577 107
617 90
670 102
690 83
763 102
797 96
830 106
902 88
0 159
47 145
98 123
156 141
201 154
234 132
266 126
345 153
373 134
406 153
467 134
534 157
571 150
627 145
656 153
705 145
760 136
807 157
845 140
911 132
2 174
53 191
89 178
134 183
200 194
217 196
281 206
317 193
377 174
431 181
469 206
505 190
576 174
604 199
665 187
702 176
741 176
800 187
855 203
883 188
10 226
54 227
111 236
126 241
191 237
228 221
294 220
345 244
385 251
417 217
486 251
529 226
579 236
609 225
672 228
718 223
744 247
790 237
848 240
884 226
15 289
49 276
78 292
127 269
197 288
248 287
280 279
331 271
361 284
438 294
474 269
518 299
580 265
623 272
666 294
703 283
760 278
789 295
861 297
909 282
0 318
46 312
92 328
157 314
204 330
231 312
283 339
331 332
378 323
436 318
471 322
534 317
573 330
626 347
668 324
714 334
764 337
809 316
853 312
880 338
0 374
50 365
88 370
151 376
191 387
239 394
291 387
318 384
390 390
429 362
481 365
519 379
549 368
601 387
675 389
707 359
750 385
810 377
842 369
901 386
17 418
57 435
85 440
154 441
197 417
242 438
280 426
315 428
359 441
438 425
470 419
533 441
557 431
621 414
663 437
696 416
734 410
808 439
830 417
907 422
0 465
46 477
86 454
155 483
190 452
238 474
298 453
332 468
382 470
412 476
471 462
515 470
552 462
621 457
664 484
701 467
766 481
790 483
838 468
898 479
0 518
30 524
110 503
125 509
186 523
228 517
299 527
347 522
389 521
412 503
462 500
504 507
553 522
623 518
661 509
706 523
737 515
803 534
833 534
889 509
11 560
36 581
80 580
136 564
200 557
241 555
296 569
335 566
386 557
405 575
455 558
515 553
562 557
620 549
647 569
709 567
756 578
816 552
850 557
885 566
0 614
44 620
91 603
125 615
195 617
238 597
281 618
328 607
366 597
428 620
459 629
515 622
556 611
599 595
641 618
697 600
763 623
799 628
831 598
889 621
0 665
63 668
82 653
141 664
177 645
243 643
272 660
326 642
381 644
438 671
455 647
515 643
577 641
612 665
676 652
695 645
762 673
808 648
847 663
909 658
18 689
29 712
98 717
152 714
181 716
217 723
269 694
335 698
378 695
415 696
463 722
504 700
555 702
611 709
640 715
709 706
741 696
793 703
835 717
904 702
0 738
31 749
108 767
148 750
182 738
222 735
283 751
319 734
386 767
420 770
476 745
525 767
570 755
602 766
650 735
703 760
740 766
783 752
844 769
875 746
0 800
63 783
103 812
150 786
172 799
227 802
294 809
318 812
385 797
411 781
476 802
518 784
562 794
622 814
651 786
714 792
766 817
794 804
832 784
894 800
0 843
56 828
89 842
128 830
175 830
230 864
287 842
333 855
367 839
405 861
459 836
531 839
548 843
611 864
647 828
689 834
764 853
815 848
845 855
888 829
2 902
58 887
91 878
152 901
187 903
221 899
282 904
325 892
379 899
431 876
487 901
519 888
562 897
606 909
658 895
722 889
736 905
788 877
851 908
879 884
