0 0
54 0
104 18
154 0
179 3
219 1
280 0
335 16
371 12
413 13
456 16
519 0
548 5
613 9
647 12
706 3
738 2
789 11
864 0
893 16
16 50
44 57
111 58
136 55
200 58
252 41
264 43
344 53
381 31
440 44
468 43
534 56
568 62
605 58
645 50
711 41
746 45
798 31
859 43
884 42
4 103
47 82
109 107
152 97
191 102
218 85
274 97
336 89
372 85
436 76
455 109
516 77
581 112
600 87
676 86
712 109
756 88
809 92
834 82
877 89
6 151
64 150
104 144
126 155
200 139
236 146
281 157
327 155
372 144
416 158
486 144
529 156
577 129
616 144
648 152
699 135
764 148
804 150
861 150
888 148
0 185
48 206
90 176
156 196
204 194
250 173
278 176
336 172
384 170
421 171
476 184
509 183
551 192
598 189
662 195
703 184
746 182
799 198
846 204
901 170
0 219
52 244
103 251
137 236
198 245
225 246
280 226
333 232
377 236
430 244
482 242
514 251
576 220
627 227
645 253
693 231
739 225
791 253
841 222
882 218
0 291
56 287
92 292
131 282
177 298
249 275
270 267
340 285
394 272
424 298
464 288
506 268
555 274
601 271
654 297
718 273
734 286
787 272
854 272
910 294
0 311
41 312
106 328
127 317
202 345
227 344
268 340
332 333
363 320
410 326
487 342
513 313
551 332
617 344
671 326
691 330
741 320
810 335
834 311
907 321
0 362
39 370
76 360
130 375
194 371
221 374
278 368
341 369
358 388
409 377
464 378
534 370
557 358
628 366
648 390
701 371
770 394
800 362
851 370
896 388
2 429
43 423
87 431
139 413
179 418
237 429
267 417
327 431
363 435
416 431
478 414
502 426
560 433
606 433
653 407
710 432
744 436
797 423
842 413
886 411
0 469
34 456
99 467
137 477
186 472
241 470
299 472
323 478
385 488
412 470
468 452
530 462
560 485
605 475
664 456
721 476
749 457
814 482
854 468
909 472
0 519
37 531
109 524
138 502
201 514
236 513
278 515
315 534
375 508
407 507
463 514
522 512
547 510
609 533
674 519
717 534
755 509
812 517
840 527
907 517
0 572
63 547
109 567
154 574
179 548
245 567
268 556
318 556
382 574
435 569
466 562
505 553
580 547
615 579
645 571
723 559
749 550
786 578
854 564
907 572
10 619
56 595
84 619
158 617
198 615
239 603
285 599
332 597
391 608
432 616
473 605
528 611
572 596
604 598
656 600
687 616
770 621
806 621
858 598
899 605
6 647
53 647
100 647
141 649
204 658
220 675
269 644
326 660
374 662
416 642
472 671
524 642
546 675
612 648
655 658
700 644
744 666
795 675
856 649
889 654
9 709
44 705
87 720
125 700
204 687
247 696
298 719
331 711
371 712
405 711
486 702
503 713
561 692
623 697
661 689
693 712
749 710
814 688
849 697
896 700
14 747
62 736
108 765
137 747
192 761
252 757
276 765
339 761
361 766
433 756
471 768
515 770
565 745
601 755
642 739
715 737
764 747
815 770
835 743
891 734
6 814
51 798
87 814
155 783
190 782
250 803
271 804
318 807
373 799
416 783
460 796
533 808
569 803
607 782
648 803
689 791
758 793
812 812
847 805
881 792
11 829
44 864
96 857
131 862
203 856
234 861
287 858
330 836
371 839
411 830
466 858
535 834
555 858
621 860
668 840
717 850
739 857
791 859
836 843
906 829
17 911
40 890
90 886
153 902
182 875
226 875
285 900
345 897
372 889
420 901
478 911
517 906
567 883
621 910
661 891
701 876
766 910
810 888
864 901
910 910
