17 0
40 17
105 4
126 0
200 0
235 16
295 0
315 13
372 0
415 11
453 3
506 12
580 0
608 0
656 0
699 0
763 0
811 0
848 0
899 0
0 31
34 33
98 35
153 48
186 29
244 45
291 61
325 34
377 31
406 41
483 45
524 55
555 59
596 32
644 53
715 60
744 37
797 34
831 43
903 31
0 103
50 82
111 100
123 96
199 110
237 108
267 109
315 81
361 103
426 99
465 84
504 86
577 102
607 84
661 85
704 76
741 105
811 105
841 107
884 95
6 156
57 129
79 157
158 130
192 137
221 137
270 151
312 134
384 129
420 137
461 136
499 156
576 134
626 155
657 156
711 137
743 124
799 137
837 155
899 142
0 203
47 188
103 172
145 174
175 175
226 189
281 193
320 180
365 204
407 198
460 171
509 206
561 185
609 171
653 205
715 179
748 199
787 203
838 182
895 184
0 229
56 226
80 245
155 236
199 232
218 224
282 236
336 226
380 218
426 231
480 233
505 225
564 246
602 225
666 245
707 236
768 228
809 225
841 231
880 252
0 285
40 287
97 296
146 290
193 268
221 275
272 272
340 279
381 270
437 273
480 290
525 288
556 294
612 277
648 274
719 288
757 296
787 266
854 279
900 291
3 340
45 332
105 339
124 335
172 327
231 340
264 311
319 317
384 332
422 331
459 342
514 323
560 335
611 313
654 321
714 326
756 330
786 330
833 313
884 315
0 360
35 388
92 367
139 368
192 361
221 386
292 373
327 359
361 377
414 364
470 382
517 362
548 381
617 392
672 378
716 367
747 374
789 383
850 385
875 384
18 408
34 418
97 407
124 410
201 439
233 420
296 417
323 412
376 437
422 417
467 423
508 411
550 440
616 412
656 427
701 432
743 405
810 410
836 416
892 424
13 481
41 461
103 465
150 470
198 453
224 461
287 468
313 465
376 483
405 453
485 479
508 468
563 473
615 470
655 453
693 482
767 465
804 469
861 455
888 467
3 501
49 513
86 502
130 504
206 530
243 520
265 502
347 512
373 524
429 508
460 531
521 499
549 534
618 516
644 506
701 531
745 499
791 510
832 528
884 517
0 564
34 549
103 576
142 577
194 553
231 546
282 575
311 549
362 576
427 553
474 549
531 551
575 562
608 566
669 551
692 582
764 546
806 557
838 580
879 570
0 607
64 609
95 624
139 621
195 617
219 626
293 620
328 609
379 628
421 601
488 603
520 607
549 605
611 603
672 622
709 613
744 626
793 624
854 602
883 629
17 659
36 671
84 671
136 652
184 676
253 657
284 651
333 640
380 668
409 674
467 666
500 648
578 666
595 665
674 669
700 675
745 653
797 642
859 668
887 674
0 720
61 697
107 722
124 716
173 694
235 708
292 716
346 720
358 698
429 716
485 706
500 712
557 707
604 703
640 690
708 702
766 718
782 719
856 712
879 714
2 757
35 766
82 761
138 742
203 748
223 749
267 743
330 766
363 764
414 766
465 763
512 752
572 743
628 750
675 735
707 739
752 759
801 735
863 744
885 756
1 783
57 789
78 816
142 789
205 804
237 789
299 785
322 790
389 783
422 815
457 815
515 802
560 817
627 813
666 801
712 810
737 794
785 785
844 793
885 794
0 849
45 829
82 861
142 855
185 828
225 846
290 834
314 833
359 861
429 838
457 853
515 835
548 864
624 828
653 829
692 858
769 861
802 864
849 863
896 838
0 892
63 896
100 875
124 878
203 885
217 911
277 886
314 897
389 906
422 875
463 881
531 896
572 901
609 902
666 907
712 910
752 906
803 883
850 900
882 909
