0 0
57 4
76 0
134 0
204 12
246 2
272 1
347 16
375 0
409 0
461 15
520 0
563 0
596 14
674 15
708 5
766 0
791 4
831 0
900 8
5 30
41 51
100 31
131 53
181 48
227 40
270 53
334 40
381 57
429 41
472 64
526 39
577 31
621 55
643 29
688 38
762 65
800 41
839 30
910 48
15 111
63 87
112 110
135 88
184 80
247 87
286 107
312 82
394 103
429 83
475 112
499 90
550 78
596 87
665 97
719 83
747 108
781 103
863 81
890 109
0 140
58 126
106 154
124 158
176 126
240 126
295 158
318 138
391 125
423 156
473 137
515 139
550 131
615 154
646 126
722 150
749 127
790 154
857 153
902 151
16 182
42 182
81 200
142 202
171 200
233 185
270 191
344 182
388 179
420 192
456 191
505 201
567 192
621 171
657 170
696 184
769 171
789 191
846 177
891 205
10 251
64 244
89 252
144 241
199 240
229 245
281 249
340 246
374 231
433 226
486 219
511 248
569 239
621 218
664 241
709 217
741 221
802 218
861 237
879 228
0 272
61 293
101 285
132 278
182 276
221 281
291 274
340 266
375 273
428 275
486 275
517 296
577 272
608 264
646 267
702 266
736 271
787 283
860 270
901 284
0 321
65 335
95 312
151 334
204 326
218 329
265 342
343 318
364 331
416 332
452 318
529 338
559 312
623 316
676 332
688 343
748 313
800 326
843 344
892 344
0 374
52 391
78 360
158 391
194 367
247 377
291 389
323 365
364 367
427 387
486 375
516 394
561 377
609 379
646 359
687 365
744 358
795 365
847 371
883 379
13 419
48 435
85 422
143 439
171 412
221 428
299 420
315 430
374 422
438 411
466 421
502 427
572 409
606 420
674 414
699 435
743 408
811 419
834 427
891 433
0 453
61 453
93 487
146 480
177 457
244 478
300 465
320 465
369 470
418 487
484 460
521 457
557 479
617 459
670 478
701 488
759 475
784 459
848 472
884 480
0 508
38 529
76 505
123 503
186 535
252 508
299 499
336 517
387 530
441 509
464 518
521 528
575 533
625 499
646 513
708 505
746 508
787 522
856 531
893 503
14 571
63 557
104 564
140 549
201 578
247 560
296 581
324 563
389 553
425 554
462 553
520 551
571 571
612 557
660 547
697 575
743 551
790 567
853 577
878 574
0 625
61 601
87 609
132 613
203 598
226 620
276 617
332 597
370 611
431 620
458 628
530 622
553 628
603 603
645 611
697 593
737 605
781 629
830 602
881 607
1 670
35 642
86 663
149 653
172 663
219 666
275 656
337 653
388 665
408 672
485 645
532 649
560 675
618 646
650 651
696 662
734 661
789 651
839 650
907 657
0 717
53 701
80 720
148 698
191 717
253 692
296 710
342 706
366 694
436 693
462 722
516 717
574 695
626 700
647 716
687 701
744 698
786 692
839 695
889 689
0 742
41 754
99 764
140 738
178 751
221 763
279 760
319 740
379 767
435 763
468 767
504 757
557 756
625 735
671 734
721 762
769 749
805 737
862 739
881 762
8 813
36 797
108 782
129 817
174 790
232 786
294 800
337 807
387 815
434 800
467 812
513 797
568 784
624 805
674 815
717 791
751 805
789 808
834 810
898 782
15 831
47 839
95 853
135 836
173 842
239 844
283 834
324 856
370 859
437 840
463 843
532 842
571 839
611 845
650 848
710 843
758 834
785 854
860 845
903 855
0 877
38 894
81 908
155 884
202 888
232 903
286 888
341 889
393 879
414 881
454 895
508 896
550 883
595 878
667 896
687 892
742 905
805 885
840 885
888 890
