0 0
49 18
77 3
144 0
172 1
231 0
268 0
324 0
364 8
425 5
455 0
502 0
550 2
625 11
670 15
714 0
765 0
792 0
845 0
879 0
15 63
61 34
77 32
144 44
197 60
238 40
292 47
343 40
361 52
434 48
452 37
517 53
572 50
615 45
675 29
716 49
741 57
810 37
859 32
894 40
0 86
58 86
92 86
134 104
183 104
239 107
300 108
332 100
370 109
438 82
456 98
531 80
580 77
599 86
671 77
702 97
755 87
797 106
853 79
883 78
0 144
44 149
82 131
130 126
196 157
246 150
266 127
330 154
383 153
408 134
456 129
500 155
569 147
612 132
676 156
723 149
747 157
782 146
836 144
893 134
4 198
40 182
91 200
148 173
193 202
248 183
295 186
331 193
385 189
436 200
452 175
523 195
548 196
601 203
676 202
693 193
745 203
799 189
834 183
887 189
6 250
58 239
108 246
146 217
180 229
240 235
273 252
327 225
369 239
421 253
470 250
532 230
553 253
594 242
661 219
692 235
740 239
799 245
837 222
909 245
11 294
33 288
98 271
126 275
201 299
240 280
287 282
314 296
358 289
433 265
455 299
521 296
547 264
619 268
655 276
712 283
767 278
815 290
852 300
898 286
16 332
50 331
99 313
136 317
201 334
237 335
276 346
322 316
365 328
411 346
485 344
529 345
565 334
621 330
674 320
714 347
734 316
816 314
848 335
896 314
0 370
49 364
96 383
129 361
182 386
240 368
275 369
312 370
362 383
423 374
459 371
523 370
573 370
594 375
659 376
694 365
753 381
782 385
838 365
911 377
14 430
45 431
92 424
141 438
184 425
226 405
299 418
323 412
384 416
428 420
462 432
513 407
548 409
619 413
668 441
721 431
760 415
800 422
835 427
892 425
13 453
45 481
111 471
129 462
173 456
228 462
271 456
341 474
381 455
425 488
463 466
502 479
552 456
627 484
659 470
720 463
765 469
789 468
842 464
879 462
0 502
29 528
91 529
149 534
174 532
250 513
272 535
318 515
365 509
425 524
472 510
506 502
551 504
614 508
669 529
714 504
752 518
817 499
840 511
907 504
0 566
42 557
96 580
150 569
180 553
245 552
266 549
321 551
392 551
432 553
482 563
505 567
557 553
628 560
674 547
695 554
746 557
795 556
858 575
894 550
1 623
36 595
107 596
123 618
205 601
235 621
300 597
319 624
372 594
430 598
470 624
502 616
567 624
619 611
643 605
720 611
744 617
814 606
840 601
881 623
8 671
55 649
93 657
144 666
171 642
245 665
283 673
339 672
376 656
414 675
482 653
503 665
559 663
628 650
660 672
712 652
748 659
814 655
863 664
886 650
0 709
42 713
106 691
136 721
183 688
219 697
277 715
329 696
365 692
420 722
485 711
513 723
555 689
606 713
658 693
695 698
745 706
796 717
834 704
889 719
3 764
54 759
107 759
124 763
171 750
247 767
266 746
340 766
377 748
436 740
458 767
529 760
562 765
614 748
673 764
689 755
734 745
784 757
863 748
877 762
0 815
45 782
96 796
138 809
176 814
230 810
298 788
337 781
377 798
412 801
472 802
509 814
547 799
624 788
664 810
701 808
767 810
793 785
842 814
884 789
0 829
48 858
88 845
152 841
205 839
240 838
288 846
317 851
391 834
439 834
464 844
511 861
560 828
628 861
674 847
700 837
751 848
807 854
860 835
900 858
0 908
64 887
110 875
157 898
198 886
251 880
295 875
316 901
368 896
435 894
474 910
512 883
550 890
603 901
662 898
690 875
750 889
797 880
835 885
881 877
