4 0
55 0
106 4
153 0
197 7
239 0
287 12
342 0
379 7
406 3
467 15
503 0
559 6
595 16
646 0
705 13
747 0
810 0
854 0
907 0
0 30
36 30
80 31
144 52
185 53
241 39
279 42
313 48
381 54
422 46
460 51
532 59
574 63
622 65
673 55
706 43
743 40
781 45
843 39
908 42
2 110
53 109
98 99
144 110
184 110
232 98
294 109
345 99
373 92
414 96
460 80
513 81
567 106
603 103
645 91
715 95
768 81
804 76
862 97
886 79
1 123
39 138
100 126
139 146
172 144
223 150
291 143
315 155
360 134
430 141
475 130
516 134
577 146
612 143
667 145
708 151
740 153
815 141
831 143
882 136
0 180
54 193
85 180
147 186
201 170
230 177
274 199
333 181
369 171
406 199
468 170
516 175
548 184
625 190
640 196
692 187
763 195
812 182
830 199
898 178
7 247
52 241
108 237
125 234
201 218
218 227
299 244
344 228
363 250
421 232
455 219
504 238
570 226
604 249
646 226
715 240
739 232
806 245
853 244
893 229
2 281
46 287
78 282
138 289
200 295
225 294
275 293
343 291
373 291
407 293
468 271
525 271
557 271
622 267
665 293
713 297
737 277
815 298
844 300
879 280
14 335
43 330
87 314
127 311
204 312
222 334
267 338
326 330
393 324
414 329
460 346
517 336
565 327
593 325
664 335
723 329
741 336
815 336
851 316
897 347
0 366
58 374
101 373
157 367
197 377
238 377
265 362
321 361
371 380
405 385
452 378
522 385
550 361
612 359
654 368
701 363
734 387
802 372
837 369
879 362
0 410
34 419
112 425
137 415
188 435
253 421
276 406
318 427
362 438
417 439
482 436
518 410
569 438
620 405
647 433
717 426
743 420
790 433
841 424
877 413
0 488
40 467
88 473
139 486
179 472
227 480
276 472
347 466
364 457
425 461
480 482
517 470
560 459
626 458
671 461
703 461
766 468
790 482
860 483
881 475
0 506
59 535
91 535
135 517
183 530
233 524
278 507
330 509
382 505
441 512
457 501
506 535
570 531
614 503
650 531
715 534
738 531
790 523
861 507
911 508
0 574
64 571
106 574
151 576
174 549
231 574
274 548
343 547
388 579
440 546
479 566
528 580
565 568
604 565
676 567
716 551
740 569
799 560
844 547
898 553
0 619
56 611
109 617
128 614
187 615
252 623
276 606
343 596
363 615
437 594
478 627
512 607
568 597
626 618
656 611
687 593
751 610
804 602
858 613
878 615
1 675
50 647
105 662
152 655
198 667
242 647
295 659
326 663
374 674
423 650
466 657
531 644
565 651
619 654
647 644
703 641
742 673
806 665
848 669
879 656
7 719
29 688
104 702
155 713
195 704
224 714
299 699
312 697
367 717
431 719
453 692
520 688
548 698
627 698
654 708
696 701
744 700
802 704
832 716
880 721
16 754
55 757
99 757
138 741
205 748
228 757
276 739
331 735
375 763
419 746
471 744
525 746
565 764
594 756
655 755
709 754
769 745
785 747
833 734
883 747
14 802
48 799
98 801
157 791
176 800
229 815
280 787
340 796
377 801
414 800
463 784
507 810
554 790
601 812
640 810
698 815
749 788
808 813
858 798
883 807
0 864
48 849
102 839
158 860
206 838
221 845
271 848
313 838
377 840
435 832
468 830
507 841
552 834
629 854
662 842
689 843
768 832
791 856
848 852
910 850
0 886
56 890
104 907
146 911
188 906
230 883
293 891
325 891
371 904
435 906
476 876
532 880
551 895
601 904
641 909
699 910
756 911
797 908
847 896
882 905
