37 0
124 0
164 8
323 0
404 0
495 15
592 0
685 0
800 0
873 3
0 112
115 117
202 70
306 133
406 117
505 65
640 95
683 73
836 121
882 115
0 190
109 211
229 212
334 165
410 210
538 166
601 190
701 161
791 205
935 227
10 274
85 326
183 307
269 288
363 281
510 280
630 338
685 266
788 314
889 331
0 428
67 433
212 365
304 423
404 432
482 410
609 398
686 403
809 399
884 419
0 473
99 469
237 500
310 529
413 516
519 499
593 514
689 507
774 507
938 466
0 568
87 629
201 596
336 600
369 618
497 586
631 610
733 562
826 588
932 591
40 677
88 680
189 675
287 708
421 740
478 691
582 663
675 715
766 692
894 719
15 802
79 772
196 801
270 814
427 767
473 819
624 794
666 795
811 767
871 809
39 872
90 896
172 921
319 886
394 929
507 886
583 887
711 867
810 892
924 881
