40 0
140 0
188 34
304 0
362 0
497 24
622 0
670 24
788 0
882 9
0 93
79 107
169 63
308 115
427 135
487 66
591 131
674 133
820 136
887 138
0 165
133 171
221 238
288 172
414 212
473 214
639 198
687 202
770 237
902 173
0 281
77 268
181 304
286 261
387 326
513 321
580 294
684 273
826 332
871 278
40 360
100 369
232 400
324 416
370 431
478 367
629 388
691 384
837 406
897 404
0 471
80 511
183 490
302 534
430 518
473 480
631 537
724 477
830 477
912 508
0 562
79 576
220 629
283 626
373 596
522 619
606 567
689 562
832 602
939 599
0 725
69 687
204 679
301 706
415 688
465 678
560 692
701 689
799 719
873 671
0 784
67 802
161 791
284 762
410 831
527 768
620 814
676 784
763 831
866 762
0 915
76 861
181 884
287 928
413 883
461 917
582 865
689 866
779 917
899 891
