0 0
60 14
176 29
265 0
414 0
490 0
617 0
690 6
787 0
862 0
0 128
114 109
204 127
266 109
362 77
479 122
610 139
681 105
778 64
916 106
15 215
107 198
217 199
277 224
383 192
490 231
567 166
732 233
814 236
863 163
0 287
108 322
187 286
332 304
425 316
494 305
629 301
698 337
781 333
925 288
0 371
88 387
163 383
265 364
420 420
494 417
640 422
725 407
787 380
902 387
14 536
127 539
240 500
289 534
433 506
511 517
630 532
664 515
803 469
893 518
20 634
136 582
208 580
308 575
424 633
494 611
615 633
689 561
826 609
939 561
0 684
125 736
239 701
300 679
412 722
528 740
587 705
715 673
808 700
918 679
0 771
92 776
233 810
318 767
392 808
470 767
639 801
692 822
797 784
881 800
0 863
103 869
215 905
271 903
408 868
485 870
590 894
662 928
816 915
921 917
