2 27
93 0
223 12
263 9
425 28
537 0
634 0
711 36
812 0
902 0
0 139
92 65
217 97
260 122
399 60
507 68
572 71
695 115
788 131
892 107
11 236
123 200
212 183
263 186
387 204
503 235
612 197
687 164
770 236
890 219
0 338
103 283
177 336
265 303
360 340
483 302
569 303
693 303
814 321
911 290
0 369
127 430
233 384
288 397
432 376
487 413
586 406
718 427
813 396
909 440
35 476
89 475
164 514
310 534
364 516
473 472
588 460
707 527
837 534
918 539
14 590
110 572
162 634
311 585
431 623
496 582
593 605
696 630
825 582
914 569
0 710
106 662
229 724
293 691
419 713
515 678
575 728
670 690
814 736
878 686
0 802
64 794
230 792
265 779
417 761
539 787
580 800
705 834
811 831
939 767
26 920
85 873
238 915
262 872
365 887
539 885
640 898
735 869
773 924
881 915
