38 19
94 0
176 32
293 0
440 36
494 0
593 0
688 40
782 20
874 0
0 101
86 130
186 93
329 118
387 117
518 94
634 76
724 63
795 94
888 82
0 160
87 173
166 239
285 187
412 192
499 165
596 190
737 175
776 230
934 229
32 334
137 327
220 338
267 263
364 288
475 283
560 275
665 275
840 339
928 262
0 360
108 378
173 408
274 431
433 377
519 364
617 437
731 412
784 401
864 426
3 516
93 525
217 535
324 494
392 477
486 460
609 523
681 460
811 527
933 489
0 573
120 612
237 623
319 630
392 625
485 630
621 614
677 600
810 622
918 629
12 685
129 722
219 716
294 726
424 670
486 706
607 686
714 704
796 705
927 672
37 818
66 774
175 761
338 784
437 833
502 826
615 823
690 828
799 798
892 787
24 876
123 913
183 940
267 927
394 930
525 906
587 866
708 864
831 883
922 919
