14 0
96 0
174 24
264 0
395 22
482 20
567 3
676 0
810 25
908 0
0 110
75 132
188 114
272 104
375 87
521 66
578 95
703 112
800 112
924 97
29 196
93 222
200 187
266 202
436 226
500 206
606 233
664 216
819 196
908 174
0 310
140 295
197 266
316 336
377 327
533 266
600 286
676 267
815 303
929 305
8 364
75 394
164 360
317 400
438 398
517 423
596 382
703 364
766 430
882 410
0 465
77 468
236 534
297 486
422 468
516 463
619 495
718 529
762 470
904 468
0 582
71 635
163 568
287 576
416 636
471 605
615 572
670 602
813 634
933 587
35 726
106 738
231 671
318 736
434 705
530 701
599 709
708 668
774 686
866 721
0 790
121 768
226 826
283 779
397 820
478 788
568 808
735 816
788 816
926 835
24 918
74 862
183 896
336 876
376 868
479 860
569 929
669 920
774 918
898 889
