0 0
79 0
184 0
331 20
425 6
478 34
610 0
737 19
821 0
932 30
3 91
76 107
216 70
308 127
381 101
491 72
624 126
740 60
768 78
917 116
0 201
132 161
184 211
270 162
405 208
532 227
568 197
711 189
761 222
882 196
34 312
108 305
215 275
331 333
404 288
484 294
633 286
735 337
794 311
929 292
1 363
83 371
202 408
298 378
416 384
479 360
613 407
734 373
783 404
895 417
4 479
124 517
212 532
317 469
364 521
468 500
569 526
683 464
838 480
868 474
10 591
107 565
208 590
264 561
419 606
491 572
624 592
691 603
822 596
906 580
6 721
137 689
175 698
293 688
425 678
512 666
567 724
663 697
797 674
929 732
0 768
90 773
190 826
289 774
387 809
482 839
596 774
711 787
776 821
916 767
10 873
90 933
171 903
268 909
366 888
461 882
631 893
707 893
832 870
863 885
