34 37
60 0
172 0
266 0
432 17
500 0
592 19
727 0
817 0
902 23
34 125
135 63
165 137
289 100
367 96
523 80
582 130
708 94
817 61
927 132
0 167
74 188
167 166
320 236
431 183
478 184
585 213
707 215
789 165
920 223
19 300
139 276
227 277
285 296
419 293
470 275
627 324
712 304
762 296
870 272
35 431
68 365
187 426
320 410
420 371
467 387
593 394
700 420
784 422
887 426
0 489
64 503
206 461
329 527
383 502
465 467
564 469
723 527
809 498
873 524
1 577
117 636
201 614
311 562
419 596
511 565
627 618
732 602
829 633
923 609
0 697
94 663
182 672
277 661
384 678
531 685
577 730
680 722
796 698
869 724
0 783
115 838
173 828
334 825
415 828
514 784
597 820
730 834
838 816
880 837
0 932
60 871
188 935
295 876
421 873
505 863
633 924
699 893
797 897
921 908
