36 26
133 36
202 9
334 0
405 0
519 19
589 0
728 0
810 0
938 0
35 99
105 139
239 79
283 89
363 108
517 95
565 94
700 94
830 79
882 65
0 218
77 170
229 238
276 227
422 169
510 234
636 166
732 170
839 208
884 215
0 336
78 306
196 312
306 337
386 261
532 277
612 337
729 287
781 313
896 330
0 409
115 434
232 385
285 372
387 377
481 365
604 392
668 397
760 376
883 360
0 500
61 493
209 501
311 490
383 536
491 536
570 527
736 538
806 492
886 495
21 610
78 624
170 604
338 580
439 623
536 602
612 601
727 570
829 577
940 562
1 663
99 696
207 686
322 662
399 703
502 714
571 735
694 673
784 683
904 679
0 774
140 809
191 770
269 797
381 782
526 839
626 825
724 829
810 792
928 800
0 861
81 863
227 880
306 884
363 902
508 870
574 866
671 918
823 933
863 939
