0 6
114 3
174 0
321 10
374 0
539 39
602 25
675 0
794 0
899 0
0 116
102 111
195 79
284 96
381 113
465 66
602 137
669 97
814 115
881 136
22 214
75 183
210 178
332 216
415 167
516 197
569 207
693 235
796 230
937 239
0 296
130 291
223 279
286 323
417 303
539 301
596 267
723 266
784 269
906 266
0 416
127 376
218 427
296 389
402 427
489 432
632 373
677 430
797 367
871 421
17 509
93 487
186 461
281 468
377 482
540 485
574 539
686 496
801 534
897 491
10 596
122 609
175 589
310 608
362 636
510 560
597 586
680 606
784 637
878 588
7 735
107 667
225 739
298 713
366 700
482 687
633 721
682 729
765 677
875 688
0 823
62 769
173 790
333 793
396 837
540 784
614 797
720 787
796 766
935 801
0 872
135 904
229 905
336 896
378 863
518 887
567 933
663 922
835 899
901 905
