13 0
54 0
115 6
160 0
203 0
273 0
307 11
364 0
398 9
473 1
522 9
580 0
636 14
688 0
744 0
764 0
848 10
884 0
0 60
52 71
110 61
173 42
220 72
263 53
321 42
350 37
416 53
481 36
539 71
575 42
634 72
670 32
725 36
789 55
832 71
872 37
4 109
33 115
89 88
149 97
189 93
252 103
304 93
347 100
429 101
455 120
519 107
564 84
627 120
671 108
736 89
765 116
835 122
871 122
0 149
40 167
93 170
159 156
210 169
256 140
292 138
371 139
405 150
465 156
534 160
580 168
621 155
664 145
713 137
782 158
852 157
892 171
0 225
36 222
118 218
137 226
212 211
276 202
300 198
356 200
419 214
488 193
501 197
562 212
610 189
661 227
748 219
780 212
821 203
871 219
16 263
32 277
112 265
176 268
218 269
241 263
327 268
362 255
404 274
468 248
513 274
592 254
628 244
694 246
737 265
777 273
835 250
897 274
0 320
68 293
121 326
158 323
215 302
250 294
321 311
369 294
410 309
452 331
500 296
572 319
637 317
662 332
734 308
777 294
816 298
887 331
0 366
37 362
108 349
145 374
199 359
267 353
303 364
345 346
414 349
481 380
500 364
573 351
606 379
675 379
712 378
774 364
823 361
903 346
3 416
48 417
106 414
156 433
216 429
259 405
303 415
364 400
418 410
471 409
510 425
587 425
605 411
681 431
728 427
780 403
836 427
886 401
0 460
59 474
93 451
140 461
220 456
260 460
325 472
373 473
397 479
470 458
527 468
588 467
618 470
660 463
725 476
775 468
824 454
900 468
0 539
66 524
86 518
169 503
214 520
254 538
317 504
379 518
424 513
464 531
506 539
581 500
630 529
659 514
717 502
790 540
813 538
890 534
0 559
64 588
114 567
154 565
209 585
279 572
306 578
350 553
427 571
474 579
538 579
591 592
622 584
659 557
708 568
781 586
838 585
886 574
7 608
33 624
123 610
161 616
213 613
274 633
327 615
376 628
417 626
481 614
523 612
575 617
606 608
683 622
717 642
779 635
822 617
880 616
0 694
43 664
124 677
172 666
198 694
260 668
319 661
347 695
417 665
457 657
522 687
591 685
621 671
695 690
741 685
792 660
817 689
900 690
0 738
63 745
107 711
156 719
201 727
253 730
310 736
358 734
410 708
463 730
540 709
577 741
607 721
683 717
739 723
769 738
822 724
897 712
16 773
68 789
118 760
173 786
193 769
275 761
329 792
356 785
405 770
485 788
512 792
574 770
607 772
675 796
718 768
765 776
846 767
869 786
3 816
60 835
100 836
145 829
207 841
261 829
302 824
377 845
429 836
482 837
535 837
591 814
614 812
657 832
739 843
780 830
819 837
875 845
13 887
41 896
119 884
155 877
210 888
259 887
294 900
356 902
423 890
473 885
508 901
580 901
640 889
674 870
747 878
791 881
829 889
887 880
