10 0
66 0
105 8
149 8
205 0
269 0
314 19
350 0
406 7
486 2
540 16
577 8
628 0
673 0
730 0
778 0
827 12
900 2
9 36
69 38
101 40
163 67
198 47
254 59
329 58
358 63
413 34
487 59
508 35
592 65
619 36
671 43
716 55
762 56
845 48
897 39
0 111
35 99
86 116
172 105
191 118
276 120
316 110
349 93
419 90
461 86
529 90
556 101
604 112
660 90
733 116
784 108
850 109
865 95
0 164
71 139
101 168
152 166
194 158
254 138
295 140
373 172
417 174
484 152
509 151
565 150
627 161
666 144
725 158
791 171
835 161
869 151
0 227
49 192
118 208
143 192
222 207
246 201
330 223
356 196
415 209
453 202
514 211
552 191
630 215
663 205
708 193
790 190
822 194
875 216
0 247
59 275
122 267
163 274
203 266
278 258
306 241
354 248
401 260
471 272
527 243
566 267
633 257
664 241
731 251
769 248
819 263
883 242
0 324
42 320
85 296
157 299
189 315
264 314
325 309
366 313
397 319
470 297
530 314
582 321
635 314
696 318
734 307
786 311
821 305
882 301
11 375
44 377
96 354
156 367
189 365
273 382
325 364
356 377
426 361
457 364
507 352
586 384
613 344
688 379
717 355
783 349
836 380
876 366
0 411
62 411
123 402
148 421
212 433
244 407
318 435
367 404
396 418
487 413
536 405
592 436
621 418
682 396
736 403
772 414
844 407
902 402
0 449
49 454
103 475
143 458
226 476
269 468
319 470
370 483
400 484
474 452
527 468
569 455
637 457
686 486
732 488
779 473
849 459
877 467
0 516
46 523
108 526
160 537
225 522
241 511
302 531
382 518
418 506
476 524
538 515
576 523
608 518
695 512
742 535
780 538
828 512
880 534
0 571
32 564
120 555
160 572
219 588
268 567
313 568
382 559
426 578
479 573
528 557
591 592
630 558
662 587
743 556
798 583
837 568
881 591
2 618
58 625
92 622
143 639
212 610
243 626
319 604
372 644
401 611
466 620
511 640
565 636
614 606
686 641
742 627
796 613
833 623
896 635
0 690
53 661
107 670
143 692
220 691
266 690
304 673
360 673
407 661
488 658
516 656
583 676
641 685
679 659
731 673
763 693
848 694
868 696
0 721
58 723
111 742
149 712
188 713
244 733
321 746
370 737
431 739
481 722
523 710
591 721
604 715
659 729
708 732
771 714
840 728
880 725
12 778
42 762
120 799
166 777
214 782
278 787
325 771
350 783
421 761
452 800
528 796
561 777
619 771
657 777
723 781
770 785
849 772
875 761
2 828
45 818
111 825
176 826
215 813
245 825
322 827
361 836
426 820
450 830
536 821
572 842
617 826
674 843
716 848
783 852
813 828
890 834
17 890
54 871
113 895
154 891
188 875
243 864
300 878
365 895
416 886
458 900
509 879
559 886
620 875
662 904
743 877
795 867
849 879
897 895
