0 7
70 0
124 0
169 15
219 15
247 0
326 9
362 0
424 0
451 12
532 0
584 13
609 15
664 0
748 8
777 0
838 0
884 0
0 37
50 61
99 50
154 62
214 56
267 40
324 54
357 40
429 63
488 52
510 61
587 37
625 69
668 55
746 69
770 70
825 60
897 50
20 114
72 97
111 110
137 84
206 110
244 109
332 89
363 108
428 111
451 107
525 112
572 118
616 104
693 90
721 94
771 94
830 103
902 96
0 153
39 174
94 171
154 163
226 161
245 142
321 167
384 147
406 142
470 139
522 153
554 167
625 155
681 152
745 166
783 164
822 166
898 148
0 223
41 198
122 214
137 226
219 198
262 192
317 218
359 202
416 216
479 198
515 208
554 216
634 209
681 198
731 214
793 188
844 197
878 220
0 253
66 243
97 261
157 253
196 252
265 279
329 273
349 240
396 279
453 248
535 274
583 260
619 274
679 253
716 247
761 257
821 253
883 254
11 311
35 315
87 331
170 326
197 296
251 322
304 302
373 314
407 308
484 302
509 319
575 307
609 301
667 298
719 330
762 324
833 326
864 329
0 381
64 362
113 375
153 381
217 384
250 370
314 368
370 374
410 365
483 381
534 358
580 375
608 366
676 371
721 344
777 346
849 367
874 378
2 416
68 398
93 396
163 408
190 420
271 414
308 425
352 422
412 423
476 418
538 396
592 406
632 402
691 424
740 416
790 434
848 419
884 397
20 481
39 464
119 483
173 465
219 455
265 478
324 451
363 457
434 456
485 455
539 449
561 468
639 475
664 476
731 481
790 485
848 450
864 465
16 529
32 531
85 504
142 519
222 500
242 510
292 534
353 527
436 518
454 524
540 523
562 509
620 524
678 510
740 501
774 533
832 524
873 512
7 554
44 553
118 556
149 555
202 576
253 557
314 557
365 570
411 579
460 559
509 577
580 557
610 553
683 578
713 553
763 581
847 554
879 564
0 632
49 637
100 607
172 642
212 634
268 642
308 627
363 624
404 621
468 641
501 624
573 634
614 644
664 629
737 604
777 633
835 612
890 634
0 665
68 661
90 696
140 677
195 662
272 695
319 666
360 661
433 672
452 688
540 658
559 660
643 662
676 696
712 665
767 687
820 668
864 674
0 741
70 717
115 712
144 737
204 744
261 732
319 740
376 730
432 709
479 745
529 725
560 740
613 708
662 733
747 738
799 724
822 745
886 730
0 794
48 771
104 791
144 765
226 766
242 778
310 800
364 795
431 772
478 788
530 767
559 776
631 775
696 761
748 800
786 792
826 798
889 780
3 842
49 843
90 822
148 825
203 819
276 827
328 848
358 845
411 818
458 830
521 841
574 833
640 827
664 827
737 838
775 851
842 833
882 832
0 902
59 878
117 899
160 881
193 888
262 876
299 887
353 867
431 870
487 880
518 891
559 898
612 902
674 903
725 868
762 903
815 891
898 873
