0 0
59 14
124 0
167 20
221 19
277 0
326 0
357 10
436 0
474 3
501 11
580 12
611 2
668 0
720 0
790 0
820 0
899 20
8 72
38 65
112 43
161 61
198 54
250 41
300 33
363 63
409 39
462 48
539 54
557 38
616 63
678 39
712 72
776 65
818 67
884 54
0 87
68 114
97 122
160 118
204 100
274 101
330 113
375 87
404 89
476 99
509 121
566 110
638 120
678 92
730 96
773 123
829 92
901 105
4 171
44 174
102 157
169 153
214 174
274 147
324 171
384 173
404 159
472 152
502 146
555 138
632 172
692 164
710 174
780 156
839 141
884 170
0 212
55 227
94 193
155 218
208 188
241 209
310 216
360 217
399 212
466 210
529 195
579 208
615 204
680 215
740 214
762 201
849 211
888 224
8 246
69 248
100 259
147 242
197 271
249 247
299 269
345 278
429 267
483 252
514 242
564 251
612 260
687 252
708 244
787 280
813 247
904 253
1 311
61 326
95 309
159 319
197 296
279 318
295 307
352 325
436 306
465 310
534 317
556 322
615 323
668 299
710 316
782 309
837 321
884 319
7 364
70 349
104 361
137 354
221 366
241 350
329 354
354 360
429 379
483 375
536 372
552 375
625 365
674 381
710 373
760 367
839 372
903 363
0 433
68 410
106 421
162 436
195 396
262 397
313 423
361 399
426 418
462 420
512 411
566 428
613 398
658 430
721 415
771 411
815 418
877 402
0 462
35 478
90 472
147 457
211 475
280 475
322 456
365 460
418 451
449 485
501 451
570 470
605 486
691 449
735 451
770 486
815 466
903 471
5 521
60 508
96 500
175 507
211 530
254 514
316 522
371 531
412 518
468 511
524 513
592 524
607 515
657 521
745 540
760 522
850 533
893 516
4 584
35 574
100 569
167 563
221 585
262 582
326 588
363 560
432 580
471 590
524 568
580 586
622 578
667 582
721 563
790 566
838 581
888 559
0 606
70 631
117 627
160 611
216 608
280 636
299 641
348 631
435 610
476 626
537 644
570 605
630 634
669 639
742 643
771 641
828 617
904 640
0 656
45 681
92 692
166 661
218 664
262 690
310 664
370 658
425 663
464 689
500 693
589 668
629 682
671 688
735 681
790 662
815 678
866 663
0 746
32 723
95 743
149 721
196 710
259 708
303 710
366 734
397 743
485 716
516 720
568 730
628 727
684 734
710 711
768 709
824 745
876 731
0 773
46 770
120 772
149 778
196 779
272 797
303 796
362 796
428 774
468 790
532 785
581 794
604 786
693 779
736 779
783 780
849 773
868 779
0 833
35 823
95 825
168 849
220 836
280 839
323 817
344 851
408 835
480 849
521 826
570 829
619 851
667 846
738 823
786 840
834 831
904 832
0 867
41 876
103 867
145 886
225 883
272 880
309 884
348 881
427 893
468 898
503 881
587 886
637 902
676 897
715 900
781 900
852 884
879 872
