4 0
65 0
97 5
137 0
226 0
252 5
297 20
358 1
411 0
466 4
501 0
583 19
614 15
670 8
739 0
795 0
819 15
896 10
0 56
35 42
102 72
144 70
213 53
244 70
297 70
355 50
434 59
482 37
516 42
556 57
620 61
668 57
728 67
782 33
819 41
878 50
0 87
42 92
109 110
148 108
205 100
266 113
317 109
364 103
436 111
449 124
538 87
557 91
624 116
692 107
734 94
769 100
825 115
892 98
6 141
45 138
106 141
150 174
192 153
253 146
295 159
355 137
412 150
459 172
514 151
591 150
616 176
696 149
746 139
783 149
829 167
885 159
2 217
71 207
124 200
148 213
209 224
272 223
312 200
344 194
405 218
448 189
532 203
561 207
629 207
691 204
710 205
762 195
840 228
888 226
14 244
38 249
103 252
144 248
200 257
260 246
323 267
357 276
423 264
487 280
527 271
559 244
633 260
663 241
727 272
788 278
844 243
864 267
0 330
64 293
120 301
156 301
198 323
274 305
328 315
378 296
434 312
471 294
538 306
553 300
637 301
672 301
725 329
773 302
848 320
884 298
0 370
72 345
102 361
147 365
193 365
251 364
313 379
377 358
434 344
467 368
510 357
582 358
629 379
664 356
720 375
794 356
823 370
884 369
15 419
61 412
94 414
143 426
228 431
242 418
292 412
344 426
434 398
453 431
516 405
559 403
605 433
663 421
711 436
769 413
823 419
898 396
13 462
49 450
88 471
144 449
190 461
259 483
331 454
349 478
427 464
462 476
526 452
592 473
641 480
659 456
716 464
765 449
833 450
872 471
0 521
56 531
119 520
138 528
188 500
258 513
318 523
380 527
413 505
481 512
520 519
587 531
606 514
672 502
723 511
763 520
818 502
868 511
17 564
46 554
119 554
161 563
213 590
259 552
295 569
369 571
419 575
457 577
502 586
590 590
639 577
693 582
734 554
775 581
821 569
875 555
0 611
62 643
115 608
141 623
223 606
262 618
316 634
356 604
397 642
454 618
539 643
584 613
644 614
671 623
708 606
763 611
822 605
884 610
1 691
45 696
121 664
162 661
188 685
273 665
321 657
367 657
401 691
458 670
530 682
573 674
607 681
656 667
716 666
773 662
843 684
864 692
0 728
71 717
92 746
150 723
208 736
267 743
312 714
382 720
400 725
481 724
537 713
587 746
630 725
696 724
725 745
782 731
843 732
883 708
19 784
72 776
95 766
162 769
224 789
274 797
303 788
344 776
425 797
451 774
538 763
569 772
640 772
667 791
708 769
788 787
845 783
898 763
16 833
40 828
108 821
176 843
197 839
254 844
329 813
384 812
410 816
464 847
539 839
563 849
631 817
688 824
738 823
780 851
849 841
869 820
17 888
50 901
110 889
148 883
202 874
254 878
318 866
346 887
417 904
476 868
534 882
557 874
612 883
684 887
738 899
783 894
835 871
874 882
