10 16
61 14
121 2
142 13
208 0
271 0
305 0
356 0
412 12
465 0
511 0
564 13
615 0
673 1
724 0
769 0
819 0
881 0
7 33
56 64
89 53
161 37
225 51
250 53
320 64
347 37
400 58
456 39
501 67
573 58
611 39
661 64
746 37
778 54
830 52
903 62
0 111
44 108
97 122
152 109
221 120
251 122
306 101
345 101
403 105
481 113
516 105
576 96
610 121
664 84
718 113
780 113
844 91
865 102
0 138
40 174
106 166
144 136
221 139
249 172
309 139
353 167
426 140
456 167
520 137
555 174
611 173
686 162
709 145
788 154
820 151
902 139
11 197
36 222
113 200
169 220
194 193
247 196
328 218
360 199
412 188
480 194
539 201
581 210
625 199
667 201
746 201
773 198
815 226
880 196
0 252
59 266
85 244
155 245
192 263
255 258
296 269
383 259
405 270
450 263
509 276
562 265
620 258
675 275
715 264
788 279
815 243
895 265
14 308
66 314
114 313
164 294
219 321
252 317
309 308
376 299
403 331
487 300
505 305
559 297
632 307
685 315
709 307
787 306
818 293
865 327
0 366
44 362
100 347
156 363
191 346
259 347
315 374
383 369
421 352
450 376
537 364
575 351
640 349
676 350
746 384
781 353
832 353
871 365
19 396
53 398
106 419
150 406
191 410
260 422
316 429
345 416
409 403
465 407
519 421
567 432
609 415
669 407
711 423
760 435
846 433
888 418
0 450
65 468
98 457
152 455
223 459
249 453
304 451
359 461
401 476
481 486
538 484
583 465
627 452
688 484
740 464
797 458
828 464
897 474
19 524
32 530
99 538
157 523
224 507
251 506
329 535
346 534
435 531
459 502
501 502
562 517
631 531
669 512
730 520
799 519
815 525
881 515
0 586
39 570
96 555
162 574
214 557
240 585
328 562
368 557
407 556
477 584
523 555
559 581
626 555
663 591
740 575
795 578
840 579
866 556
19 611
32 644
114 632
145 618
188 607
255 605
297 631
352 632
403 613
464 634
520 622
557 609
638 633
666 640
714 622
765 632
816 613
903 628
20 691
42 692
113 674
142 663
217 695
261 686
317 668
347 683
403 656
486 695
536 676
564 664
630 676
693 692
710 661
784 692
831 681
876 672
18 731
42 714
112 713
152 732
195 735
256 722
328 722
377 740
432 716
473 739
527 715
571 739
608 711
690 736
708 737
771 722
842 720
897 719
14 790
33 762
101 788
139 764
228 783
277 793
307 771
352 773
402 783
484 778
528 772
583 795
617 794
656 785
725 790
798 784
832 771
867 764
0 818
72 817
84 812
158 851
217 835
245 827
313 824
377 816
405 840
476 826
536 827
583 815
620 841
669 836
741 839
777 815
812 821
904 850
0 896
66 892
112 865
152 902
224 879
279 890
292 889
370 899
429 888
482 900
518 900
552 882
609 899
681 888
723 889
767 892
840 868
902 880
