19 0
68 14
94 16
174 16
210 0
280 17
294 0
368 0
428 0
461 0
507 11
564 20
618 0
673 0
716 8
765 0
844 0
880 0
0 42
42 45
90 41
173 42
219 67
278 59
322 64
378 44
421 62
457 62
523 48
577 62
620 55
669 50
709 42
795 53
832 66
899 59
2 94
46 84
105 124
139 112
213 108
275 105
298 117
379 94
410 106
484 107
511 99
588 103
637 118
682 86
747 120
785 104
844 107
880 124
4 160
72 175
118 146
172 137
225 152
253 146
298 139
369 149
407 153
463 167
528 165
579 158
614 137
680 148
717 168
762 156
845 144
880 142
9 196
67 202
96 188
160 197
214 207
244 211
319 228
363 215
429 196
469 191
507 201
591 195
626 227
663 218
740 196
800 224
845 215
894 227
11 280
62 277
104 274
151 274
191 247
280 248
322 263
363 251
412 279
475 264
510 274
572 253
631 255
688 246
728 275
795 255
817 241
876 262
2 325
47 321
105 295
164 328
223 321
272 322
318 316
346 296
407 306
477 303
502 316
583 310
606 320
691 319
737 316
775 321
827 313
899 314
16 376
66 376
109 376
176 368
205 346
258 378
316 381
372 352
428 344
467 381
529 380
585 356
636 379
679 355
711 356
781 376
831 358
898 349
10 409
71 400
115 424
165 428
205 433
246 426
312 411
383 423
398 424
481 417
534 426
584 405
621 429
676 405
746 411
784 401
825 400
870 422
15 476
42 477
120 468
169 476
217 460
265 451
304 469
368 457
418 485
469 487
507 457
554 480
642 476
661 456
736 464
787 488
840 477
864 452
2 507
34 521
117 533
144 510
223 527
258 528
323 504
364 516
427 527
464 530
511 527
570 517
628 508
688 530
736 528
780 540
814 513
881 524
14 587
37 572
121 552
152 560
209 582
256 565
309 578
351 555
404 557
450 566
526 567
553 592
639 561
664 584
745 588
767 570
842 569
902 582
0 628
65 610
111 632
173 620
189 616
246 605
326 624
373 609
401 630
453 631
526 631
571 625
606 624
687 639
740 611
784 625
815 635
880 608
0 677
66 679
119 671
137 691
206 661
251 686
296 677
370 671
413 662
450 681
533 687
569 680
643 658
666 672
732 689
766 662
823 678
891 676
4 723
51 712
106 728
140 729
211 724
257 742
317 724
364 714
411 712
451 743
500 745
566 737
624 727
662 741
716 726
796 731
850 736
894 739
0 775
58 789
90 795
144 793
209 778
268 768
325 793
364 799
422 795
448 771
524 775
576 800
619 768
675 772
742 761
782 792
851 781
897 794
18 839
32 825
93 844
175 816
217 841
273 816
332 849
370 834
409 843
450 816
529 843
586 822
632 838
692 818
712 837
791 847
819 842
871 844
0 898
70 874
98 891
141 896
204 892
255 897
294 869
361 902
409 888
478 902
519 880
578 904
612 879
678 892
748 896
786 894
827 887
897 874
