0 7
43 17
99 7
172 0
193 0
245 3
323 15
371 0
415 0
455 3
528 0
589 0
634 8
665 14
708 0
772 4
832 0
883 0
0 71
51 45
121 68
149 48
198 36
253 49
319 55
370 41
427 36
486 45
532 32
580 56
635 34
667 32
715 48
770 66
851 52
890 44
0 107
60 103
113 115
157 113
197 109
243 118
328 124
378 119
412 124
476 95
540 124
578 118
642 99
659 89
716 119
779 93
838 109
871 106
19 163
43 151
92 144
172 158
197 145
267 158
313 168
349 167
422 142
469 143
528 169
579 168
636 145
692 137
740 141
783 144
813 137
893 165
0 201
61 204
111 222
154 190
214 189
241 191
293 203
374 222
397 207
449 226
534 191
565 191
620 204
657 200
727 196
799 214
822 218
865 196
3 246
33 253
102 277
156 266
224 243
273 273
299 247
370 278
434 251
448 277
526 245
579 240
642 272
659 275
729 273
794 266
824 263
881 242
15 316
33 302
119 323
160 294
211 322
272 327
312 293
360 320
403 308
487 322
511 311
558 298
607 293
684 320
735 308
779 310
826 298
892 294
15 362
35 345
99 358
163 380
216 371
279 352
319 372
380 366
422 350
471 377
507 373
557 346
627 352
681 369
712 363
772 362
818 364
894 344
0 406
52 411
107 429
152 412
196 421
279 406
324 405
364 411
433 401
464 416
509 421
583 421
622 430
696 397
742 432
760 418
830 435
899 401
2 484
32 484
100 466
149 454
192 478
256 465
321 463
382 453
414 480
477 465
505 450
555 469
630 487
689 455
714 461
789 462
823 478
881 468
9 521
59 521
93 509
163 519
222 538
275 515
295 527
361 522
408 517
453 522
536 527
590 500
613 524
691 540
724 509
763 501
830 540
876 531
6 592
69 588
114 576
160 569
195 559
264 573
314 577
350 561
419 562
470 562
506 575
588 572
615 556
663 571
730 553
784 583
818 582
886 568
0 626
49 634
115 624
144 630
220 615
268 630
293 630
364 642
413 631
482 614
527 631
571 622
606 644
666 610
708 625
783 629
836 621
900 642
1 662
54 658
113 692
165 656
204 669
250 664
301 680
358 667
425 692
454 693
530 686
575 683
624 691
659 676
710 674
780 682
844 657
903 663
0 731
51 715
111 747
143 746
215 734
275 735
294 720
380 742
398 714
454 711
532 721
578 742
642 730
692 741
728 730
779 741
852 741
880 746
10 800
49 790
107 799
164 783
217 774
270 788
330 776
351 776
430 799
449 785
512 796
564 776
631 790
686 784
722 791
777 786
843 779
877 764
15 852
55 848
109 852
172 814
222 818
245 813
320 835
347 838
434 827
470 812
504 834
588 821
619 836
676 843
723 831
767 844
846 815
889 829
10 882
52 892
114 874
148 897
225 876
253 875
326 880
361 871
429 888
481 883
524 892
573 899
627 879
659 864
722 890
772 897
852 895
881 872
