0 7
67 19
99 0
172 19
207 0
257 0
298 12
379 0
406 0
466 17
540 0
575 0
606 6
666 6
737 2
789 1
844 16
891 11
13 54
40 45
114 42
141 42
212 50
271 48
324 52
345 72
409 47
478 60
506 47
582 53
604 47
670 71
735 57
764 43
820 42
903 61
0 90
37 94
100 90
167 101
226 95
254 108
321 90
359 102
432 107
473 113
511 84
552 87
612 114
696 96
710 108
762 120
834 86
903 106
0 174
63 164
121 146
136 165
228 146
253 157
310 140
375 172
425 149
478 144
540 176
553 158
607 153
686 176
735 176
784 161
818 171
876 158
5 222
48 214
91 198
176 224
205 193
275 195
308 193
368 194
418 219
475 199
510 212
566 223
628 219
684 215
714 211
786 196
831 199
877 194
6 264
60 263
119 265
150 248
210 280
267 266
318 259
365 267
397 258
470 249
537 251
588 268
627 243
686 258
734 263
776 250
841 272
867 259
0 311
49 322
122 292
161 320
223 315
262 329
317 299
346 323
397 310
461 320
514 324
586 308
643 329
668 302
713 312
760 296
831 328
870 315
0 361
37 347
92 375
149 351
194 352
276 366
329 365
374 377
411 348
484 378
500 354
578 349
644 374
679 349
709 364
788 381
812 355
889 377
0 429
53 428
88 433
163 415
199 428
254 396
294 425
370 414
432 419
451 411
522 405
585 431
608 402
683 404
744 421
788 435
833 417
901 423
15 478
68 485
101 477
165 455
227 480
244 470
316 448
382 456
421 483
483 482
529 459
559 480
620 464
657 471
732 454
773 461
819 451
876 477
0 526
70 508
88 506
140 517
228 507
241 508
300 530
371 534
419 523
465 523
509 531
589 500
639 513
683 520
728 515
774 513
845 524
897 503
15 573
39 577
88 569
161 581
217 582
242 554
329 554
351 555
424 561
471 568
522 559
575 591
606 588
670 563
746 562
782 575
821 577
874 559
0 631
70 607
92 633
175 625
203 611
247 631
320 623
371 604
418 622
461 630
535 628
563 642
611 626
695 642
733 627
779 628
833 624
896 642
0 670
57 664
124 656
165 668
212 664
242 694
332 684
378 660
431 681
471 656
531 692
559 668
639 659
667 663
718 679
793 661
818 690
864 685
0 725
61 747
98 724
138 712
225 730
260 720
299 732
382 715
398 735
448 748
533 716
579 711
631 730
656 714
710 746
760 747
845 726
872 724
8 778
61 775
110 771
168 778
216 795
279 773
310 793
383 786
399 785
460 768
538 793
572 762
632 776
659 782
740 787
777 788
831 761
892 771
7 840
41 815
114 812
171 838
225 828
273 825
307 834
375 847
423 825
461 838
530 831
569 814
621 828
670 842
716 843
770 833
813 848
876 813
9 890
57 868
108 900
162 886
221 864
265 889
295 897
367 894
404 885
463 892
504 870
563 888
630 899
677 866
711 899
786 904
835 874
864 891
