0 0
51 17
117 13
169 1
188 7
275 9
332 0
365 4
433 0
466 0
508 18
554 1
631 0
683 0
726 0
767 11
828 0
890 0
4 50
52 68
86 67
149 69
194 50
265 38
299 39
376 53
413 68
479 54
521 37
587 37
609 54
667 49
723 34
785 45
834 33
867 69
0 110
34 113
84 100
142 123
209 94
253 114
318 110
366 118
399 111
476 110
518 90
583 122
623 90
669 91
734 108
775 103
812 113
885 92
0 139
72 176
109 151
150 156
196 148
280 168
298 173
352 156
416 154
485 151
539 164
587 147
625 168
673 141
743 162
771 139
827 162
890 142
7 211
34 196
109 191
163 203
213 214
254 227
308 228
373 215
429 189
451 220
518 190
577 222
628 206
670 200
721 192
771 201
844 196
889 222
0 246
55 241
105 255
152 261
219 275
277 270
316 240
369 257
410 243
456 240
532 265
583 276
634 261
677 252
708 268
786 259
821 240
883 244
20 316
58 318
121 319
137 331
219 297
247 322
302 328
372 308
420 303
452 308
531 309
571 316
618 296
656 318
717 293
774 293
833 330
892 298
0 383
48 350
119 360
176 376
225 365
273 381
296 352
383 345
431 381
465 383
537 381
577 375
621 350
667 375
714 375
780 347
819 368
880 373
12 415
36 427
110 414
144 402
190 420
247 435
314 413
382 434
405 410
465 421
536 406
561 434
608 415
656 408
740 404
771 402
845 436
890 396
0 485
68 456
105 463
142 460
201 473
275 455
301 462
375 470
428 470
467 467
500 473
579 454
632 474
695 486
727 470
785 479
837 448
904 457
6 532
44 540
84 537
173 536
194 520
250 516
297 516
355 503
432 535
484 508
523 505
570 531
615 523
695 515
726 530
789 516
840 531
900 515
0 573
68 575
94 569
136 573
190 585
271 589
329 553
359 586
415 581
477 587
507 584
571 554
624 565
688 564
748 576
773 578
830 577
882 571
10 614
39 643
95 615
163 606
198 641
246 625
301 637
374 608
427 635
468 607
521 621
561 613
611 635
666 630
717 631
778 609
851 641
892 633
14 679
37 656
88 695
159 686
228 687
277 658
328 692
383 687
407 676
467 665
537 686
567 695
615 689
687 677
737 666
786 695
832 686
868 674
18 720
60 715
123 748
168 712
198 728
265 736
318 710
368 728
430 735
461 730
516 711
592 730
621 708
672 719
738 722
768 732
842 736
884 730
17 762
70 787
113 772
158 785
212 786
269 784
312 787
356 794
404 779
451 782
532 776
564 794
616 771
681 799
719 765
769 790
839 771
874 780
0 818
39 815
90 816
140 827
216 843
245 828
311 837
356 823
431 844
478 846
528 817
581 832
620 823
690 850
712 827
800 818
821 844
878 852
7 872
34 872
103 899
157 897
197 887
266 899
316 896
360 890
415 865
458 887
508 865
575 888
616 887
666 880
745 874
782 867
816 867
890 871
