5 13
54 20
115 0
167 0
218 0
267 4
295 0
345 3
432 0
467 9
517 13
589 16
628 7
683 14
720 0
764 5
815 2
876 10
6 57
51 68
89 54
164 67
216 61
278 36
320 48
356 56
398 46
472 50
528 57
574 44
620 56
663 54
733 41
778 66
822 39
884 60
9 95
46 113
110 99
155 94
221 120
245 117
332 124
377 110
436 112
455 103
530 103
579 114
614 96
670 109
722 112
780 117
821 85
864 123
0 137
49 174
121 163
143 170
213 140
280 160
315 147
345 141
436 163
479 175
507 142
589 137
633 144
673 147
724 139
788 141
833 154
876 137
0 195
59 226
97 191
144 212
195 217
251 191
308 218
376 207
426 207
469 193
507 188
592 206
626 193
656 227
738 207
777 206
838 212
894 215
19 278
50 277
87 276
158 257
217 260
246 266
309 248
355 269
426 280
474 261
533 249
588 244
630 267
695 242
742 278
793 263
839 257
879 260
0 332
59 320
113 298
166 293
222 311
261 308
324 307
378 315
408 302
481 305
533 310
564 308
623 314
657 301
714 309
771 308
842 326
876 301
13 367
45 361
120 383
159 379
224 383
240 352
310 380
362 357
407 381
450 353
530 377
570 358
616 370
670 369
724 376
774 366
832 355
899 376
0 429
36 405
99 432
151 421
190 414
265 432
311 426
355 402
399 428
472 411
534 413
584 425
606 416
662 413
745 432
789 413
828 421
873 417
0 483
65 485
110 481
147 472
203 464
242 458
328 450
382 463
419 471
472 485
511 477
555 469
610 487
659 484
722 458
779 472
849 467
904 469
0 534
48 538
111 514
169 521
219 532
271 500
314 510
372 516
409 538
474 508
517 526
583 535
640 527
687 511
715 525
785 521
814 512
871 535
7 557
69 555
95 592
169 564
195 563
240 562
320 591
352 592
418 585
465 592
528 563
581 569
630 559
667 552
716 588
778 557
836 556
879 553
13 611
49 644
113 636
159 620
206 644
259 634
318 631
379 628
408 610
468 608
515 628
556 606
609 606
674 612
730 640
763 613
833 618
884 614
1 674
63 683
112 681
152 666
208 667
241 668
304 657
348 678
432 666
448 686
528 668
583 657
643 672
682 674
714 693
761 659
815 672
900 689
17 717
42 734
108 722
162 738
214 744
272 744
292 724
352 720
402 747
458 742
526 726
583 712
619 740
696 724
737 723
786 709
841 732
885 738
0 784
43 789
118 762
137 781
216 765
259 783
300 788
383 786
425 774
485 781
540 782
592 798
617 764
679 770
717 787
793 780
823 774
870 787
16 821
72 841
123 817
166 816
214 828
261 840
309 840
368 844
403 843
471 846
504 844
558 822
618 834
669 849
727 844
778 834
826 819
903 843
0 865
42 886
122 878
165 894
201 869
246 870
298 871
344 898
429 869
481 873
500 869
554 894
638 883
690 884
743 876
765 896
851 895
873 890
