Node Energy consumption
Time (sec)	Remain energy (%)
121	0.9997589837387514	
202	0.9990940672498726	
301	0.9976865514388754	
400	0.9935118625455486	
502	0.9898656607250219	
601	0.9865701279087469	
700	0.983233589908786	
802	0.9795891353863178	
901	0.9769053889763282	
1000	0.9766308909763022	
1102	0.976111265653832	
1201	0.9758171725926477	
1300	0.9755442229927016	
1402	0.9750245976703179	
1501	0.9747305046091336	
1600	0.9744575550091875	
1702	0.9739391503816267	
1801	0.9736450573204425	
1900	0.9733721077204964	
2002	0.9728535007847897	
2101	0.9725601800488337	
2200	0.9722872304488877	
2302	0.9717677798423208	
2401	0.9714741682330108	
2500	0.9712012186330647	
2602	0.9706816454719182	
2701	0.9703875524107338	
2800	0.9701146028107878	
2902	0.9695949774884041	
