Node Energy consumption
Time (sec)	Remain energy (%)
127	0.9997011587999909	
130	0.999457628799986	
202	0.9990933235999774	
301	0.9987716783999796	
400	0.9952107363810084	
502	0.9933517511810251	
601	0.9916883383810531	
700	0.9900223659810646	
802	0.9881633807810597	
901	0.9867889499810615	
1000	0.986567097581041	
1102	0.9861811147810418	
1201	0.985932939581091	
1300	0.9857110871811352	
1402	0.9853251043812106	
1501	0.9850769291812599	
1600	0.9848550767813041	
1702	0.9844690939813795	
1801	0.9842209187814287	
1900	0.9839990663814729	
2002	0.9836130835815484	
2101	0.9833649083815976	
2200	0.9831430559816419	
2302	0.9827570731817172	
2401	0.9825088979817665	
2500	0.9822870455818107	
2602	0.9819010627818862	
2701	0.9816528875819354	
2800	0.9814310351819796	
2902	0.981045052382055	
