Node Energy consumption
Time (sec)	Remain energy (%)
120	0.9998952429387554	
123	0.9996145513387493	
201	0.9989586561007167	
300	0.998657344462698	
402	0.9944526712187147	
501	0.9927242719807117	
600	0.9910077227427326	
702	0.9890352135047005	
801	0.9873068142666899	
900	0.9858503646286713	
1002	0.9853508577906065	
1101	0.9850665785525945	
1200	0.9847652669146376	
1302	0.9842657600767185	
1401	0.9839814808387585	
1500	0.9836801692008016	
1602	0.9831806623628825	
1701	0.9828963831249224	
1800	0.9825950714869656	
1902	0.9820955646490465	
2001	0.9818112854110864	
2100	0.9815099737731295	
2202	0.9810104669352113	
2301	0.9807261876972522	
2400	0.9804248760592963	
2502	0.979925369221378	
2601	0.9796410899834188	
2700	0.9793397783454629	
2802	0.9788402715075447	
2901	0.9785559922695856	
