Node Energy consumption
Time (sec)	Remain energy (%)
116	0.9999829675999995	
119	0.9997874379999959	
122	0.9995428937387496	
200	0.9991553625387403	
302	0.9970819171044654	
401	0.9961400587044663	
500	0.9952064448432247	
602	0.9940968159207577	
701	0.9931766351207569	
800	0.9922430212595151	
902	0.9912870947370105	
1001	0.9910513067369886	
1100	0.9908160528757376	
1202	0.9904187511533307	
1301	0.9901829631533775	
1400	0.989947709292182	
1502	0.9895504075697751	
1601	0.9893146195698219	
1700	0.9890793657086265	
1802	0.9886820639862195	
1901	0.9884462759862664	
2000	0.988211022125071	
2102	0.987813720402664	
2201	0.9875779324027109	
2300	0.9873426785415154	
2402	0.9869453768191084	
2501	0.9867095888191554	
2600	0.9864743349579599	
2702	0.986077033235553	
2801	0.9858412452355998	
2900	0.9856059913744043	
