Node Energy consumption
Time (sec)	Remain energy (%)
126	0.9997599979999927	
129	0.9994994355999872	
132	0.9992713895999827	
135	0.9990913439999797	
201	0.9988865239999759	
300	0.9986383487999725	
402	0.9946875667810146	
501	0.9930045619810249	
600	0.9913411491810624	
702	0.9894991963810593	
801	0.987816191581069	
900	0.9864128783810714	
1002	0.9860439279810357	
1101	0.9858050431810312	
1200	0.9855568679810804	
1302	0.9851879175811527	
1401	0.9849490327812002	
1500	0.9847008575812494	
1602	0.9843319071813216	
1701	0.984093022381369	
1800	0.9838448471814182	
1902	0.9834758967814904	
2001	0.9832370119815379	
2100	0.9829888367815871	
2202	0.9826198863816593	
2301	0.9823810015817067	
2400	0.982132826381756	
2502	0.9817638759818281	
2601	0.9815249911818756	
2700	0.9812768159819248	
2802	0.980907865581997	
2901	0.9806689807820446	
