Node Energy consumption
Time (sec)	Remain energy (%)
124	0.9997677399999929	
127	0.9995040807999874	
130	0.999282228399983	
202	0.9989411491999751	
301	0.9985652309999772	
307	0.9943821148580564	
400	0.9920599052580502	
502	0.9893327100580497	
601	0.9868045000580911	
700	0.984331274058117	
802	0.9816040788581281	
901	0.9795329944581443	
1000	0.9792987548581226	
1102	0.9789019332581245	
1201	0.9786584032581728	
1300	0.9784241636582194	
1402	0.9780273420582969	
1501	0.9777838120583452	
1600	0.9775495724583918	
1702	0.9771527508584693	
1801	0.9769092208585176	
1900	0.9766749812585642	
2002	0.9762781596586417	
2101	0.97603462965869	
2200	0.9758003900587366	
2302	0.9754035684588142	
2401	0.9751600384588625	
2500	0.9749257988589091	
2602	0.9745289772589865	
2701	0.9742854472590349	
2800	0.9740512076590815	
2902	0.9736543860591589	
