Node Energy consumption
Time (sec)	Remain energy (%)
119	0.9999550963999987	
122	0.9997270503999941	
125	0.9994633911999886	
200	0.9990634727999789	
302	0.9969312706581097	
401	0.9941612100581051	
500	0.9916786936580987	
602	0.9889514984581418	
701	0.9864325788581688	
800	0.9839500624581937	
902	0.9816799928581951	
1001	0.9814457532581733	
1100	0.9812022232581552	
1202	0.9808054016582326	
1301	0.9805711620582792	
1400	0.9803276320583276	
1502	0.979930810458405	
1601	0.9796965708584516	
1700	0.9794530408585	
1802	0.9790562192585774	
1901	0.978821979658624	
2000	0.9785784496586725	
2102	0.9781816280587499	
2201	0.9779473884587965	
2300	0.9777038584588448	
2402	0.9773070368589223	
2501	0.9770727972589689	
2600	0.9768292672590172	
2702	0.9764324456590947	
2801	0.9761982060591413	
2900	0.9759546760591896	
