Node Energy consumption
Time (sec)	Remain energy (%)
123	0.9997285391619766	
126	0.9994246215619698	
129	0.9991748979619646	
132	0.9989592391619605	
201	0.9986486371239383	
300	0.998347325485922	
306	0.9957607470799449	
309	0.9955657546799542	
402	0.993837292241955	
501	0.9921377754039521	
600	0.9903923437659687	
702	0.9884198345279365	
801	0.9867203176899253	
900	0.9852638680519067	
1002	0.9847643612138419	
1101	0.9844800819758399	
1200	0.984178770337883	
1302	0.9836792634999639	
1401	0.9833949842620039	
1500	0.983093672624047	
1602	0.9825941657861279	
1701	0.9823098865481679	
1800	0.982008574910211	
1902	0.9815090680722919	
2001	0.9812247888343317	
2100	0.9809234771963758	
2202	0.9804239703584576	
2301	0.9801396911204985	
2400	0.9798383794825426	
2502	0.9793388726446243	
2601	0.9790545934066651	
2700	0.9787532817687092	
2802	0.978253774930791	
2901	0.9779694956928319	
