Node Energy consumption
Time (sec)	Remain energy (%)
119	0.9999411607999982	
122	0.999689888799993	
125	0.999378229199986	
128	0.9990557307999787	
131	0.9987936199999731	
200	0.9985407995999679	
302	0.9954963758339753	
308	0.995095319833987	
401	0.9923027126339887	
500	0.9892809738339897	
602	0.9859816922340342	
701	0.9830362042340619	
800	0.9800144654340884	
902	0.9773157418340811	
1001	0.9770427922340553	
1100	0.9767497134340389	
1202	0.9762321166341393	
1301	0.9759591670341933	
1400	0.9756660882342509	
1502	0.9751484914343514	
1601	0.9748755418344054	
1700	0.974582463034463	
1802	0.9740648662345636	
1901	0.9737919166346175	
2000	0.9734988378346752	
2102	0.9729812410347756	
2201	0.9727082914348295	
2300	0.9724152126348873	
2402	0.9718976158349877	
2501	0.9716246662350416	
2600	0.9713315874350994	
2702	0.9708139906351998	
2801	0.9705410410352537	
2900	0.9702479622353115	
