Node Energy consumption
Time (sec)	Remain energy (%)
121	0.9997961453387525	
202	0.999140519249874	
301	0.9987829074835171	
400	0.9935349193455402	
502	0.9898914035250136	
601	0.9865319439087448	
700	0.9832566467087825	
802	0.9796121921863143	
901	0.9768672049763261	
1000	0.9765927069763002	
1102	0.9760730816538163	
1201	0.975778988592632	
1300	0.975506038992686	
1402	0.9749864136703023	
1501	0.9746923206091179	
1600	0.9744193710091719	
1702	0.973900966381611	
1801	0.9736068733204267	
1900	0.9733339237204807	
2002	0.9728153167847741	
2101	0.972521996048818	
2200	0.9722490464488719	
2302	0.9717295958423051	
2401	0.9714359842329952	
2500	0.9711630346330491	
2602	0.9706434614719025	
2701	0.9703493684107182	
2800	0.9700764188107721	
2902	0.9695567934883884	
