Node Energy consumption
Time (sec)	Remain energy (%)
127	0.9997832239999934	
130	0.9995412423999885	
133	0.9993286803999845	
202	0.9990603759999788	
301	0.9984491083477702	
310	0.9967037554339302	
400	0.9958478806339498	
502	0.9947585134339769	
601	0.9938104614339873	
700	0.9928521394339783	
802	0.9917627722339575	
901	0.9909639670339457	
1000	0.9907514050339263	
1102	0.9904227130339279	
1201	0.9902055058339713	
1300	0.9899929438340138	
1402	0.9896642518340782	
1501	0.9894470446341217	
1600	0.9892344826341641	
1702	0.9889057906342287	
1801	0.988688583434272	
1900	0.9884760214343145	
2002	0.988147329434379	
2101	0.9879301222344223	
2200	0.9877175602344648	
2302	0.9873888682345293	
2401	0.9871716610345727	
2500	0.9869590990346152	
2602	0.9866304070346797	
2701	0.9864131998347231	
2800	0.9862006378347655	
2902	0.9858719458348301	
