Node Energy consumption
Time (sec)	Remain energy (%)
114	0.9999922579999998	
117	0.9998091155999966	
120	0.9995847005387509	
201	0.9991450578774986	
300	0.9988982858162558	
402	0.9939143376441206	
501	0.9906689941828667	
600	0.9873597239216866	
702	0.9838618332604752	
801	0.9806164897992745	
900	0.9779225347380626	
1002	0.9775479248767848	
1101	0.9773033806155469	
1200	0.9770603847543529	
1302	0.9766888716931833	
1401	0.9764443274319896	
1500	0.9762013315707956	
1602	0.9758298185096259	
1701	0.9755852742484322	
1800	0.9753422783872383	
1902	0.9749707653260686	
2001	0.9747262210648749	
2100	0.9744832252036809	
2202	0.9741117121425114	
2301	0.9738671678813177	
2400	0.9736241720201236	
2502	0.9732526589589541	
2601	0.9730081146977604	
2700	0.9727651188365664	
2802	0.9723936057753967	
2901	0.972149061514203	
