Node Energy consumption
Time (sec)	Remain energy (%)
116	0.9999845159999995	
119	0.999788986399996	
122	0.9995444421387497	
125	0.9992885249387443	
200	0.9990186721387385	
302	0.9969452267044635	
401	0.9960033683044646	
500	0.9950697544432229	
602	0.9939601255207562	
701	0.9930399447207553	
800	0.9921063308595135	
902	0.991150404337009	
1001	0.9909146163369871	
1100	0.9906793624757355	
1202	0.9902820607533286	
1301	0.9900462727533754	
1400	0.9898110188921799	
1502	0.989413717169773	
1601	0.9891779291698198	
1700	0.9889426753086245	
1802	0.9885453735862174	
1901	0.9883095855862644	
2000	0.9880743317250689	
2102	0.9876770300026619	
2201	0.9874412420027088	
2300	0.9872059881415133	
2402	0.9868086864191064	
2501	0.9865728984191533	
2600	0.9863376445579578	
2702	0.9859403428355509	
2801	0.9857045548355977	
2900	0.9854693009744022	
