Node Energy consumption
Time (sec)	Remain energy (%)
120	0.9999101927999973	
123	0.9996325979999913	
126	0.9993131963999841	
129	0.9990170207999775	
201	0.9986016183999673	
300	0.9983069911999644	
402	0.9925864062339723	
501	0.9895646674339733	
600	0.9865975018340274	
702	0.9833198978340342	
801	0.9802981590340606	
900	0.9778224050340765	
1002	0.9773264858340276	
1101	0.9770334070340339	
1200	0.976738779834092	
1302	0.9762428606341882	
1401	0.975949781834246	
1500	0.9756551546343041	
1602	0.9751592354344003	
1701	0.9748661566344581	
1800	0.9745715294345162	
1902	0.9740756102346124	
2001	0.9737825314346702	
2100	0.9734879042347283	
2202	0.9729919850348245	
2301	0.9726989062348823	
2400	0.9724042790349404	
2502	0.9719083598350367	
2601	0.9716152810350944	
2700	0.9713206538351525	
2802	0.9708247346352488	
2901	0.9705316558353065	
