Node Energy consumption
Time (sec)	Remain energy (%)
126	0.9996000219619726	
201	0.9991092821007188	
300	0.9988079704626992	
402	0.994603297218716	
501	0.9928748979807129	
600	0.9911583487427357	
702	0.9891858395047035	
801	0.987457440266693	
900	0.9860009906286743	
1002	0.9855014837906095	
1101	0.9852172045525939	
1200	0.9849158929146371	
1302	0.9844163860767179	
1401	0.9841321068387578	
1500	0.9838307952008011	
1602	0.9833312883628819	
1701	0.9830470091249218	
1800	0.982745697486965	
1902	0.9822461906490458	
2001	0.9819619114110858	
2100	0.981660599773129	
2202	0.9811610929352107	
2301	0.9808768136972515	
2400	0.9805755020592957	
2502	0.9800759952213774	
2601	0.9797917159834183	
2700	0.9794904043454624	
2802	0.9789908975075441	
2901	0.9787066182695849	
