Node Energy consumption
Time (sec)	Remain energy (%)
122	0.9997373061387507	
200	0.9992862905387394	
302	0.9970008073455615	
401	0.9934793461455499	
500	0.9901829054842981	
602	0.9865376115087434	
701	0.9832010735087825	
800	0.9799046328475767	
902	0.9768728725763247	
1001	0.9765983745762988	
1100	0.9763027331150379	
1202	0.9757846561926539	
1301	0.9755117065927078	
1400	0.9752160651315238	
1502	0.9746979882091398	
1601	0.9744250386091937	
1700	0.9741295302205217	
1802	0.9736125409204486	
1901	0.9733395913205025	
2000	0.9730448028422357	
2102	0.9725276636488398	
2201	0.9722547140488937	
2300	0.9719592473035267	
2402	0.971441651833017	
2501	0.971168702233071	
2600	0.9708730857646234	
2702	0.97035503601074	
2801	0.970082086410794	
2900	0.96978644494961	
