Node Energy consumption
Time (sec)	Remain energy (%)
116	0.9999736771999992	
200	0.9994953245387458	
302	0.9977078351053629	
401	0.9944104811053497	
500	0.9911651376440956	
602	0.9876449659216691	
701	0.9843579767217133	
800	0.9811126332605127	
902	0.978207776738045	
1001	0.9779828275380242	
1100	0.9777382832767654	
1202	0.9773471751543573	
1301	0.9771237743544018	
1400	0.9768792300932081	
1502	0.9764881219707999	
1601	0.9762647211708445	
1700	0.9760201769096508	
1802	0.9756290687872426	
1901	0.9754056679872872	
2000	0.9751611237260934	
2102	0.9747700156036854	
2201	0.9745466148037298	
2300	0.9743020705425361	
2402	0.9739109624201281	
2501	0.9736875616201726	
2600	0.9734430173589789	
2702	0.9730519092365707	
2801	0.9728285084366153	
2900	0.9725839641754216	
