Node Energy consumption
Time (sec)	Remain energy (%)
119	0.9998730311999962	
122	0.9995479701387474	
125	0.9991748979619646	
128	0.99884035346388	
131	0.9985828878638746	
200	0.9983238738638691	
302	0.9903480235368592	
305	0.9870143826510178	
401	0.9544104000500307	
500	0.92114567731293	
602	0.8862057098884317	
701	0.8522946795894489	
800	0.8190299568543503	
902	0.7908054633341789	
1001	0.7904612873341457	
1100	0.790095283998032	
1202	0.7893946765259804	
1301	0.7890520489260475	
1400	0.7886860455900258	
1502	0.7879854381179742	
1601	0.7876428105180413	
1700	0.7872769402545315	
1802	0.7865774204047908	
1901	0.786234792804858	
2000	0.7858696424517534	
2102	0.7851699727086889	
2201	0.7848273451087562	
2300	0.7844615164885503	
2402	0.7837613904683712	
2501	0.7834187628684384	
2600	0.7830527845251523	
2702	0.7823522042215995	
2801	0.7820095766216666	
2900	0.7816435732856439	
