Node Energy consumption
Time (sec)	Remain energy (%)
116	0.9999690319999991	
119	0.9997378891999945	
122	0.9994499897387468	
200	0.9989974257387355	
302	0.9964982949455569	
401	0.9931904813455469	
500	0.9898327998842945	
602	0.9861875059087399	
701	0.9829122087087777	
800	0.9795545272475731	
902	0.9765840077763199	
1001	0.976309509776294	
1100	0.9760138683150367	
1202	0.9754957913926526	
1301	0.9752228417927066	
1400	0.9749272003315226	
1502	0.9744091234091387	
1601	0.9741361738091926	
1700	0.9738406654205205	
1802	0.9733236761204475	
1901	0.9730507265205014	
2000	0.9727559380422346	
2102	0.9722387988488387	
2201	0.9719658492488926	
2300	0.9716703825035256	
2402	0.9711527870330158	
2501	0.9708798374330697	
2600	0.9705842209646222	
2702	0.9700661712107388	
2801	0.9697932216107927	
2900	0.9694975801496087	
