Node Energy consumption
Time (sec)	Remain energy (%)
126	0.9997383203999921	
129	0.9994885967999869	
132	0.9992651959999825	
201	0.9990015367999769	
300	0.9987533615999753	
402	0.9948583331810242	
501	0.9932042107810347	
600	0.9915119155810694	
702	0.9896699627810662	
801	0.9880158403810754	
900	0.9866125271810777	
1002	0.986243576781042	
1101	0.9860046919810445	
1200	0.9857565167810937	
1302	0.9853875663811658	
1401	0.9851486815812133	
1500	0.9849005063812625	
1602	0.9845315559813347	
1701	0.9842926711813822	
1800	0.9840444959814314	
1902	0.9836755455815036	
2001	0.983436660781551	
2100	0.9831884855816003	
2202	0.9828195351816724	
2301	0.9825806503817199	
2400	0.9823324751817691	
2502	0.9819635247818413	
2601	0.9817246399818887	
2700	0.9814764647819381	
2802	0.9811075143820102	
2901	0.9808686295820577	
