Node Energy consumption
Time (sec)	Remain energy (%)
122	0.9997450481387509	
125	0.9994457757387443	
200	0.999157342138738	
302	0.9966864839441192	
401	0.9930964897455473	
500	0.9898000490842954	
602	0.9861547551087422	
701	0.9828182171087813	
800	0.9795217764475753	
902	0.9764900161763235	
1001	0.9762155181762976	
1100	0.9759198767150339	
1202	0.9754017997926498	
1301	0.9751288501927038	
1400	0.9748332087315198	
1502	0.9743151318091358	
1601	0.9740421822091897	
1700	0.9737466738205177	
1802	0.9732296845204446	
1901	0.9729567349204985	
2000	0.9726619464422317	
2102	0.9721448072488358	
2201	0.9718718576488897	
2300	0.9715763909035227	
2402	0.971058795433013	
2501	0.9707858458330669	
2600	0.9704902293646194	
2702	0.969972179610736	
2801	0.96969923001079	
2900	0.969403588549606	
