Node Energy consumption
Time (sec)	Remain energy (%)
120	0.9998921461387554	
123	0.9996331321387499	
129	0.9993524405387438	
201	0.9991017026774973	
300	0.9988556100162547	
402	0.996072431643227	
501	0.9951527849819857	
600	0.9942083323207674	
702	0.9931090080595103	
801	0.9921893613982681	
900	0.9913846439370206	
1002	0.9909976468757415	
1101	0.9907623930145055	
1200	0.9905163003533121	
1302	0.9901293032921454	
1401	0.9898940494309499	
1500	0.9896479567697566	
1602	0.9892609597085898	
1701	0.9890257058473945	
1800	0.988779613186201	
1902	0.9883926161250344	
2001	0.9881573622638389	
2100	0.9879112696026454	
2202	0.9875242725414788	
2301	0.9872890186802833	
2400	0.9870429260190899	
2502	0.9866559289579233	
2601	0.9864206750967278	
2700	0.9861745824355344	
2802	0.9857875853743677	
2901	0.9855523315131722	
