Node Energy consumption
Time (sec)	Remain energy (%)
120	0.9999117411999974	
123	0.9996393257387501	
126	0.9993405767619696	
201	0.9988570447619574	
300	0.9985557331239361	
402	0.9942664238799661	
501	0.9925380246419631	
600	0.9908214754039895	
702	0.9888489661659572	
801	0.9871205669279467	
900	0.9856641172899281	
1002	0.9851646104518633	
1101	0.9848803312138412	
1200	0.9845790195758845	
1302	0.9840795127379652	
1401	0.9837952335000052	
1500	0.9834939218620484	
1602	0.9829944150241292	
1701	0.9827101357861692	
1800	0.9824088241482124	
1902	0.9819093173102932	
2001	0.9816250380723331	
2100	0.9813237264343764	
2202	0.980824219596458	
2301	0.9805399403584989	
2400	0.980238628720543	
2502	0.9797391218826248	
2601	0.9794548426446656	
2700	0.9791535310067098	
2802	0.9786540241687914	
2901	0.9783697449308323	
