Node Energy consumption
Time (sec)	Remain energy (%)
122	0.9998482567999954	
125	0.9995396939999884	
128	0.9992110019999809	
131	0.9989426975999752	
200	0.9987038127999703	
302	0.996322842353505	
401	0.992603964633981	
500	0.9896367990339824	
602	0.9863375174340291	
701	0.9833374562340579	
800	0.9803702906340833	
902	0.9776169938340771	
1001	0.9773440442340513	
1100	0.9770509654340276	
1202	0.976533368634128	
1301	0.9762604190341819	
1400	0.9759673402342397	
1502	0.9754497434343401	
1601	0.975176793834394	
1700	0.9748837150344518	
1802	0.9743661182345522	
1901	0.9740931686346062	
2000	0.9738000898346639	
2102	0.9732824930347643	
2201	0.9730095434348183	
2300	0.972716464634876	
2402	0.9721988678349764	
2501	0.9719259182350304	
2600	0.9716328394350882	
2702	0.9711152426351886	
2801	0.9708422930352425	
2900	0.9705492142353003	
