Node Energy consumption
Time (sec)	Remain energy (%)
117	0.9999473543999984	
120	0.9996764873387513	
123	0.9993292145387431	
126	0.9989638843619606	
201	0.9983465168026261	
300	0.9979766608389102	
402	0.9907221385900721	
501	0.9865527039539824	
600	0.9824517609199218	
702	0.9778973981287571	
801	0.9737279634927054	
900	0.9703129393566381	
1002	0.969635772671707	
1101	0.9692697693356264	
1200	0.9689006691996052	
1302	0.9682265342636419	
1401	0.9678605309276201	
1500	0.9674914307915989	
1602	0.9668172958556357	
1701	0.9664514255921259	
1800	0.9660834130784157	
1902	0.9654092781424525	
2001	0.9650441277893479	
2100	0.9646751930570865	
2202	0.9640018304463506	
2301	0.9636360018261448	
2400	0.9632669016901227	
2502	0.9625932482060329	
2601	0.9622272698627466	
2700	0.9618581968952252	
2802	0.9611840619592611	
2901	0.9608180586232383	
