Node Energy consumption
Time (sec)	Remain energy (%)
126	0.9995850287999875	
129	0.999290401599981	
201	0.9988719023999706	
300	0.9985772751999682	
402	0.9928867530339827	
501	0.989919587433984	
600	0.9868978486340383	
702	0.983620244634045	
801	0.9806530790340704	
900	0.9781773250340863	
1002	0.9776814058340374	
1101	0.9773883270340454	
1200	0.9770936998341035	
1302	0.9765977806341998	
1401	0.9763047018342575	
1500	0.9760100746343157	
1602	0.9755141554344119	
1701	0.9752210766344697	
1800	0.9749264494345278	
1902	0.974430530234624	
2001	0.9741374514346818	
2100	0.9738428242347399	
2202	0.9733469050348361	
2301	0.9730538262348939	
2400	0.972759199034952	
2502	0.9722632798350482	
2601	0.971970201035106	
2700	0.9716755738351641	
2802	0.9711796546352603	
2901	0.9708865758353181	
