Node Energy consumption
Time (sec)	Remain energy (%)
117	0.9999581931999987	
120	0.999720856799994	
123	0.999423666938746	
201	0.9989633609387345	
300	0.9986685120498675	
402	0.9931564165455484	
501	0.989798735084296	
600	0.9865005471250811	
702	0.9828781439087741	
801	0.9795204624475695	
900	0.9767754101863524	
1002	0.9762754449762905	
1101	0.9759798035150432	
1200	0.9756857104538589	
1302	0.9751887769927131	
1401	0.9748931355315291	
1500	0.9745990424703448	
1602	0.974102109009199	
1701	0.9738066006205269	
1800	0.9735135951816536	
1902	0.9730166617205078	
2001	0.972721873242241	
2100	0.9724279455848166	
2202	0.971931784448899	
2301	0.971636317703532	
2400	0.9713422246423477	
2502	0.9708457726330761	
2601	0.9705501561646287	
2700	0.970256090271945	
2802	0.9697591568107993	
2901	0.9694635153496153	
