Node Energy consumption
Time (sec)	Remain energy (%)
115	0.9999814191999994	
118	0.9997688571999954	
121	0.9994948933387482	
124	0.9991940725387415	
202	0.9986917380498677	
301	0.9974130417464445	
400	0.9931095333455426	
502	0.9894633315250161	
601	0.9861677987087428	
700	0.9828312607087819	
802	0.9791868061863137	
901	0.9765030597763241	
1000	0.9762285617762982	
1102	0.9757089364538243	
1201	0.9754148433926401	
1300	0.975141893792694	
1402	0.9746222684703102	
1501	0.974328175409126	
1600	0.9740552258091799	
1702	0.9735368211816191	
1801	0.9732427281204348	
1900	0.9729697785204887	
2002	0.9724511715847821	
2101	0.972157850848826	
2200	0.9718849012488799	
2302	0.9713654506423132	
2401	0.9710718390330031	
2500	0.970798889433057	
2602	0.9702793162719104	
2701	0.9699852232107262	
2800	0.9697122736107802	
2902	0.9691926482883965	
