Node Energy consumption
Time (sec)	Remain energy (%)
126	0.9996098031999882	
129	0.9993058855999813	
132	0.9990499683999761	
201	0.9987677283999699	
300	0.9984731011999649	
309	0.9952778710339839	
402	0.9924450054339874	
501	0.9894232666339884	
600	0.9864561010340466	
702	0.9831784970340532	
801	0.9801567582340798	
900	0.9776810042340957	
1002	0.9771850850340468	
1101	0.9768920062340448	
1200	0.9765973790341029	
1302	0.9761014598341992	
1401	0.9758083810342569	
1500	0.975513753834315	
1602	0.9750178346344113	
1701	0.974724755834469	
1800	0.9744301286345272	
1902	0.9739342094346234	
2001	0.9736411306346812	
2100	0.9733465034347393	
2202	0.9728505842348355	
2301	0.9725575054348933	
2400	0.9722628782349514	
2502	0.9717669590350476	
2601	0.9714738802351054	
2700	0.9711792530351635	
2802	0.9706833338352597	
2901	0.9703902550353175	
