Node Energy consumption
Time (sec)	Remain energy (%)
127	0.9996578035999896	
130	0.9994313059999852	
202	0.9991057107999777	
301	0.9988621807999775	
307	0.9964800904581135	
400	0.9941795584581063	
502	0.9914523632581058	
601	0.9889241532581511	
700	0.9864509272581771	
802	0.9837237320581882	
901	0.9816526476582044	
1000	0.9814184080581827	
1102	0.9810215864581768	
1201	0.9807780564582251	
1300	0.9805438168582717	
1402	0.9801469952583491	
1501	0.9799034652583976	
1600	0.9796692256584442	
1702	0.9792724040585216	
1801	0.97902887405857	
1900	0.9787946344586166	
2002	0.978397812858694	
2101	0.9781542828587424	
2200	0.9779200432587889	
2302	0.9775232216588664	
2401	0.9772796916589148	
2500	0.9770454520589613	
2602	0.9766486304590388	
2701	0.9764051004590871	
2800	0.9761708608591337	
2902	0.9757740392592112	
