Node Energy consumption
Time (sec)	Remain energy (%)
120	0.9999504511999985	
123	0.9997285987999942	
126	0.9994726815999888	
129	0.9992183127999835	
132	0.9989918151999791	
201	0.9987358979999738	
300	0.9984877227999712	
303	0.9962257191810142	
306	0.9960095863810232	
402	0.9943162167810367	
501	0.9926620943810471	
600	0.9909697991810834	
702	0.9891278463810803	
801	0.9874737239810893	
900	0.9860704107810918	
1002	0.9857014603810561	
1101	0.9854625755810552	
1200	0.9852144003811045	
1302	0.9848454499811766	
1401	0.9846065651812241	
1500	0.9843583899812733	
1602	0.9839894395813455	
1701	0.9837505547813931	
1800	0.9835023795814423	
1902	0.9831334291815145	
2001	0.9828945443815619	
2100	0.9826463691816112	
2202	0.9822774187816833	
2301	0.9820385339817308	
2400	0.98179035878178	
2502	0.9814214083818522	
2601	0.9811825235818996	
2700	0.9809343483819489	
2802	0.980565397982021	
2901	0.9803265131820685	
