Node Energy consumption
Time (sec)	Remain energy (%)
124	0.9997429655999922	
127	0.9994173703999848	
130	0.9991351303999786	
133	0.9988916003999736	
202	0.9985629083999661	
301	0.998268281199966	
310	0.9951303418339826	
400	0.9925161798339792	
502	0.9892184466339895	
601	0.986196707834039	
700	0.9832496714340665	
802	0.9799519382340711	
901	0.977476184234087	
1000	0.9772032346340612	
1102	0.9766871862340557	
1201	0.9763925590341138	
1300	0.9761196094341678	
1402	0.9756035610342678	
1501	0.9753089338343259	
1600	0.9750359842343799	
1702	0.9745199358344799	
1801	0.974225308634538	
1900	0.973952359034592	
2002	0.973436310634692	
2101	0.9731416834347502	
2200	0.9728687338348041	
2302	0.9723526854349042	
2401	0.9720580582349623	
2500	0.9717851086350162	
2602	0.9712690602351163	
2701	0.9709744330351744	
2800	0.9707014834352283	
2902	0.9701854350353284	
