Node Energy consumption
Time (sec)	Remain energy (%)
117	0.9999442575999983	
120	0.9996966165387519	
123	0.9994035377387454	
126	0.9991228461387393	
201	0.998680106677487	
300	0.9983837858162442	
303	0.9936944935609322	
402	0.98990806329969	
501	0.9863220323384428	
600	0.9826629816772664	
702	0.9787302671160467	
801	0.9751442361548461	
900	0.9721593398936328	
1002	0.9716546644323415	
1101	0.9713621197711128	
1200	0.9710695751099281	
1302	0.9705679964487832	
1401	0.9702754517875987	
1500	0.969982907126414	
1602	0.9694813284652691	
1701	0.9691887838040846	
1800	0.9688962391428999	
1902	0.968394660481755	
2001	0.9681021158205705	
2100	0.9678095711593859	
2202	0.967307992498241	
2301	0.9670154478370564	
2400	0.9667229031758718	
2502	0.9662213245147269	
2601	0.9659287798535423	
2700	0.9656362351923578	
2802	0.9651346565312129	
2901	0.9648421118700282	
