Node Energy consumption
Time (sec)	Remain energy (%)
118	0.9999349671999981	
202	0.9993967610775014	
301	0.9990963796162609	
400	0.9418620479804451	
502	0.890719885057554	
601	0.8405335555959711	
700	0.7915507643956341	
802	0.7404086014727838	
901	0.7003647796112947	
1000	0.7001398304112739	
1102	0.0	
1201	0.0	
1300	0.0	
1402	0.0	
1501	0.0	
1600	0.0	
1702	0.0	
1801	0.0	
1900	0.0	
2002	0.0	
2101	0.0	
2200	0.0	
2302	0.0	
2401	0.0	
2500	0.0	
2602	0.0	
2701	0.0	
2800	0.0	
2902	0.0	
