Node Energy consumption
Time (sec)	Remain energy (%)
117	0.9999783223999994	
120	0.9997724881387542	
123	0.999521216138749	
126	0.9992699441387438	
201	0.9989897866774964	
300	0.9987436940162517	
402	0.9959744828432243	
501	0.9950408689819827	
600	0.994110383520768	
702	0.9930110592595108	
801	0.992077445398269	
900	0.9912727279370216	
1002	0.9908857308757425	
1101	0.9906504770144987	
1200	0.9904043843533054	
1302	0.9900173872921386	
1401	0.9897821334309432	
1500	0.9895360407697498	
1602	0.9891490437085831	
1701	0.9889137898473876	
1800	0.9886676971861942	
1902	0.9882807001250276	
2001	0.9880454462638321	
2100	0.9877993536026387	
2202	0.9874123565414721	
2301	0.9871771026802766	
2400	0.9869310100190831	
2502	0.9865440129579165	
2601	0.986308759096721	
2700	0.9860626664355276	
2802	0.9856756693743609	
2901	0.9854404155131655	
