Node Energy consumption
Time (sec)	Remain energy (%)
119	0.9999349671999981	
122	0.999698164938752	
125	0.9994360541387464	
200	0.9991739433387409	
302	0.9972326919044717	
401	0.9962432755044723	
500	0.995323628843231	
602	0.994213999920766	
701	0.9932798519207656	
800	0.9923602052595234	
902	0.9913903115370192	
1001	0.9911545235369973	
1100	0.9909192696757408	
1202	0.9905219679533338	
1301	0.9902861799533808	
1400	0.9900509260921853	
1502	0.9896536243697783	
1601	0.9894178363698252	
1700	0.9891825825086297	
1802	0.9887852807862227	
1901	0.9885494927862697	
2000	0.9883142389250742	
2102	0.9879169372026673	
2201	0.9876811492027141	
2300	0.9874458953415186	
2402	0.9870485936191117	
2501	0.9868128056191585	
2600	0.9865775517579631	
2702	0.9861802500355561	
2801	0.985944462035603	
2900	0.9857092081744075	
