Node Energy consumption
Time (sec)	Remain energy (%)
121	0.999845694138754	
202	0.9993998578775015	
301	0.9991261152162607	
400	0.9943566439053544	
502	0.9908391581828644	
601	0.9875298879216812	
700	0.9843041395217241	
802	0.9807866537992691	
901	0.9780926987380572	
1000	0.9778677495380363	
1102	0.9774735446155478	
1201	0.9772305487543538	
1300	0.9770071479543984	
1402	0.9766144914319905	
1501	0.9763714955707965	
1600	0.976148094770841	
1702	0.9757554382484331	
1801	0.9755124423872391	
1900	0.9752890415872837	
2002	0.9748963850648759	
2101	0.9746533892036818	
2200	0.9744299884037264	
2302	0.9740373318813186	
2401	0.9737943360201246	
2500	0.9735709352201691	
2602	0.9731782786977612	
2701	0.9729352828365673	
2800	0.9727118820366117	
2902	0.9723192255142039	
