Node Energy consumption
Time (sec)	Remain energy (%)
125	0.9997156285387501	
200	0.9994550661387446	
302	0.997491019904469	
401	0.9964397623044688	
500	0.9955201156432275	
602	0.9944104867207633	
701	0.9934763387207629	
800	0.9925566920595206	
902	0.9915867983370165	
1001	0.9913510103369946	
1100	0.9911157564757367	
1202	0.9907184547533298	
1301	0.9904826667533766	
1400	0.9902474128921812	
1502	0.9898501111697742	
1601	0.9896143231698211	
1700	0.9893790693086256	
1802	0.9889817675862187	
1901	0.9887459795862655	
2000	0.98851072572507	
2102	0.9881134240026631	
2201	0.9878776360027101	
2300	0.9876423821415146	
2402	0.9872450804191076	
2501	0.9870092924191545	
2600	0.986774038557959	
2702	0.986376736835552	
2801	0.9861409488355989	
2900	0.9859056949744034	
