Node Energy consumption
Time (sec)	Remain energy (%)
124	0.9997646431999928	
127	0.9995009839999873	
130	0.9992791315999829	
202	0.998936503999975	
301	0.9984678239999777	
307	0.9962510220581252	
400	0.9938800220581187	
502	0.9911528268581181	
601	0.9886703104581593	
700	0.9861513908581863	
802	0.9834241956581973	
901	0.9813988048582125	
1000	0.9811645652581908	
1102	0.9807677436581941	
1201	0.9805242136582424	
1300	0.980289974058289	
1402	0.9798931524583664	
1501	0.9796496224584148	
1600	0.9794153828584614	
1702	0.9790185612585388	
1801	0.9787750312585872	
1900	0.9785407916586338	
2002	0.9781439700587112	
2101	0.9779004400587596	
2200	0.9776662004588063	
2302	0.9772693788588837	
2401	0.9770258488589321	
2500	0.9767916092589786	
2602	0.9763947876590561	
2701	0.9761512576591044	
2800	0.975917018059151	
2902	0.9755201964592285	
