Node Energy consumption
Time (sec)	Remain energy (%)
118	0.9999303219999979	
121	0.9996749389387513	
124	0.999388053738745	
202	0.9987811838774876	
301	0.9984112982162481	
400	0.9559823930381725	
502	0.9130444718149714	
601	0.8711581611539881	
700	0.8301228168543235	
802	0.787184895632166	
901	0.7536210125711847	
1000	0.7533418693711584	
1102	0.7528253408486753	
1201	0.7525327961874907	
1300	0.7522552013875455	
1402	0.7517386728651613	
1501	0.7514461282039766	
1600	0.7511685334040314	
1702	0.7506520048816472	
1801	0.7503594602204625	
1900	0.7500818654205174	
2002	0.7495653368981331	
2101	0.7492727922369484	
2200	0.7489951974370033	
2302	0.748478668914619	
2401	0.7481861242534344	
2500	0.7479085294534892	
2602	0.7473920009311049	
2701	0.7470994562699204	
2800	0.7468218614699752	
2902	0.7463053329475908	
