Node Energy consumption
Time (sec)	Remain energy (%)
127	0.9997197395999915	
130	0.9994715643999864	
133	0.9992528087999821	
202	0.9989798591999763	
301	0.9987316839999762	
400	0.994956882381012	
502	0.9930978971810287	
601	0.9914056019810602	
700	0.989768511981071	
802	0.9879095267810661	
901	0.9865062135810686	
1000	0.9862843611810481	
1102	0.9858983783810416	
1201	0.9856502031810908	
1300	0.985428350781135	
1402	0.9850423679812104	
1501	0.9847941927812597	
1600	0.9845723403813039	
1702	0.9841863575813793	
1801	0.9839381823814285	
1900	0.9837163299814727	
2002	0.9833303471815482	
2101	0.9830821719815974	
2200	0.9828603195816417	
2302	0.982474336781717	
2401	0.9822261615817663	
2500	0.9820043091818105	
2602	0.981618326381886	
2701	0.9813701511819352	
2800	0.9811482987819794	
2902	0.9807623159820548	
