Node Energy consumption
Time (sec)	Remain energy (%)
123	0.9997558869387513	
126	0.9994524927619706	
201	0.9989617529007168	
300	0.9986604412626978	
402	0.9944557680187146	
501	0.9927273687807115	
600	0.991010819542733	
702	0.9890383103047008	
801	0.9873099110666902	
900	0.9858534614286716	
1002	0.9853539545906068	
1101	0.9850696753525939	
1200	0.984768363714637	
1302	0.984268856876718	
1401	0.9839845776387579	
1500	0.983683266000801	
1602	0.9831837591628819	
1701	0.9828994799249218	
1800	0.982598168286965	
1902	0.9820986614490458	
2001	0.9818143822110857	
2100	0.981513070573129	
2202	0.9810135637352108	
2301	0.9807292844972516	
2400	0.9804279728592956	
2502	0.9799284660213774	
2601	0.9796441867834182	
2700	0.9793428751454624	
2802	0.9788433683075441	
2901	0.978559089069585	
