Node Energy consumption
Time (sec)	Remain energy (%)
116	0.999965935199999	
122	0.9995804865387483	
200	0.9991217289387369	
302	0.9965379621455523	
401	0.9932301485455424	
500	0.9898724670842901	
602	0.9862271731087334	
701	0.9829518759087712	
800	0.9795941944475666	
902	0.9766236749763134	
1001	0.9763491769762875	
1100	0.9760535355150343	
1202	0.9755354585926502	
1301	0.9752625089927042	
1400	0.9749668675315202	
1502	0.9744487906091361	
1601	0.9741758410091901	
1700	0.9738803326205181	
1802	0.9733633433204449	
1901	0.9730903937204989	
2000	0.9727956052422321	
2102	0.9722784660488362	
2201	0.9720055164488901	
2300	0.971710049703523	
2402	0.9711924542330134	
2501	0.9709195046330673	
2600	0.9706238881646198	
2702	0.9701058384107364	
2801	0.9698328888107903	
2900	0.9695372473496063	
