Node Energy consumption
Time (sec)	Remain energy (%)
117	0.9999597415999988	
120	0.9997384233387532	
201	0.9993096194775012	
300	0.9990650752162564	
402	0.9941401400441219	
501	0.9908335557828672	
600	0.9875855263216898	
702	0.9840876356604783	
801	0.9807810513992791	
900	0.9780870963380671	
1002	0.9777124864767893	
1101	0.9774679422155437	
1200	0.9772249463543496	
1302	0.9768534332931801	
1401	0.9766088890319863	
1500	0.9763658931707924	
1602	0.9759943801096227	
1701	0.975749835848429	
1800	0.975506839987235	
1902	0.9751353269260654	
2001	0.9748907826648717	
2100	0.9746477868036777	
2202	0.9742762737425081	
2301	0.9740317294813144	
2400	0.9737887336201204	
2502	0.9734172205589509	
2601	0.973172676297757	
2700	0.9729296804365631	
2802	0.9725581673753935	
2901	0.9723136231141998	
