Node Energy consumption
Time (sec)	Remain energy (%)
123	0.9996382085387476	
126	0.9992728783619651	
201	0.9986766542638726	
300	0.9983067983001529	
402	0.9922420039395967	
501	0.9880725693035072	
600	0.9839716262694546	
702	0.9794172634782898	
801	0.975247828842238	
900	0.9718328047061708	
1002	0.9711556380212396	
1101	0.970789634685144	
1200	0.9704205345491229	
1302	0.9697463996131596	
1401	0.9693803962771378	
1500	0.9690112961411167	
1602	0.9683371612051533	
1701	0.9679712909416436	
1800	0.9676032784279334	
1902	0.9669291434919701	
2001	0.9665639931388655	
2100	0.9661950584066041	
2202	0.9655216957958682	
2301	0.9651558671756625	
2400	0.9647867670396404	
2502	0.9641131135555505	
2601	0.9637471352122643	
2700	0.9633780622447429	
2802	0.9627039273087787	
2901	0.962337923972756	
