Node Energy consumption
Time (sec)	Remain energy (%)
123	0.9996924025387494	
201	0.9991149522774929	
300	0.9988208592162486	
402	0.9928907943776139	
501	0.9892374870163662	
600	0.9856457127551913	
702	0.9817129981939715	
801	0.9780596908327724	
900	0.9750747945715591	
1002	0.9745701191102678	
1101	0.9742775744490331	
1200	0.9739850297878485	
1302	0.9734834511267035	
1401	0.973190906465519	
1500	0.9728983618043344	
1602	0.9723967831431896	
1701	0.9721042384820049	
1800	0.9718116938208203	
1902	0.9713101151596755	
2001	0.9710175704984908	
2100	0.9707250258373062	
2202	0.9702234471761614	
2301	0.9699309025149767	
2400	0.9696383578537922	
2502	0.9691367791926473	
2601	0.9688442345314627	
2700	0.9685516898702781	
2802	0.9680501112091332	
2901	0.9677575665479486	
