Node Energy consumption
Time (sec)	Remain energy (%)
119	0.9999380639999981	
122	0.9996836951999928	
125	0.9993689387999857	
128	0.9990526339999786	
131	0.998790523199973	
200	0.9985315091999676	
302	0.9955717214339624	
308	0.9951768590339739	
401	0.9923780582339758	
500	0.9893563194339768	
602	0.98605703783402	
701	0.9831115498340477	
800	0.9800898110340741	
902	0.9773910874340669	
1001	0.9771181378340411	
1100	0.9768250590340274	
1202	0.9763074622341278	
1301	0.9760345126341817	
1400	0.9757414338342395	
1502	0.9752238370343399	
1601	0.9749508874343938	
1700	0.9746578086344516	
1802	0.974140211834552	
1901	0.973867262234606	
2000	0.9735741834346637	
2102	0.9730565866347641	
2201	0.9727836370348181	
2300	0.9724905582348758	
2402	0.9719729614349762	
2501	0.9717000118350302	
2600	0.971406933035088	
2702	0.9708893362351884	
2801	0.9706163866352423	
2900	0.9703233078353001	
