Node Energy consumption
Time (sec)	Remain energy (%)
121	0.9998441457387539	
124	0.9995453967619734	
127	0.9992476727619668	
130	0.999010336361962	
202	0.9985867011239363	
301	0.9970802278130942	
400	0.9943041766799471	
502	0.9923234346039382	
601	0.9906068853659458	
700	0.9888867189659517	
802	0.9869059768899031	
901	0.9854784096518838	
1000	0.9852023632518577	
1102	0.9846946235758351	
1201	0.9843933119378784	
1300	0.9841172655379329	
1402	0.9836095258619991	
1501	0.9833082142240424	
1600	0.9830321678240969	
1702	0.9825244281481631	
1801	0.9822231165102063	
1900	0.9819470701102608	
2002	0.9814393304343271	
2101	0.9811380187963712	
2200	0.9808619723964257	
2302	0.9803542327204938	
2401	0.9800529210825378	
2500	0.9797768746825924	
2602	0.9792691350066605	
2701	0.9789678233687046	
2800	0.9786917769687591	
2902	0.9781840372928271	
