Node Energy consumption
Time (sec)	Remain energy (%)
117	0.9999798707999994	
120	0.9997626635999952	
123	0.9994835203999892	
126	0.9991625703999819	
201	0.9985876827999668	
300	0.998293055599965	
402	0.9925178974339727	
501	0.9895507318339739	
600	0.9865289930340271	
702	0.9832513890340338	
801	0.9802842234340592	
900	0.9778084694340751	
1002	0.9773125502340262	
1101	0.9770194714340366	
1200	0.9767248442340946	
1302	0.9762289250341909	
1401	0.9759358462342487	
1500	0.9756412190343067	
1602	0.975145299834403	
1701	0.9748522210344608	
1800	0.9745575938345188	
1902	0.9740616746346151	
2001	0.9737685958346729	
2100	0.9734739686347309	
2202	0.9729780494348272	
2301	0.972684970634885	
2400	0.972390343434943	
2502	0.9718944242350394	
2601	0.971601345435097	
2700	0.9713067182351551	
2802	0.9708107990352515	
2901	0.9705177202353091	
