Node Energy consumption
Time (sec)	Remain energy (%)
124	0.9997569011999926	
127	0.999493241999987	
130	0.9992729379999827	
202	0.9989287619999747	
301	0.9973487743537809	
307	0.9963294644581123	
400	0.9939569160581059	
502	0.9912297208581053	
601	0.9887472044581453	
700	0.9862282848581723	
802	0.9835010896581833	
901	0.9814756988581986	
1000	0.9812414592581769	
1102	0.9808446376581824	
1201	0.9806011076582307	
1300	0.9803668680582773	
1402	0.9799700464583547	
1501	0.9797265164584031	
1600	0.9794922768584498	
1702	0.9790954552585271	
1801	0.9788519252585756	
1900	0.9786176856586222	
2002	0.9782208640586996	
2101	0.977977334058748	
2200	0.9777430944587945	
2302	0.977346272858872	
2401	0.9771027428589204	
2500	0.9768685032589669	
2602	0.9764716816590444	
2701	0.9762281516590927	
2800	0.9759939120591393	
2902	0.9755970904592168	
