Node Energy consumption
Time (sec)	Remain energy (%)
119	0.9999427091999983	
122	0.9997105521387523	
125	0.9994530865387469	
200	0.9991940725387415	
302	0.9982370355030329	
401	0.9961787687044646	
500	0.9952591220432233	
602	0.9941494931207614	
701	0.9932153451207609	
800	0.9922956984595187	
902	0.9913258047370146	
1001	0.9910900167369927	
1100	0.9908547628757303	
1202	0.9904574611533232	
1301	0.9902216731533702	
1400	0.9899864192921747	
1502	0.9895891175697678	
1601	0.9893533295698146	
1700	0.9891180757086191	
1802	0.9887207739862122	
1901	0.9884849859862591	
2000	0.9882497321250636	
2102	0.9878524304026567	
2201	0.9876166424027035	
2300	0.987381388541508	
2402	0.9869840868191011	
2501	0.9867482988191479	
2600	0.9865130449579526	
2702	0.9861157432355455	
2801	0.9858799552355925	
2900	0.985644701374397	
