Node Energy consumption
Time (sec)	Remain energy (%)
118	0.9999241283999977	
121	0.99963622893875	
124	0.9992801891619678	
127	0.9989177734638823	
202	0.9982692055001535	
301	0.9978743170589458	
400	0.9910516980513029	
502	0.9864755387810931	
601	0.9822997202899822	
700	0.9782269575900234	
802	0.9736498596178463	
901	0.9702349005330081	
1000	0.9698907245329749	
1102	0.96919166546079	
1201	0.9688225653247688	
1300	0.9684799377248361	
1402	0.9677824270527838	
1501	0.9674133269167627	
1600	0.9670706993168299	
1702	0.9663744093396006	
1801	0.9660053092035794	
1900	0.9656626816036465	
2002	0.9649661893182714	
2101	0.9645978615074775	
2200	0.9642552339075448	
2302	0.9635578979513076	
2401	0.9631892792671598	
2500	0.9628466516672269	
2602	0.9621491931564101	
2701	0.961780093020388	
2800	0.9614374654204552	
2902	0.9607399547484011	
