Node Energy consumption
Time (sec)	Remain energy (%)
120	0.9998580813387543	
201	0.999416890277502	
300	0.9991701182162596	
402	0.9941861700441245	
501	0.9909408265828704	
600	0.9876315563216896	
702	0.9841336656604782	
801	0.9808883221992776	
900	0.9781943671380656	
1002	0.9778197572767878	
1101	0.9775752130155513	
1200	0.9773322171543573	
1302	0.9769607040931877	
1401	0.976716159831994	
1500	0.9764731639708	
1602	0.9761016509096304	
1701	0.9758571066484367	
1800	0.9756141107872427	
1902	0.9752425977260731	
2001	0.9749980534648793	
2100	0.9747550576036854	
2202	0.9743835445425157	
2301	0.974139000281322	
2400	0.973896004420128	
2502	0.9735244913589585	
2601	0.9732799470977648	
2700	0.9730369512365707	
2802	0.9726654381754012	
2901	0.9724208939142075	
