Node Energy consumption
Time (sec)	Remain energy (%)
120	0.9998038873387527	
123	0.9994519693387445	
126	0.999089735961962	
201	0.9984661748026272	
300	0.9980940910389128	
402	0.9907669519900744	
501	0.986672361953985	
600	0.9824965743199235	
702	0.9779422115287588	
801	0.9738476214927052	
900	0.970432597356638	
1002	0.9697554306717068	
1101	0.9693894273356317	
1200	0.9690203271996105	
1302	0.9683461922636473	
1401	0.9679801889276255	
1500	0.9676110887916043	
1602	0.966936953855641	
1701	0.9665710835921313	
1800	0.966203071078421	
1902	0.9655289361424577	
2001	0.9651637857893531	
2100	0.9647948510570918	
2202	0.9641214884463559	
2301	0.9637556598261501	
2400	0.963386559690128	
2502	0.9627129062060381	
2601	0.962346927862752	
2700	0.9619778548952305	
2802	0.9613037199592663	
2901	0.9609377166232437	
