0 4
75 0
147 23
169 2
271 0
311 5
371 7
442 14
503 0
584 6
640 0
714 4
781 0
856 12
879 0
0 40
64 79
106 48
182 62
269 39
296 58
360 59
459 69
508 74
586 82
636 69
697 81
765 72
839 40
904 55
4 145
86 150
127 137
170 127
243 141
331 146
409 124
448 126
516 153
597 121
662 137
688 128
767 152
839 140
913 147
0 186
57 200
121 208
198 180
260 208
296 182
373 181
460 209
493 196
584 189
631 174
699 172
778 168
854 215
904 186
15 237
77 248
139 271
200 265
237 239
311 266
367 278
459 256
487 249
595 263
659 280
686 268
766 240
833 241
896 262
21 307
73 331
110 310
217 300
254 317
343 295
372 307
460 315
487 301
572 304
632 305
721 311
784 339
833 317
872 307
3 370
40 394
106 369
213 377
250 390
304 385
399 408
434 391
511 394
585 406
652 403
706 360
755 377
831 395
918 402
24 462
48 450
138 433
207 443
248 473
322 471
397 433
442 451
496 426
568 456
658 451
724 440
775 444
834 449
882 423
0 522
44 498
149 499
198 489
247 512
332 506
366 523
434 487
535 536
551 514
652 491
725 487
751 515
855 500
874 502
0 590
51 578
117 556
175 599
242 595
334 583
394 581
449 581
488 575
589 558
660 559
703 598
767 595
816 590
893 601
1 659
49 625
122 628
199 637
270 638
340 639
406 655
427 618
532 631
579 654
653 621
679 638
773 645
845 659
876 659
12 705
83 709
132 680
209 718
236 704
314 686
375 707
423 695
490 711
578 688
619 726
693 689
786 722
825 721
895 718
0 773
56 772
105 779
197 756
237 791
323 745
393 759
461 756
531 759
568 774
657 764
681 758
753 760
807 785
900 756
0 823
64 810
107 820
175 828
239 828
328 840
407 821
428 825
510 851
574 830
633 811
704 857
771 821
845 832
908 835
19 917
70 879
118 877
214 920
262 899
342 913
363 889
444 896
492 912
566 921
615 897
688 886
777 887
854 919
892 898
