0 0
84 0
132 0
183 15
281 2
343 12
391 0
429 0
509 0
565 0
636 0
712 0
759 0
841 15
887 0
0 71
62 47
106 56
214 70
253 51
327 52
381 76
462 61
493 59
562 73
651 50
699 83
782 66
816 42
877 58
18 121
55 137
107 114
205 135
239 109
326 129
400 104
441 108
525 104
562 134
636 128
712 136
749 144
849 145
893 147
0 199
65 178
109 213
199 186
240 180
295 215
371 173
473 179
491 171
563 184
620 171
715 178
792 168
854 202
915 212
0 254
88 276
136 264
202 264
279 269
295 273
373 257
427 242
529 259
554 277
626 246
683 272
761 247
855 252
874 256
4 342
81 335
144 342
213 329
234 320
344 299
390 334
434 333
500 323
597 341
619 298
709 314
762 343
856 331
918 316
24 388
76 384
143 372
185 397
261 386
319 374
394 397
435 362
492 399
601 387
627 395
686 407
763 387
848 383
900 370
0 438
71 467
134 469
183 447
263 423
341 434
374 441
437 464
512 428
576 433
639 431
713 432
777 458
807 473
881 432
22 532
52 527
105 493
179 492
263 523
303 535
385 498
427 500
537 535
558 524
652 520
705 501
751 504
841 508
906 518
14 585
84 595
146 578
195 591
252 574
304 566
396 556
451 569
530 597
592 569
623 555
681 588
755 567
843 568
898 596
0 642
80 620
136 633
174 631
242 632
335 631
378 619
454 643
510 632
569 624
641 615
679 649
776 616
811 647
898 625
0 725
72 705
124 686
200 716
249 699
330 725
403 727
437 700
525 681
596 704
623 714
680 726
757 686
849 715
888 727
0 783
69 750
106 745
170 793
263 777
344 759
400 766
468 789
523 768
554 759
636 776
722 776
746 760
844 778
913 779
7 820
83 841
104 843
173 846
262 828
318 835
381 846
454 854
534 832
571 816
638 845
723 810
775 830
832 856
917 810
0 888
44 897
153 893
193 903
267 874
297 876
367 915
435 912
523 893
596 884
635 913
724 872
793 914
850 901
904 898
