0 18
63 19
112 11
182 0
271 0
333 6
365 0
442 11
523 0
587 0
647 10
685 0
759 10
854 15
885 11
0 50
76 47
109 52
204 65
273 63
325 69
364 73
453 50
488 71
598 63
616 61
726 64
766 85
849 41
904 81
6 142
58 127
137 109
182 123
258 153
341 106
406 141
429 119
507 140
560 149
664 139
725 145
767 117
832 130
899 126
22 216
82 191
152 197
174 185
241 169
318 199
388 175
459 186
527 195
595 199
646 194
694 207
769 209
830 205
918 214
0 247
42 256
143 270
202 236
244 250
333 266
378 257
436 257
489 261
569 241
663 268
728 236
776 248
846 239
891 270
19 313
89 332
123 316
202 328
260 320
323 306
406 298
425 319
499 320
579 325
658 299
711 307
788 339
850 317
885 344
24 381
40 384
120 365
202 387
247 380
340 405
382 407
471 359
488 365
551 380
642 403
711 380
764 383
843 373
881 401
0 463
51 441
139 451
179 453
248 468
305 454
405 471
442 453
520 473
600 441
664 435
697 466
774 470
840 460
886 455
0 501
89 511
130 508
211 502
272 517
328 513
374 525
472 518
514 536
598 507
622 530
700 487
785 506
813 530
880 519
0 585
76 559
144 598
191 600
248 570
327 591
380 564
441 584
501 589
570 590
645 555
694 554
752 563
835 583
875 599
0 641
83 643
109 662
198 635
248 655
332 665
392 664
462 648
488 620
585 649
625 632
686 641
780 663
846 636
894 619
10 724
49 710
117 687
181 715
250 693
313 694
399 722
430 687
516 690
580 693
663 681
685 704
793 699
845 725
891 724
2 788
61 788
112 767
186 773
242 765
315 746
363 753
464 752
506 744
555 786
637 766
680 771
775 782
854 767
890 764
0 816
78 840
119 812
206 821
233 830
341 851
387 817
441 839
507 832
569 819
662 818
685 833
756 850
832 842
916 853
0 895
45 887
150 878
180 876
258 912
297 890
377 897
437 886
509 878
564 872
641 897
683 911
788 903
824 899
912 905
