0 9
78 0
144 0
168 0
268 0
315 0
405 14
452 10
489 0
573 0
637 18
701 9
780 23
840 7
890 22
0 50
85 58
138 89
198 69
237 54
299 58
362 68
448 55
505 52
584 39
623 39
722 50
763 81
848 55
893 68
0 124
74 109
144 118
207 138
270 133
300 127
407 114
460 117
522 109
583 107
641 118
714 113
775 121
816 138
872 136
0 196
81 175
124 217
202 191
281 170
330 213
393 190
444 213
526 173
587 179
615 214
699 170
746 202
815 169
882 195
1 231
73 268
107 274
208 273
233 279
342 243
362 244
431 264
494 233
574 263
625 277
680 232
788 245
857 273
897 279
1 344
51 332
110 306
206 317
274 328
324 339
406 302
440 337
531 337
582 320
621 296
711 333
768 337
841 304
906 325
15 366
39 385
111 394
173 384
276 390
312 386
399 409
434 405
510 401
555 398
643 394
689 366
755 374
820 368
884 360
0 448
53 429
146 459
167 472
276 437
329 424
386 457
448 470
528 438
576 427
662 453
705 443
753 457
848 426
877 462
0 536
86 505
143 534
188 536
237 526
313 526
359 512
457 488
514 487
559 509
650 519
686 508
766 502
832 533
914 527
0 581
81 563
138 555
214 558
255 574
339 601
405 591
439 566
536 562
582 558
638 577
697 554
745 584
826 567
896 586
21 661
71 643
130 653
181 658
280 618
311 660
360 647
441 631
519 660
587 622
649 621
685 657
786 641
807 616
875 638
0 715
63 690
145 727
170 724
252 698
312 680
408 718
431 728
509 701
569 719
645 686
718 701
745 699
821 691
908 699
5 746
61 752
107 783
184 792
235 750
303 789
392 763
437 777
527 772
580 764
635 787
715 779
757 754
845 763
888 792
20 844
69 837
146 834
168 840
250 825
306 818
397 846
442 841
511 816
587 827
639 832
712 812
746 839
812 830
889 833
1 920
77 873
107 882
194 899
231 898
339 912
392 918
442 877
515 871
562 874
656 882
683 895
761 883
848 902
877 913
