0 0
43 0
139 0
194 4
231 1
332 6
392 0
462 0
530 3
584 0
615 0
692 7
761 0
852 21
909 0
8 80
53 53
143 45
171 70
255 85
307 78
363 51
467 70
499 64
560 86
655 63
702 82
777 82
852 88
887 60
0 132
68 149
110 150
183 149
260 105
303 148
379 144
441 152
519 150
579 110
658 108
687 151
773 142
812 148
910 110
14 197
63 211
140 213
182 186
270 198
324 203
404 178
455 186
526 177
585 181
651 191
695 200
759 181
851 194
918 167
6 249
82 245
123 245
187 259
243 267
341 277
367 233
426 253
520 250
594 265
637 242
729 249
788 257
846 235
910 256
0 320
84 315
122 303
180 340
238 327
305 319
366 343
468 299
512 317
564 341
640 302
692 335
750 299
850 309
914 315
7 359
72 392
136 370
212 394
261 407
316 399
397 393
473 371
531 360
580 370
657 398
702 402
784 383
836 365
899 374
0 438
48 467
146 441
214 459
239 461
327 464
362 429
454 469
510 431
587 428
659 470
728 449
757 469
816 459
886 465
0 510
61 503
122 536
203 492
263 514
317 489
402 503
469 505
493 501
573 511
631 528
712 507
751 530
824 489
892 511
17 567
60 563
107 556
177 589
261 570
319 595
388 574
441 575
534 573
577 582
650 556
709 589
774 591
824 593
876 559
0 643
40 652
111 651
206 651
234 624
295 633
365 652
432 623
509 630
555 625
663 631
688 645
792 639
843 627
873 633
12 717
51 685
150 715
180 693
270 723
303 719
364 690
462 679
498 711
551 695
654 724
689 724
763 680
834 684
916 704
0 773
78 787
121 749
207 745
242 766
308 789
403 764
427 779
504 745
587 790
625 754
683 782
770 765
849 749
872 752
0 853
43 826
109 810
186 846
277 847
325 835
366 815
454 825
506 838
557 813
624 839
704 832
764 811
815 834
883 811
20 888
45 896
118 905
184 891
267 901
328 918
393 892
442 914
521 881
575 891
638 895
724 884
744 885
838 903
899 892
