0 0
61 0
120 0
204 0
233 0
342 0
377 0
445 0
497 20
590 16
643 4
718 9
744 24
807 9
921 13
0 61
82 55
150 75
211 53
280 56
319 46
371 86
445 53
493 43
552 51
661 44
712 71
779 76
852 71
920 80
1 147
77 131
131 151
191 114
280 107
309 117
388 146
425 116
501 125
579 144
623 106
697 147
793 120
836 149
915 117
0 199
86 173
123 195
187 217
243 182
304 187
401 193
438 206
507 186
589 198
655 173
716 184
786 175
850 168
879 192
0 246
47 247
105 257
180 262
233 265
325 251
368 236
465 238
535 231
585 252
647 243
702 241
755 279
833 270
893 259
0 345
60 308
108 326
215 335
261 311
315 304
394 297
437 311
501 317
587 322
635 334
681 313
765 309
846 314
895 303
0 377
81 360
105 374
205 402
244 377
296 387
408 403
468 367
488 386
578 361
653 369
695 368
743 365
844 376
905 393
0 435
80 454
143 473
176 429
238 465
318 460
409 433
433 460
527 435
555 454
647 434
703 442
772 433
818 442
888 465
21 502
58 506
110 493
182 489
234 520
341 520
374 493
434 495
537 490
552 496
663 526
703 500
744 509
822 496
888 518
22 600
48 563
140 586
180 571
233 596
332 559
373 569
453 562
495 556
556 560
633 599
682 589
774 570
830 593
898 573
3 664
54 627
113 664
170 637
245 631
315 623
371 631
425 628
535 620
554 638
635 664
704 636
791 639
821 658
888 645
0 693
61 695
119 724
195 719
243 713
345 690
404 692
437 720
488 723
600 681
633 711
729 726
770 700
842 685
888 712
8 783
43 777
121 784
172 755
250 752
337 765
393 759
461 792
522 787
572 760
663 786
712 770
764 757
844 767
917 782
0 853
80 816
144 850
210 827
234 820
307 808
406 854
430 848
517 834
553 819
647 845
689 845
751 821
840 826
912 817
0 871
81 875
152 898
178 890
269 878
337 878
370 886
435 876
490 895
601 888
654 896
717 916
768 919
836 881
902 892
