23 0
60 7
147 0
196 0
242 6
322 11
384 0
454 23
534 5
580 13
652 10
696 0
749 1
813 0
917 0
25 65
75 66
113 40
170 83
271 66
309 80
407 68
426 65
518 52
600 74
648 59
714 51
786 87
849 67
908 65
13 136
48 139
123 120
195 117
265 152
295 122
386 134
471 136
526 148
569 120
651 133
684 153
787 134
852 117
884 124
0 198
59 209
127 196
175 182
250 209
337 210
399 196
461 167
519 186
553 213
653 167
681 217
746 193
857 167
885 215
0 263
77 253
150 256
209 242
275 253
327 257
383 260
472 258
522 270
560 256
663 236
692 267
746 243
855 257
895 272
12 297
41 310
106 341
179 306
277 344
319 299
380 343
450 306
495 306
557 337
644 318
727 310
761 308
812 320
888 331
13 389
89 394
123 400
197 396
266 373
311 368
374 374
435 384
517 379
558 402
637 388
679 360
761 390
820 372
877 362
0 428
59 462
141 440
192 454
277 465
317 472
401 441
423 453
488 429
595 468
627 450
706 437
787 464
818 434
872 469
0 510
44 529
141 514
208 528
274 530
324 505
378 532
453 527
526 510
562 516
629 493
687 518
743 534
819 531
915 493
0 596
66 583
150 597
173 586
260 559
330 555
402 576
436 574
525 578
591 597
655 577
713 600
783 569
853 565
882 578
15 647
40 620
128 630
199 633
234 659
323 617
367 643
465 627
525 618
571 633
630 626
719 622
763 639
823 665
905 643
17 722
83 686
153 708
172 712
265 695
318 711
377 713
462 699
505 685
588 694
627 688
722 682
754 687
814 714
872 710
25 781
58 785
147 744
208 770
243 787
337 785
399 762
424 749
519 781
558 778
654 746
706 773
765 773
833 789
908 775
15 850
77 852
133 836
215 823
277 826
332 843
378 813
459 817
529 815
593 843
654 854
697 842
792 817
839 850
901 853
0 894
82 873
116 915
176 900
248 885
345 903
369 905
467 895
503 902
558 885
625 886
728 908
766 921
816 918
884 921
