16 0
70 0
127 0
201 0
233 24
333 0
408 0
429 0
513 8
566 0
635 0
706 14
790 13
855 4
902 0
15 54
71 82
124 59
216 78
280 42
300 71
372 41
456 62
526 83
601 54
656 83
699 69
784 87
821 48
891 89
0 118
70 150
136 108
209 117
267 146
334 133
389 107
429 151
507 142
579 146
637 109
722 149
771 114
851 153
909 112
0 213
62 179
112 173
212 181
251 186
313 211
385 187
442 202
496 199
586 181
662 211
721 216
777 174
842 179
909 186
0 271
52 239
148 247
202 235
246 246
296 234
371 272
452 272
504 238
570 239
619 264
703 254
768 240
842 252
899 259
19 341
75 343
134 329
189 322
255 312
339 299
364 313
446 305
492 301
582 323
644 315
705 316
743 298
852 297
895 331
6 403
73 403
129 402
179 367
248 391
310 393
407 386
451 362
524 370
574 380
620 370
698 360
780 374
831 385
893 380
0 463
75 426
148 467
214 438
236 433
325 449
397 441
455 445
501 425
555 455
621 435
712 459
791 471
840 456
920 435
0 502
52 488
152 502
189 510
256 488
343 489
400 517
427 505
527 509
581 537
655 502
712 531
768 515
823 515
900 499
6 556
65 593
143 586
207 578
257 569
314 599
362 570
469 588
504 556
557 583
624 593
716 584
781 584
813 561
871 590
19 635
56 635
103 634
211 657
270 633
329 661
379 660
450 635
517 659
562 638
646 641
719 650
784 649
833 631
900 657
18 692
63 714
118 711
184 706
256 716
321 682
386 706
432 693
494 721
566 680
661 692
709 698
757 714
857 706
910 724
9 752
40 774
129 762
175 746
239 779
339 748
404 768
443 760
517 770
566 774
653 788
698 778
772 791
810 781
913 791
0 813
87 845
141 818
198 814
236 830
330 823
394 855
451 812
535 835
569 822
626 851
694 809
762 822
827 832
896 818
0 919
71 920
127 882
174 886
270 877
333 879
374 908
467 900
492 881
587 889
654 880
729 872
786 916
850 895
880 903
