10 0
58 20
108 4
169 0
252 15
321 0
391 0
472 0
519 24
601 24
657 0
692 25
765 0
809 17
888 1
19 41
83 62
142 87
205 52
239 89
303 76
402 72
464 49
508 87
563 50
655 41
701 44
751 52
826 59
903 58
23 105
75 127
134 148
182 125
238 128
313 143
399 119
442 139
493 109
565 105
633 104
718 147
760 127
816 124
897 153
21 192
67 198
144 183
192 172
266 210
318 182
408 178
466 208
525 202
554 171
658 191
728 189
791 202
851 211
900 173
0 246
57 258
134 280
200 269
232 267
330 281
399 271
436 252
510 262
595 239
646 237
681 240
767 238
810 249
900 243
0 314
64 338
112 312
213 317
268 328
326 318
404 339
455 345
500 326
593 333
648 340
710 334
762 325
823 342
917 335
0 409
39 406
153 374
177 405
262 374
306 378
372 373
445 393
501 362
595 394
652 368
718 373
793 409
830 367
908 368
0 473
60 459
148 441
189 459
254 471
299 465
393 450
462 426
505 446
588 448
664 464
726 467
776 456
812 457
895 455
0 529
47 504
151 522
203 525
231 532
295 519
409 521
455 521
533 510
595 531
654 524
729 533
763 510
810 488
884 534
13 564
87 572
130 570
167 588
264 593
299 571
379 560
455 557
504 590
595 601
659 558
728 586
789 562
843 559
880 565
0 624
74 622
134 656
214 619
256 661
299 646
369 655
451 637
499 637
576 640
635 656
696 620
783 640
819 647
912 633
0 708
71 690
143 680
197 679
255 712
318 699
402 706
431 683
522 691
571 697
648 714
717 690
785 703
839 727
900 683
0 763
83 775
129 744
189 747
261 789
325 780
369 774
448 784
503 757
593 746
653 793
703 792
766 760
825 749
880 746
4 842
69 845
147 838
203 842
258 845
308 841
404 812
441 828
490 834
568 847
620 854
712 843
775 836
849 832
909 844
0 887
54 900
126 886
181 879
280 893
330 889
405 918
436 892
519 888
592 909
657 894
690 921
763 903
831 886
894 890
