15 0
86 22
109 16
193 5
263 0
333 0
378 13
424 23
526 13
562 7
629 7
707 0
778 6
815 0
891 2
0 62
62 52
146 66
191 86
239 44
320 83
405 73
424 78
499 62
593 53
637 89
696 53
772 79
808 53
917 86
19 139
73 133
121 117
198 131
243 130
298 128
370 139
452 147
524 103
572 134
637 112
694 127
788 150
847 145
885 127
0 214
56 208
115 172
202 202
232 180
297 194
392 210
461 200
491 195
592 199
658 184
705 207
793 194
820 197
871 194
0 253
59 245
147 237
205 239
237 269
331 247
409 262
445 270
498 248
555 247
636 234
691 235
743 274
815 280
898 268
15 302
46 313
147 313
168 336
268 324
318 323
381 340
455 298
491 344
591 324
634 297
679 319
788 325
843 302
873 303
0 398
53 386
145 361
187 361
275 381
312 386
392 378
470 384
530 363
553 380
646 379
713 365
780 368
818 385
902 404
23 465
87 473
117 433
193 463
268 446
329 461
372 465
468 464
516 454
569 471
653 452
722 452
789 451
846 467
873 461
22 520
83 533
151 496
182 505
267 496
331 524
387 523
436 490
512 515
556 521
616 501
716 504
748 495
854 514
911 512
0 580
41 554
112 562
178 561
255 569
307 597
404 555
426 573
525 568
562 577
629 562
681 580
759 567
847 562
908 592
0 638
50 642
109 637
201 616
251 625
324 654
402 628
439 638
517 615
599 627
627 633
717 625
793 662
817 639
873 639
0 683
59 704
112 728
199 700
278 691
335 681
361 706
440 722
533 697
563 698
635 703
720 688
773 707
818 693
887 688
16 743
47 755
152 766
207 755
266 784
297 792
396 750
431 770
488 772
584 766
646 749
703 769
790 750
836 761
909 752
18 809
47 812
137 834
187 840
248 826
303 847
364 832
466 857
491 841
589 837
640 819
701 808
767 833
820 847
895 828
0 909
43 900
135 917
207 880
246 896
297 873
378 921
455 874
511 878
591 877
623 902
725 908
777 880
816 903
899 873
