44 10
106 37
290 0
403 47
532 0
678 32
747 25
910 0
0 150
150 131
216 137
335 137
477 90
648 88
724 178
863 143
28 258
147 284
221 234
404 259
561 291
600 218
819 289
870 226
0 379
173 384
225 339
435 336
477 425
613 411
740 349
901 364
0 555
81 549
245 464
414 495
556 505
673 476
818 484
945 553
0 649
143 669
247 590
355 678
476 590
674 623
763 627
895 633
0 786
157 809
279 721
406 782
536 780
639 795
753 812
879 746
0 873
137 857
278 899
335 943
545 904
601 885
783 887
932 926
