13 2
147 0
219 25
353 0
562 13
627 0
735 0
848 0
0 110
121 91
262 154
352 135
519 163
674 163
720 163
860 160
1 299
118 219
205 305
394 222
478 206
679 292
809 232
902 295
0 373
128 350
211 362
401 404
511 377
646 344
740 342
917 343
0 469
111 520
286 512
379 492
558 527
595 484
782 556
847 512
51 657
140 672
212 594
365 604
467 593
671 689
744 604
876 625
0 791
90 732
306 756
342 753
463 777
671 767
791 763
926 800
0 881
154 918
302 872
390 929
524 848
660 849
741 908
865 849
