0 50
134 0
234 13
389 0
551 0
678 11
815 0
869 34
0 171
170 162
303 174
435 116
466 127
599 135
801 129
903 178
27 242
155 293
274 238
338 295
491 205
605 263
776 261
853 302
0 406
84 429
285 405
365 418
470 409
681 367
772 426
906 420
0 513
168 544
272 515
353 478
495 531
669 496
753 512
945 557
0 628
177 650
221 691
362 605
536 642
691 628
726 625
910 680
0 793
164 721
225 791
360 796
504 787
689 776
811 791
890 745
17 942
163 946
213 875
352 851
495 878
677 927
722 870
936 906
