12 2
93 35
305 35
407 1
516 34
666 45
740 0
850 32
9 79
87 97
241 175
381 117
501 155
639 136
718 97
888 80
8 306
166 209
281 248
376 301
541 220
591 277
751 258
926 261
21 364
83 386
255 357
359 392
501 378
621 374
812 359
845 390
46 554
133 527
264 535
343 536
519 539
646 508
735 559
878 488
0 635
131 631
241 604
407 605
531 592
665 666
762 610
897 673
7 803
158 738
254 785
369 731
471 791
620 725
730 765
877 735
23 921
89 947
233 863
340 936
541 847
615 947
746 847
914 922
