0 12
135 0
276 0
382 0
488 0
666 0
803 0
889 0
0 122
92 125
212 136
338 95
488 177
617 164
740 134
892 97
43 245
77 292
290 245
396 221
462 274
634 290
797 228
929 230
0 358
102 382
219 374
354 381
550 377
631 371
802 426
866 377
49 491
173 561
234 498
412 543
505 540
643 538
736 543
936 535
0 627
159 640
290 677
335 638
516 664
637 628
799 647
940 595
0 756
141 805
220 746
406 792
462 758
622 802
784 747
898 770
44 862
146 891
232 894
396 869
561 918
680 855
784 873
855 935
