0 25
110 0
258 0
412 0
546 0
598 0
779 45
856 3
38 88
135 83
283 82
378 139
563 86
665 107
724 118
879 88
0 216
144 231
278 228
428 217
529 229
655 219
805 211
908 300
0 397
138 347
299 379
343 345
523 356
675 364
791 414
913 359
0 501
77 537
250 489
383 486
556 482
688 524
793 476
895 547
0 648
120 690
259 658
333 606
491 673
681 674
777 669
890 679
0 729
148 727
222 785
360 727
536 743
617 765
763 777
852 739
0 860
170 867
291 885
353 913
516 947
652 898
801 932
907 922
