0 0
166 0
212 41
340 10
512 46
657 0
809 0
915 0
0 144
134 83
292 95
428 93
490 104
686 102
794 89
904 101
20 225
133 254
206 296
413 284
507 277
591 212
801 240
889 292
0 387
120 344
291 349
346 417
531 374
629 349
733 421
890 340
23 536
175 510
268 501
397 488
480 549
675 489
799 461
887 505
0 664
91 671
244 677
397 629
517 679
614 649
816 596
845 671
50 719
156 775
230 804
356 724
507 748
592 738
741 758
947 812
0 857
94 939
260 872
344 856
491 860
648 940
804 891
885 857
