18 0
148 9
229 29
407 34
524 0
641 39
801 8
870 0
0 139
133 111
237 120
378 88
482 116
634 158
796 176
847 174
36 266
108 302
233 277
371 210
547 243
632 273
809 263
872 296
34 375
101 424
223 387
369 333
471 337
647 430
807 415
925 425
1 482
163 528
250 488
360 508
499 553
620 527
747 551
870 534
0 656
96 646
287 614
364 676
493 683
620 651
743 592
900 631
0 815
174 813
274 725
379 750
545 754
666 790
804 720
856 783
38 932
87 917
265 897
422 856
558 855
683 915
742 899
889 854
