0 41
127 0
265 0
431 0
519 45
606 3
720 0
929 0
16 174
133 152
217 77
348 127
522 103
680 90
796 101
923 140
27 211
172 292
296 235
336 212
470 293
688 307
724 307
913 241
3 412
127 404
295 382
350 343
489 374
648 359
794 369
924 369
23 539
137 562
222 463
369 475
489 505
667 492
806 509
920 523
44 676
102 686
276 672
373 671
516 624
680 596
722 602
924 638
8 819
167 782
205 779
404 772
482 748
623 717
737 798
875 739
0 917
134 911
275 925
434 914
521 857
611 946
779 894
911 915
