[java] $$$$$$$$$$$$$$$$$$$$$$$$$$$$$$$$$$$$$$$$$$$
[java] 15,#nbr:20,
[java] Nbr #0: 2 Receive REPINFO NodeList:[] Dt:[]
[java] Nbr #1: 3 Receive REPINFO NodeList:[15] Dt:[1.0]
[java] Nbr #2: 4 Receive REPINFO NodeList:[17] Dt:[0.988]
[java] Nbr #3: 7 Receive REPINFO NodeList:[15] Dt:[1.0]
[java] Nbr #4: 8 Receive REPINFO NodeList:[15, 19] Dt:[1.0, 1.0]
[java] Nbr #5: 9 Receive REPINFO NodeList:[3, 22] Dt:[1.0, 1.0]
[java] Nbr #6: 10 Receive REPINFO NodeList:[4, 14] Dt:[1.0, 1.0]
[java] Nbr #7: 11 Receive REPINFO NodeList:[] Dt:[]
[java] Nbr #8: 13 Receive REPINFO NodeList:[] Dt:[]
[java] Nbr #9: 14 Receive REPINFO NodeList:[1, 7, 25, 27] Dt:[1.0, 1.0, 1.0, 1.0]
[java] Nbr #10: 16 Receive REPINFO NodeList:[] Dt:[]
[java] Nbr #11: 17 Receive REPINFO NodeList:[15, 22] Dt:[1.0, 1.0]
[java] Nbr #12: 19 Receive REPINFO NodeList:[15, 24, 30] Dt:[1.0, 1.0, 1.0]
[java] Nbr #13: 20 Receive REPINFO NodeList:[] Dt:[]
[java] Nbr #14: 21 Receive REPINFO NodeList:[] Dt:[]
[java] Nbr #15: 22 Receive REPINFO NodeList:[9, 10, 14, 17, 35] Dt:[1.0, 1.0, 1.0, 1.0
[java] Nbr #16: 23 Receive REPINFO NodeList:[] Dt:[]
[java] Nbr #17: 26 Receive REPINFO NodeList:[22] Dt:[1.0]
[java] Nbr #18: 27 Receive REPINFO NodeList:[33, 34] Dt:[1.0, 1.0]
[java] Nbr #19: 28 Receive REPINFO NodeList:[] Dt:[]
[java]

[java] 1##################### for neighbor: 3
[java] 0##################### node's 9 Dt: 1.0 about neighbor: 3
[java] ##################### neighbor's: 3 IT: 1.0
[java] ---------------------------------------------
[java] 2##################### for neighbor: 4
[java] 0##################### node's 10 Dt: 1.0 about neighbor: 4
[java] ##################### neighbor's: 4 IT: 1.0
[java] ---------------------------------------------
[java] 3##################### for neighbor: 7
[java] 1##################### node's 14 Dt: 1.0 about neighbor: 7
[java] ##################### neighbor's: 7 IT: 1.0
[java] ---------------------------------------------

[java] 5##################### for neighbor: 9
[java] 0##################### node's 22 Dt: 1.0 about neighbor: 9
[java] ##################### neighbor's: 9 IT: 1.0
[java] ---------------------------------------------
[java] 6##################### for neighbor: 10
[java] 1##################### node's 22 Dt: 1.0 about neighbor: 10
[java] ##################### neighbor's: 10 IT: 1.0
[java] ---------------------------------------------

[java] 9##################### for neighbor: 14
[java] 1##################### node's 10 Dt: 1.0 about neighbor: 14
[java] 2##################### node's 22 Dt: 1.0 about neighbor: 14
[java] ##################### neighbor's: 14 IT: 1.0
[java] ---------------------------------------------

[java] 11##################### for neighbor: 17
[java] 0##################### node's 4 Dt: 0.988 about neighbor: 17
[java] 3##################### node's 22 Dt: 1.0 about neighbor: 17
[java] ##################### neighbor's: 17 IT: 1.0
[java] ---------------------------------------------
[java] 12##################### for neighbor: 19
[java] 1##################### node's 8 Dt: 1.0 about neighbor: 19
[java] ##################### neighbor's: 19 IT: 1.0
[java] ---------------------------------------------


[java] 15##################### for neighbor: 22
[java] 1##################### node's 9 Dt: 1.0 about neighbor: 22
[java] 1##################### node's 17 Dt: 1.0 about neighbor: 22
[java] 0##################### node's 26 Dt: 1.0 about neighbor: 22
[java] ##################### neighbor's: 22 IT: 1.0
[java] ---------------------------------------------
[java] 16##################### for neighbor: 23
[java] ##################### neighbor's: 23 IT: NaN
[java] ---------------------------------------------
[java] 17##################### for neighbor: 26
[java] ##################### neighbor's: 26 IT: NaN
[java] ---------------------------------------------
[java] 18##################### for neighbor: 27
[java] 3##################### node's 14 Dt: 1.0 about neighbor: 27
[java] ##################### neighbor's: 27 IT: 1.0
[java] ---------------------------------------------
[java] 19##################### for neighbor: 28
[java] ##################### neighbor's: 28 IT: NaN