Node Energy consumption
Time (sec)	Remain energy (%)
63	0,9998544503999955	
66	0,9996496303999943	
102	0,9977366760926741	
201	0,9942430849063568	
300	0,9907333157063346	
402	0,9869993591200417	
501	0,9835361513337433	
600	0,9800263821338187	
702	0,9766211919475556	
801	0,9763823071475334	
900	0,9761573579475127	
1002	0,975779117147476	
1101	0,9755402323474751	
1200	0,9753152831475199	
1302	0,9749370423475939	
1401	0,9746981575476413	
1500	0,9744732083476861	
1602	0,9740949675477601	
1701	0,9738560827478075	
1800	0,9736311335478525	
1902	0,9732528927479264	
2001	0,9730140079479738	
2100	0,9727890587480187	
2202	0,9724108179480926	
2301	0,9721719331481401	
2400	0,9719469839481849	
2502	0,9715687431482588	
2601	0,9713298583483063	
2700	0,9711049091483511	
2802	0,970726668348425	
2901	0,9704877835484725	
3000	0,9702628343485173	
3102	0,9698845935485912	
3201	0,9696457087486388	
3300	0,9694207595486836	
3402	0,9690425187487575	
3501	0,968803633948805	
3600	0,9685786847488498	
3702	0,9682004439489238	
3801	0,9679615591489712	
3900	0,967736609949016	
4002	0,96735836914909	
4101	0,9671194843491374	
4200	0,9668945351491822	
4302	0,9665162943492562	
4401	0,9662774095493036	
4500	0,9660524603493486	
4602	0,9656742195494225	
4701	0,96543533474947	
4800	0,9652103855495148	
4902	0,9648321447495887	
5001	0,9645932599496362	
5100	0,964368310749681	
5202	0,9639900699497549	
5301	0,9637511851498024	
5400	0,9635262359498472	
5502	0,9631479951499211	
5601	0,9629091103499686	
5700	0,9626841611500134	
5802	0,9623059203500873	
5901	0,9620670355501348	
