Node Energy consumption
Time (sec)	Remain energy (%)
68	0,9998529019999955	
101	0,9983363074480671	
200	0,9951908850617527	
302	0,9921093736754399	
401	0,9892335636754374	
500	0,9862917874891396	
602	0,9832102761028954	
701	0,9805530117029262	
800	0,9803450949029071	
902	0,9800520161028793	
1001	0,979850292902861	
1100	0,9796423761028492	
1202	0,979349297302907	
1301	0,9791475741029474	
1400	0,9789396573029889	
1502	0,9786465785030467	
1601	0,9784448553030871	
1700	0,9782369385031288	
1802	0,9779438597031865	
1901	0,9777421365032269	
2000	0,9775342197032685	
2102	0,9772411409033263	
2201	0,9770394177033667	
2300	0,9768315009034082	
2402	0,976538422103466	
2501	0,9763366989035064	
2600	0,976128782103548	
2702	0,9758357033036058	
2801	0,9756339801036462	
2900	0,9754260633036878	
3002	0,9751329845037455	
3101	0,9749312613037859	
3200	0,9747233445038276	
3302	0,9744302657038854	
3401	0,9742285425039258	
3500	0,9740206257039673	
3602	0,9737275469040251	
3701	0,9735258237040655	
3800	0,973317906904107	
3902	0,9730248281041648	
4001	0,9728231049042052	
4100	0,9726151881042469	
4202	0,9723221093043046	
4301	0,972120386104345	
4400	0,9719124693043866	
4502	0,9716193905044443	
4601	0,9714176673044848	
4700	0,9712097505045264	
4802	0,9709166717045842	
4901	0,9707149485046246	
5000	0,9705070317046661	
5102	0,9702139529047239	
5201	0,9700122297047643	
5300	0,9698043129048058	
5402	0,9695112341048636	
5501	0,969309510904904	
5600	0,9691015941049457	
5702	0,9688085153050034	
5801	0,9686067921050439	
5900	0,9683988753050854	
