Node Energy consumption
Time (sec)	Remain energy (%)
59	0,9999690319999991	
65	0,9997270503999967	
68	0,9995330691999932	
101	0,9992684777999894	
200	0,996235604299978	
302	0,9944589054999714	
401	0,9928403962999803	
500	0,9911839354999892	
602	0,9894072367000231	
701	0,9879044151000334	
800	0,9876980467000145	
902	0,9874003226999862	
1001	0,9871970510999677	
1100	0,986990682699952	
1202	0,9866929587000106	
1301	0,9864896871000514	
1400	0,9862833187000927	
1502	0,9859855947001513	
1601	0,985782323100192	
1700	0,9855759547002333	
1802	0,985278230700292	
1901	0,9850749591003326	
2000	0,9848685907003739	
2102	0,9845708667004326	
2201	0,9843675951004733	
2300	0,9841612267005145	
2402	0,9838635027005732	
2501	0,983660231100614	
2600	0,9834538627006553	
2702	0,9831561387007138	
2801	0,9829528671007546	
2900	0,9827464987007959	
3002	0,9824487747008546	
3101	0,9822455031008952	
3200	0,9820391347009365	
3302	0,9817414107009952	
3401	0,9815381391010359	
3500	0,9813317707010771	
3602	0,9810340467011358	
3701	0,9808307751011766	
3800	0,9806244067012179	
3902	0,9803266827012764	
4001	0,9801234111013172	
4100	0,9799170427013585	
4202	0,9796193187014172	
4301	0,9794160471014578	
4400	0,9792096787014991	
4502	0,9789119547015578	
4601	0,9787086831015984	
4700	0,9785023147016397	
4802	0,9782045907016984	
4901	0,9780013191017392	
5000	0,9777949507017805	
5102	0,977497226701839	
5201	0,9772939551018798	
5300	0,9770875867019211	
5402	0,9767898627019796	
5501	0,9765865911020204	
5600	0,9763802227020617	
5702	0,9760824987021204	
5801	0,975879227102161	
5900	0,9756728587022023	
