Node Energy consumption
Time (sec)	Remain energy (%)
52	0,9999953547999999	
58	0,9998276963999997	
100	0,9995849563999974	
202	0,9969643239361835	
301	0,9953432551361744	
400	0,9937433267361769	
502	0,9920128587361824	
601	0,9903917899362117	
700	0,9888786035362195	
802	0,9886211379361953	
901	0,9884441891361795	
1000	0,9882594983361629	
1102	0,9880020327361542	
1201	0,98782508393619	
1300	0,9876403931362271	
1402	0,9873829275362781	
1501	0,9872059787363138	
1600	0,987021287936351	
1702	0,9867638223364019	
1801	0,9865868735364377	
1900	0,9864021827364748	
2002	0,9861447171365259	
2101	0,9859677683365615	
2200	0,9857830775365988	
2302	0,9855256119366498	
2401	0,9853486631366855	
2500	0,9851639723367226	
2602	0,9849065067367736	
2701	0,9847295579368093	
2800	0,9845448671368465	
2902	0,9842874015368975	
3001	0,9841104527369332	
3100	0,9839257619369703	
3202	0,9836682963370214	
3301	0,9834913475370571	
3400	0,9833066567370943	
3502	0,9830491911371453	
3601	0,982872242337181	
3700	0,9826875515372182	
3802	0,9824300859372691	
3901	0,9822531371373049	
4000	0,982068446337342	
4102	0,981810980737393	
4201	0,9816340319374287	
4300	0,981449341137466	
4402	0,981191875537517	
4501	0,9810149267375526	
4600	0,9808302359375898	
4702	0,9805727703376408	
4801	0,9803958215376765	
4900	0,9802111307377137	
5002	0,9799536651377647	
5101	0,9797767163378004	
5200	0,9795920255378375	
5302	0,9793345599378885	
5401	0,9791576111379243	
5500	0,9789729203379615	
5602	0,9787154547380125	
5701	0,9785385059380481	
5800	0,9783538151380854	
5902	0,9780963495381363	
