Node Energy consumption
Time (sec)	Remain energy (%)
56	0,9999907095999997	
62	0,9997920831999986	
65	0,9996027471999978	
68	0,9994257983999948	
101	0,9991436531999922	
200	0,9978397861999914	
302	0,9975869657999901	
401	0,9974022750000002	
500	0,9972206810000104	
602	0,9969678606000157	
701	0,9967831697999991	
800	0,9966015757999829	
902	0,9963487553999593	
1001	0,9961640645999427	
1100	0,9959824705999282	
1202	0,9957296501999783	
1301	0,9955449594000155	
1400	0,9953633654000521	
1502	0,9951105450001022	
1601	0,9949258542001393	
1700	0,9947442602001759	
1802	0,9944914398002261	
1901	0,9943067490002633	
2000	0,9941251550002999	
2102	0,99387233460035	
2201	0,9936876438003871	
2300	0,9935060498004238	
2402	0,9932532294004739	
2501	0,993068538600511	
2600	0,9928869446005476	
2702	0,9926341242005977	
2801	0,992449433400635	
2900	0,9922678394006715	
3002	0,9920150190007216	
3101	0,9918303282007588	
3200	0,9916487342007954	
3302	0,9913959138008455	
3401	0,9912112230008827	
3500	0,9910296290009193	
3602	0,9907768086009694	
3701	0,9905921178010065	
3800	0,9904105238010431	
3902	0,9901577034010933	
4001	0,9899730126011305	
4100	0,989791418601167	
4202	0,9895385982012171	
4301	0,9893539074012543	
4400	0,989172313401291	
4502	0,9889194930013411	
4601	0,9887348022013782	
4700	0,9885532082014148	
4802	0,9883003878014649	
4901	0,9881156970015021	
5000	0,9879341030015387	
5102	0,9876812826015888	
5201	0,987496591801626	
5300	0,9873149978016625	
5402	0,9870621774017126	
5501	0,9868774866017499	
5600	0,9866958926017865	
5702	0,9864430722018366	
5801	0,9862583814018737	
5900	0,9860767874019103	
