Node Energy consumption
Time (sec)	Remain energy (%)
66	0,9998683859999961	
102	0,9993773331999924	
201	0,9984913781999917	
300	0,9983066873999886	
402	0,9980538670000018	
501	0,9978722730000119	
600	0,9976875822000218	
702	0,9974347617999982	
801	0,997253167799982	
900	0,9970684769999654	
1002	0,9968156565999416	
1101	0,9966340625999323	
1200	0,9964493717999694	
1302	0,9961965514000195	
1401	0,9960149574000561	
1500	0,9958302666000933	
1602	0,9955774462001434	
1701	0,99539585220018	
1800	0,9952111614002171	
1902	0,9949583410002673	
2001	0,9947767470003039	
2100	0,9945920562003411	
2202	0,9943392358003912	
2301	0,9941576418004278	
2400	0,9939729510004649	
2502	0,9937201306005151	
2601	0,9935385366005517	
2700	0,9933538458005888	
2802	0,9931010254006389	
2901	0,9929194314006755	
3000	0,9927347406007128	
3102	0,9924819202007629	
3201	0,9923003262007994	
3300	0,9921156354008366	
3402	0,9918628150008867	
3501	0,9916812210009233	
3600	0,9914965302009605	
3702	0,9912437098010106	
3801	0,9910621158010472	
3900	0,9908774250010843	
4002	0,9906246046011344	
4101	0,990443010601171	
4200	0,9902583198012083	
4302	0,9900054994012584	
4401	0,989823905401295	
4500	0,9896392146013321	
4602	0,9893863942013822	
4701	0,9892048002014189	
4800	0,989020109401456	
4902	0,9887672890015061	
5001	0,9885856950015427	
5100	0,98840100420158	
5202	0,98814818380163	
5301	0,9879665898016666	
5400	0,9877818990017038	
5502	0,9875290786017539	
5601	0,9873474846017904	
5700	0,9871627938018277	
5802	0,9869099734018778	
5901	0,9867283794019144	
