Node Energy consumption
Time (sec)	Remain energy (%)
62	0,9999272251999978	
65	0,999737889199997	
101	0,9993831429999932	
200	0,9981978029999891	
302	0,997944982599988	
401	0,9977602917999981	
500	0,9975786978000083	
602	0,9973258774000132	
701	0,9971411865999966	
800	0,9969595925999803	
902	0,9967067721999567	
1001	0,9965220813999401	
1100	0,9963404873999265	
1202	0,9960876669999768	
1301	0,9959029762000139	
1400	0,9957213822000505	
1502	0,9954685618001006	
1601	0,9952838710001377	
1700	0,9951022770001744	
1802	0,9948494566002245	
1901	0,9946647658002616	
2000	0,9944831718002982	
2102	0,9942303514003483	
2201	0,9940456606003856	
2300	0,9938640666004221	
2402	0,9936112462004723	
2501	0,9934265554005094	
2600	0,993244961400546	
2702	0,9929921410005961	
2801	0,9928074502006333	
2900	0,9926258562006699	
3002	0,99237303580072	
3101	0,9921883450007571	
3200	0,9920067510007937	
3302	0,9917539306008439	
3401	0,9915692398008811	
3500	0,9913876458009176	
3602	0,9911348254009678	
3701	0,9909501346010049	
3800	0,9907685406010416	
3902	0,9905157202010917	
4001	0,9903310294011288	
4100	0,9901494354011654	
4202	0,9898966150012155	
4301	0,9897119242012528	
4400	0,9895303302012893	
4502	0,9892775098013394	
4601	0,9890928190013766	
4700	0,9889112250014132	
4802	0,9886584046014633	
4901	0,9884737138015005	
5000	0,9882921198015371	
5102	0,9880392994015872	
5201	0,9878546086016243	
5300	0,9876730146016609	
5402	0,9874201942017111	
5501	0,9872355034017483	
5600	0,9870539094017848	
5702	0,9868010890018349	
5801	0,9866163982018721	
5900	0,9864348042019088	
