Node Energy consumption
Time (sec)	Remain energy (%)
61	0,9999628383999989	
67	0,9997657603999979	
100	0,9995344753999952	
202	0,9958796728052787	
301	0,9934621892052623	
400	0,9909876190189578	
502	0,988396128832656	
601	0,9859786452327025	
700	0,9836870390464353	
802	0,9834311218464113	
901	0,9832526246463954	
1000	0,9830679338463788	
1102	0,9828120166463743	
1201	0,9826335194464103	
1300	0,9824488286464476	
1402	0,9821929114464982	
1501	0,9820144142465342	
1600	0,9818297234465714	
1702	0,981573806246622	
1801	0,9813953090466581	
1900	0,9812106182466953	
2002	0,980954701046746	
2101	0,980776203846782	
2200	0,9805915130468191	
2302	0,9803355958468699	
2401	0,9801570986469058	
2500	0,9799724078469431	
2602	0,9797164906469937	
2701	0,9795379934470297	
2800	0,9793533026470669	
2902	0,9790973854471177	
3001	0,9789188882471537	
3100	0,9787341974471908	
3202	0,9784782802472415	
3301	0,9782997830472775	
3400	0,9781150922473147	
3502	0,9778591750473654	
3601	0,9776806778474014	
3700	0,9774959870474386	
3802	0,9772400698474892	
3901	0,9770615726475252	
4000	0,9768768818475625	
4102	0,9766209646476132	
4201	0,9764424674476492	
4300	0,9762577766476863	
4402	0,9760018594477371	
4501	0,975823362247773	
4600	0,9756386714478102	
4702	0,9753827542478609	
4801	0,9752042570478969	
4900	0,9750195662479341	
5002	0,9747636490479848	
5101	0,9745851518480209	
5200	0,974400461048058	
5302	0,9741445438481087	
5401	0,9739660466481447	
5500	0,9737813558481819	
5602	0,9735254386482326	
5701	0,9733469414482686	
5800	0,9731622506483057	
5902	0,9729063334483564	
