Node Energy consumption
Time (sec)	Remain energy (%)
56	0,9999814191999994	
101	0,9990723033999984	
200	0,9973136415361876	
302	0,9955955607361783	
401	0,9939956323361808	
500	0,9923621763361834	
602	0,9906440955362124	
701	0,9891597915362196	
800	0,9889704555362026	
902	0,9887253771361797	
1001	0,9885406863361631	
1100	0,9883513503361492	
1202	0,9881062719361978	
1301	0,987921581136235	
1400	0,987732245136273	
1502	0,9874871667363216	
1601	0,9873024759363589	
1700	0,9871131399363969	
1802	0,9868680615364456	
1901	0,9866833707364827	
2000	0,9864940347365208	
2102	0,9862489563365695	
2201	0,9860642655366066	
2300	0,9858749295366447	
2402	0,9856298511366933	
2501	0,9854451603367305	
2600	0,9852558243367686	
2702	0,9850107459368173	
2801	0,9848260551368544	
2900	0,9846367191368924	
3002	0,9843916407369411	
3101	0,9842069499369783	
3200	0,9840176139370164	
3302	0,983772535537065	
3401	0,9835878447371021	
3500	0,9833985087371402	
3602	0,9831534303371888	
3701	0,9829687395372261	
3800	0,9827794035372641	
3902	0,9825343251373128	
4001	0,9823496343373499	
4100	0,9821602983373879	
4202	0,9819152199374366	
4301	0,9817305291374738	
4400	0,9815411931375119	
4502	0,9812961147375605	
4601	0,9811114239375976	
4700	0,9809220879376358	
4802	0,9806770095376844	
4901	0,9804923187377216	
5000	0,9803029827377596	
5102	0,9800579043378083	
5201	0,9798732135378455	
5300	0,9796838775378836	
5402	0,9794387991379322	
5501	0,9792541083379693	
5600	0,9790647723380074	
5702	0,978819693938056	
5801	0,9786350031380933	
5900	0,9784456671381313	
