Node Energy consumption
Time (sec)	Remain energy (%)
60	0,9999736771999992	
63	0,9998075671999991	
102	0,9983821141915917	
201	0,9959501408052822	
300	0,9934869636052638	
402	0,9908985702189618	
501	0,9884665968326578	
600	0,9860034196327077	
702	0,9836436838464333	
801	0,9834558962464164	
900	0,9832773990464004	
1002	0,9830245786463767	
1101	0,9828367910463721	
1200	0,9826582938464081	
1302	0,9824054734464582	
1401	0,982217685846496	
1500	0,9820391886465321	
1602	0,9817863682465822	
1701	0,9815985806466199	
1800	0,9814200834466559	
1902	0,981167263046706	
2001	0,9809794754467438	
2100	0,9808009782467798	
2202	0,9805481578468299	
2301	0,9803603702468676	
2400	0,9801818730469036	
2502	0,9799290526469537	
2601	0,9797412650469915	
2700	0,9795627678470276	
2802	0,9793099474470777	
2901	0,9791221598471155	
3000	0,9789436626471514	
3102	0,9786908422472016	
3201	0,9785030546472393	
3300	0,9783245574472753	
3402	0,9780717370473254	
3501	0,9778839494473632	
3600	0,9777054522473992	
3702	0,9774526318474493	
3801	0,977264844247487	
3900	0,9770863470475231	
4002	0,9768335266475732	
4101	0,976645739047611	
4200	0,976467241847647	
4302	0,9762144214476971	
4401	0,9760266338477348	
4500	0,9758481366477708	
4602	0,9755953162478209	
4701	0,9754075286478587	
4800	0,9752290314478947	
4902	0,9749762110479449	
5001	0,9747884234479826	
5100	0,9746099262480186	
5202	0,9743571058480687	
5301	0,9741693182481065	
5400	0,9739908210481425	
5502	0,9737380006481926	
5601	0,9735502130482304	
5700	0,9733717158482664	
5802	0,9731188954483165	
5901	0,9729311078483542	
