Node Energy consumption
Time (sec)	Remain energy (%)
59	0,9999458059999984	
62	0,9997611151999977	
101	0,9986413425999959	
200	0,9953470538498838	
302	0,9921480220635688	
401	0,9891591788635586	
500	0,9861021258772531	
602	0,9829030940910227	
701	0,9801417392910663	
800	0,979930725691047	
902	0,9796345500910189	
1001	0,9794297300910001	
1100	0,9792187164909867	
1202	0,978922540891045	
1301	0,9787177208910861	
1400	0,9785067072911282	
1502	0,9782105316911865	
1601	0,9780057116912276	
1700	0,9777946980912697	
1802	0,9774985224913281	
1901	0,9772937024913692	
2000	0,9770826888914113	
2102	0,9767865132914696	
2201	0,9765816932915107	
2300	0,9763706796915528	
2402	0,9760745040916112	
2501	0,9758696840916522	
2600	0,9756586704916943	
2702	0,9753624948917528	
2801	0,9751576748917937	
2900	0,9749466612918358	
3002	0,9746504856918943	
3101	0,9744456656919352	
3200	0,9742346520919775	
3302	0,9739384764920358	
3401	0,9737336564920768	
3500	0,973522642892119	
3602	0,9732264672921773	
3701	0,9730216472922183	
3800	0,9728106336922605	
3902	0,9725144580923188	
4001	0,9723096380923598	
4100	0,972098624492402	
4202	0,9718024488924604	
4301	0,9715976288925013	
4400	0,9713866152925436	
4502	0,9710904396926019	
4601	0,9708856196926429	
4700	0,9706746060926851	
4802	0,9703784304927434	
4901	0,9701736104927844	
5000	0,9699625968928266	
5102	0,9696664212928849	
5201	0,9694616012929259	
5300	0,9692505876929681	
5402	0,9689544120930265	
5501	0,9687495920930674	
5600	0,9685385784931096	
5702	0,968242402893168	
5801	0,968037582893209	
5900	0,9678265692932512	
