Node Energy consumption
Time (sec)	Remain energy (%)
64	0,9999643867999989	
67	0,9997982767999963	
100	0,9996399087999939	
202	0,998304398999991	
301	0,9981444825999893	
400	0,9979830177999987	
502	0,9977967786000089	
601	0,9976368622000165	
700	0,9974753974000022	
802	0,9972891581999855	
901	0,9971292417999715	
1000	0,9969677769999573	
1102	0,9967815377999465	
1201	0,9966216213999789	
1300	0,9964601566000117	
1402	0,9962739174000492	
1501	0,9961140010000816	
1600	0,9959525362001144	
1702	0,9957662970001518	
1801	0,9956063806001844	
1900	0,9954449158002171	
2002	0,9952586766002546	
2101	0,9950987602002871	
2200	0,9949372954003198	
2302	0,9947510562003573	
2401	0,9945911398003898	
2500	0,9944296750004226	
2602	0,99424343580046	
2701	0,9940835194004924	
2800	0,9939220546005253	
2902	0,9937358154005628	
3001	0,9935758990005952	
3100	0,9934144342006279	
3202	0,9932281950006654	
3301	0,9930682786006979	
3400	0,9929068138007306	
3502	0,9927205746007681	
3601	0,9925606582008006	
3700	0,9923991934008334	
3802	0,9922129542008709	
3901	0,9920530378009034	
4000	0,9918915730009361	
4102	0,9917053338009736	
4201	0,991545417401006	
4300	0,9913839526010388	
4402	0,9911977134010763	
4501	0,9910377970011087	
4600	0,9908763322011415	
4702	0,9906900930011789	
4801	0,9905301766012115	
4900	0,9903687118012442	
5002	0,9901824726012817	
5101	0,9900225562013142	
5200	0,9898610914013469	
5302	0,9896748522013844	
5401	0,9895149358014169	
5500	0,9893534710014497	
5602	0,9891672318014871	
5701	0,9890073154015195	
5800	0,9888458506015524	
5902	0,9886596114015899	
