Node Energy consumption
Time (sec)	Remain energy (%)
64	0,9998807731999964	
67	0,9996852435999929	
100	0,9994881655999893	
202	0,9963583702999769	
301	0,9947429578999716	
400	0,9930895938999803	
502	0,9913067014999933	
601	0,989691289100026	
700	0,9881536127000372	
802	0,9878496951000083	
901	0,9876495202999901	
1000	0,9874462486999716	
1102	0,9871423310999666	
1201	0,9869421563000068	
1300	0,9867388847000474	
1402	0,9864349671001074	
1501	0,9862347923001474	
1600	0,9860315207001882	
1702	0,985727603100248	
1801	0,985527428300288	
1900	0,9853241567003288	
2002	0,9850202391003886	
2101	0,9848200643004287	
2200	0,9846167927004694	
2302	0,9843128751005292	
2401	0,9841127003005694	
2500	0,98390942870061	
2602	0,9836055111006698	
2701	0,98340533630071	
2800	0,9832020647007508	
2902	0,9828981471008106	
3001	0,9826979723008507	
3100	0,9824947007008914	
3202	0,9821907831009512	
3301	0,9819906083009913	
3400	0,981787336701032	
3502	0,9814834191010918	
3601	0,981283244301132	
3700	0,9810799727011726	
3802	0,9807760551012324	
3901	0,9805758803012726	
4000	0,9803726087013133	
4102	0,9800686911013732	
4201	0,9798685163014133	
4300	0,979665244701454	
4402	0,9793613271015138	
4501	0,9791611523015539	
4600	0,9789578807015946	
4702	0,9786539631016544	
4801	0,9784537883016945	
4900	0,9782505167017352	
5002	0,977946599101795	
5101	0,9777464243018352	
5200	0,9775431527018759	
5302	0,9772392351019357	
5401	0,9770390603019758	
5500	0,9768357887020166	
5602	0,9765318711020764	
5701	0,9763316963021165	
5800	0,9761284247021572	
5902	0,975824507102217	
