Node Energy consumption
Time (sec)	Remain energy (%)
56	0,9999798707999994	
101	0,9991061989361957	
200	0,9973905355361843	
302	0,9956724547361755	
401	0,994072526336178	
500	0,9924390703361806	
602	0,9907209895362085	
701	0,9892366855362157	
800	0,9890473495361986	
902	0,9888022711361757	
1001	0,9886175803361591	
1100	0,9884282443361475	
1202	0,9881831659361962	
1301	0,9879984751362333	
1400	0,9878091391362713	
1502	0,98756406073632	
1601	0,9873793699363572	
1700	0,9871900339363953	
1802	0,9869449555364439	
1901	0,986760264736481	
2000	0,9865709287365191	
2102	0,9863258503365678	
2201	0,986141159536605	
2300	0,985951823536643	
2402	0,9857067451366917	
2501	0,9855220543367288	
2600	0,9853327183367669	
2702	0,9850876399368156	
2801	0,9849029491368527	
2900	0,9847136131368908	
3002	0,9844685347369394	
3101	0,9842838439369767	
3200	0,9840945079370147	
3302	0,9838494295370633	
3401	0,9836647387371005	
3500	0,9834754027371385	
3602	0,9832303243371872	
3701	0,9830456335372244	
3800	0,9828562975372624	
3902	0,9826112191373111	
4001	0,9824265283373482	
4100	0,9822371923373863	
4202	0,981992113937435	
4301	0,9818074231374722	
4400	0,9816180871375102	
4502	0,9813730087375588	
4601	0,981188317937596	
4700	0,9809989819376341	
4802	0,9807539035376828	
4901	0,9805692127377199	
5000	0,980379876737758	
5102	0,9801347983378066	
5201	0,9799501075378438	
5300	0,9797607715378819	
5402	0,9795156931379305	
5501	0,9793310023379677	
5600	0,9791416663380057	
5702	0,9788965879380543	
5801	0,9787118971380916	
5900	0,9785225611381296	
