Node Energy consumption
Time (sec)	Remain energy (%)
64	0,999835869599995	
67	0,9996387915999915	
100	0,9994347615999878	
202	0,9941290293063515	
301	0,9906192601063315	
400	0,987159149120033	
502	0,9834220957337402	
601	0,9799123265338112	
700	0,9766495891475631	
802	0,9762682515475261	
901	0,9760433023475052	
1000	0,9758075143474834	
1102	0,9754261767474763	
1201	0,9752012275475211	
1300	0,9749654395475681	
1402	0,9745841019476426	
1501	0,9743591527476874	
1600	0,9741233647477343	
1702	0,9737420271478088	
1801	0,9735170779478536	
1900	0,9732812899479005	
2002	0,972899952347975	
2101	0,9726750031480199	
2200	0,9724392151480667	
2302	0,9720578775481413	
2401	0,9718329283481861	
2500	0,971597140348233	
2602	0,9712158027483075	
2701	0,9709908535483524	
2800	0,9707550655483992	
2902	0,9703737279484738	
3001	0,9701487787485186	
3100	0,9699129907485654	
3202	0,96953165314864	
3301	0,9693067039486848	
3400	0,9690709159487316	
3502	0,9686895783488062	
3601	0,968464629148851	
3700	0,968228841148898	
3802	0,9678475035489724	
3901	0,9676225543490172	
4000	0,9673867663490642	
4102	0,9670054287491386	
4201	0,9667804795491834	
4300	0,9665446915492304	
4402	0,9661633539493049	
4501	0,9659384047493498	
4600	0,9657026167493966	
4702	0,9653212791494712	
4801	0,965096329949516	
4900	0,9648605419495628	
5002	0,9644792043496374	
5101	0,9642542551496822	
5200	0,964018467149729	
5302	0,9636371295498036	
5401	0,9634121803498484	
5500	0,9631763923498953	
5602	0,9627950547499698	
5701	0,9625701055500147	
5800	0,9623343175500615	
5902	0,9619529799501361	
