Node Energy consumption
Time (sec)	Remain energy (%)
66	0,9999179347999975	
69	0,9997394375999945	
102	0,9979710281999886	
201	0,9963635789999791	
300	0,9947440585999724	
402	0,9930215537999828	
501	0,9914141045999909	
600	0,9897945842000263	
702	0,9882166494000334	
801	0,9880304102000166	
900	0,987855009800001	
1002	0,9876114797999783	
1101	0,9874252405999752	
1200	0,9872498402000106	
1302	0,9870063102000589	
1401	0,9868200710000964	
1500	0,9866446706001318	
1602	0,9864011406001801	
1701	0,9862149014002176	
1800	0,9860395010002531	
1902	0,9857959710003014	
2001	0,9856097318003388	
2100	0,9854343314003743	
2202	0,9851908014004226	
2301	0,9850045622004601	
2400	0,9848291618004955	
2502	0,9845856318005438	
2601	0,9843993926005813	
2700	0,9842239922006167	
2802	0,9839804622006652	
2901	0,9837942230007026	
3000	0,983618822600738	
3102	0,9833752926007864	
3201	0,9831890534008239	
3300	0,9830136530008592	
3402	0,9827701230009076	
3501	0,9825838838009451	
3600	0,9824084834009804	
3702	0,9821649534010288	
3801	0,9819787142010663	
3900	0,9818033138011016	
4002	0,98155978380115	
4101	0,9813735446011875	
4200	0,981198144201223	
4302	0,9809546142012713	
4401	0,9807683750013088	
4500	0,9805929746013442	
4602	0,9803494446013925	
4701	0,98016320540143	
4800	0,9799878050014654	
4902	0,9797442750015137	
5001	0,9795580358015512	
5100	0,9793826354015867	
5202	0,979139105401635	
5301	0,9789528662016724	
5400	0,9787774658017079	
5502	0,9785339358017562	
5601	0,9783476966017937	
5700	0,9781722962018291	
5802	0,9779287662018775	
5901	0,9777425270019149	
