Node Energy consumption
Time (sec)	Remain energy (%)
59	0,9999519995999986	
101	0,9988925829999955	
200	0,9542075938493767	
302	0,91201675686234	
401	0,871565198861637	
500	0,8302808858746245	
602	0,7880900488885997	
701	0,7509269812889052	
800	0,7507159676888859	
902	0,7504197920888578	
1001	0,7502149720888391	
1100	0,7500039584888234	
1202	0,7497077828888817	
1301	0,7495029628889227	
1400	0,7492919492889649	
1502	0,7489957736890233	
1601	0,7487909536890642	
1700	0,7485799400891064	
1802	0,7482837644891648	
1901	0,7480789444892058	
2000	0,747867930889248	
2102	0,7475717552893063	
2201	0,7473669352893474	
2300	0,7471559216893895	
2402	0,7468597460894478	
2501	0,7466549260894889	
2600	0,746443912489531	
2702	0,7461477368895894	
2801	0,7459429168896304	
2900	0,7457319032896725	
3002	0,7454357276897309	
3101	0,745230907689772	
3200	0,7450198940898141	
3302	0,7447237184898724	
3401	0,7445188984899135	
3500	0,7443078848899556	
3602	0,744011709290014	
3701	0,743806889290055	
3800	0,7435958756900971	
3902	0,7432997000901556	
4001	0,7430948800901965	
4100	0,7428838664902387	
4202	0,7425876908902971	
4301	0,742382870890338	
4400	0,7421718572903803	
4502	0,7418756816904386	
4601	0,7416708616904796	
4700	0,7414598480905218	
4802	0,7411636724905801	
4901	0,7409588524906211	
5000	0,7407478388906633	
5102	0,7404516632907217	
5201	0,7402468432907626	
5300	0,7400358296908048	
5402	0,7397396540908632	
5501	0,7395348340909041	
5600	0,7393238204909464	
5702	0,7390276448910047	
5801	0,7388228248910457	
5900	0,7386118112910879	
