Node Energy consumption
Time (sec)	Remain energy (%)
61	0,999965935199999	
100	0,999718549999997	
202	0,9961071928052774	
301	0,9936897092052607	
400	0,9912151390189562	
502	0,9886236488326543	
601	0,9862061652327015	
700	0,9839145590464343	
802	0,9836586418464103	
901	0,9834801446463943	
1000	0,9832954538463777	
1102	0,983039536646372	
1201	0,982861039446408	
1300	0,9826763486464452	
1402	0,9824204314464958	
1501	0,9822419342465318	
1600	0,9820572434465691	
1702	0,9818013262466198	
1801	0,9816228290466558	
1900	0,9814381382466929	
2002	0,9811822210467436	
2101	0,9810037238467796	
2200	0,9808190330468168	
2302	0,9805631158468675	
2401	0,9803846186469035	
2500	0,9801999278469407	
2602	0,9799440106469914	
2701	0,9797655134470273	
2800	0,9795808226470646	
2902	0,9793249054471153	
3001	0,9791464082471513	
3100	0,9789617174471884	
3202	0,9787058002472392	
3301	0,9785273030472752	
3400	0,9783426122473123	
3502	0,978086695047363	
3601	0,977908197847399	
3700	0,9777235070474363	
3802	0,9774675898474869	
3901	0,977289092647523	
4000	0,9771044018475601	
4102	0,9768484846476108	
4201	0,9766699874476468	
4300	0,976485296647684	
4402	0,9762293794477347	
4501	0,9760508822477707	
4600	0,9758661914478078	
4702	0,9756102742478586	
4801	0,9754317770478945	
4900	0,9752470862479318	
5002	0,9749911690479824	
5101	0,9748126718480185	
5200	0,9746279810480556	
5302	0,9743720638481064	
5401	0,9741935666481424	
5500	0,9740088758481795	
5602	0,9737529586482302	
5701	0,9735744614482662	
5800	0,9733897706483033	
5902	0,9731338534483541	
