Node Energy consumption
Time (sec)	Remain energy (%)
63	0,9999442575999983	
102	0,9950628345916063	
201	0,9579329224047377	
300	0,920063685203904	
402	0,8813611106167704	
501	0,8442311984296673	
600	0,8063619612307074	
702	0,7714314714455217	
801	0,7712436838455049	
900	0,7710651866454888	
1002	0,7708123662454652	
1101	0,7706245786454611	
1200	0,7704460814454971	
1302	0,7701932610455472	
1401	0,7700054734455849	
1500	0,7698269762456209	
1602	0,769574155845671	
1701	0,7693863682457088	
1800	0,7692078710457448	
1902	0,768955050645795	
2001	0,7687672630458326	
2100	0,7685887658458687	
2202	0,7683359454459188	
2301	0,7681481578459566	
2400	0,7679696606459926	
2502	0,7677168402460427	
2601	0,7675290526460805	
2700	0,7673505554461164	
2802	0,7670977350461666	
2901	0,7669099474462043	
3000	0,7667314502462403	
3102	0,7664786298462904	
3201	0,7662908422463283	
3300	0,7661123450463643	
3402	0,7658595246464144	
3501	0,7656717370464521	
3600	0,7654932398464881	
3702	0,7652404194465382	
3801	0,765052631846576	
3900	0,764874134646612	
4002	0,7646213142466621	
4101	0,7644335266466998	
4200	0,7642550294467358	
4302	0,764002209046786	
4401	0,7638144214468238	
4500	0,7636359242468598	
4602	0,7633831038469099	
4701	0,7631953162469476	
4800	0,7630168190469836	
4902	0,7627639986470338	
5001	0,7625762110470715	
5100	0,7623977138471075	
5202	0,7621448934471576	
5301	0,7619571058471954	
5400	0,7617786086472315	
5502	0,7615257882472816	
5601	0,7613380006473193	
5700	0,7611595034473553	
5802	0,7609066830474054	
5901	0,7607188954474432	
