Node Energy consumption
Time (sec)	Remain energy (%)
57	0,9999752255999993	
60	0,9997998251999989	
102	0,9984036012361956	
201	0,9953269246498831	
300	0,9923458234498614	
402	0,9891390496635595	
501	0,9860819966772539	
600	0,9831008954773236	
702	0,9801216100910642	
801	0,9799105964910448	
900	0,9797135184910271	
1002	0,979409600890998	
1101	0,9791985872909905	
1200	0,97900150929103	
1302	0,9786975916910898	
1401	0,978486578091132	
1500	0,9782895000911715	
1602	0,9779855824912315	
1701	0,9777745688912736	
1800	0,9775774908913131	
1902	0,977273573291373	
2001	0,9770625596914151	
2100	0,9768654816914546	
2202	0,9765615640915145	
2301	0,9763505504915566	
2400	0,9761534724915962	
2502	0,975849554891656	
2601	0,9756385412916981	
2700	0,9754414632917378	
2802	0,9751375456917976	
2901	0,9749265320918397	
3000	0,9747294540918793	
3102	0,9744255364919391	
3201	0,9742145228919812	
3300	0,9740174448920208	
3402	0,9737135272920806	
3501	0,9735025136921227	
3600	0,9733054356921623	
3702	0,9730015180922221	
3801	0,9727905044922643	
3900	0,9725934264923038	
4002	0,9722895088923637	
4101	0,9720784952924059	
4200	0,9718814172924454	
4302	0,9715774996925052	
4401	0,9713664860925474	
4500	0,9711694080925869	
4602	0,9708654904926467	
4701	0,9706544768926889	
4800	0,9704573988927284	
4902	0,9701534812927882	
5001	0,9699424676928304	
5100	0,9697453896928699	
5202	0,9694414720929297	
5301	0,969230458492972	
5400	0,9690333804930115	
5502	0,9687294628930713	
5601	0,9685184492931135	
5700	0,968321371293153	
5802	0,9680174536932128	
5901	0,967806440093255	
