Node Energy consumption
Time (sec)	Remain energy (%)
58	0,9999752255999993	
61	0,9997998251999989	
64	0,9996104891999981	
67	0,999430443599995	
100	0,9992352615999923	
202	0,9976978593999878	
301	0,9975131685999877	
400	0,9973284777999979	
502	0,9970787542000109	
601	0,9968940634000151	
700	0,9967093725999985	
802	0,9964596489999751	
901	0,9962749581999585	
1000	0,9960902673999419	
1102	0,9958405437999373	
1201	0,9956558529999744	
1300	0,9954711622000115	
1402	0,9952214386000611	
1501	0,9950367478000983	
1600	0,9948520570001355	
1702	0,994602333400185	
1801	0,9944176426002221	
1900	0,9942329518002594	
2002	0,9939832282003088	
2101	0,9937985374003461	
2200	0,9936138466003832	
2302	0,9933641230004328	
2401	0,9931794322004699	
2500	0,9929947414005071	
2602	0,9927450178005567	
2701	0,9925603270005938	
2800	0,992375636200631	
2902	0,9921259126006805	
3001	0,9919412218007178	
3100	0,9917565310007549	
3202	0,9915068074008044	
3301	0,9913221166008416	
3400	0,9911374258008787	
3502	0,9908877022009283	
3601	0,9907030114009655	
3700	0,9905183206010026	
3802	0,9902685970010522	
3901	0,9900839062010893	
4000	0,9898992154011266	
4102	0,989649491801176	
4201	0,9894648010012133	
4300	0,9892801102012504	
4402	0,9890303866012999	
4501	0,9888456958013371	
4600	0,9886610050013743	
4702	0,9884112814014239	
4801	0,988226590601461	
4900	0,9880418998014981	
5002	0,9877921762015477	
5101	0,9876074854015848	
5200	0,9874227946016221	
5302	0,9871730710016716	
5401	0,9869883802017088	
5500	0,9868036894017459	
5602	0,9865539658017954	
5701	0,9863692750018327	
5800	0,9861845842018698	
5902	0,9859348606019194	
