Node Energy consumption
Time (sec)	Remain energy (%)
54	0,9999860643999996	
57	0,9998307931999998	
102	0,9935722312362127	
201	0,9503445042494841	
300	0,9062581262488567	
402	0,8611819232619381	
501	0,8179541962750406	
600	0,7738678182745028	
702	0,7331835876877192	
801	0,7329725740876999	
900	0,732775496087682	
1002	0,732471578487653	
1101	0,7322605648876541	
1200	0,7320634868876936	
1302	0,7317595692877535	
1401	0,7315485556877956	
1500	0,7313514776878351	
1602	0,7310475600878951	
1701	0,7308365464879372	
1800	0,7306394684879767	
1902	0,7303355508880366	
2001	0,7301245372880787	
2100	0,7299274592881183	
2202	0,7296235416881781	
2301	0,7294125280882202	
2400	0,7292154500882598	
2502	0,7289115324883196	
2601	0,7287005188883617	
2700	0,7285034408884014	
2802	0,7281995232884612	
2901	0,7279885096885033	
3000	0,7277914316885429	
3102	0,7274875140886027	
3201	0,7272765004886449	
3300	0,7270794224886844	
3402	0,7267755048887442	
3501	0,7265644912887864	
3600	0,7263674132888259	
3702	0,7260634956888857	
3801	0,7258524820889279	
3900	0,7256554040889674	
4002	0,7253514864890273	
4101	0,7251404728890695	
4200	0,724943394889109	
4302	0,7246394772891688	
4401	0,724428463689211	
4500	0,7242313856892505	
4602	0,7239274680893103	
4701	0,7237164544893525	
4800	0,723519376489392	
4902	0,7232154588894518	
5001	0,723004445289494	
5100	0,7228073672895335	
5202	0,7225034496895933	
5301	0,7222924360896356	
5400	0,7220953580896751	
5502	0,7217914404897349	
5601	0,7215804268897771	
5700	0,7213833488898166	
5802	0,7210794312898764	
5901	0,7208684176899186	
