Node Energy consumption
Time (sec)	Remain energy (%)
56	0,9999891611999997	
62	0,9997827927999984	
101	0,9993452861999956	
200	0,9982762453999933	
302	0,9980234249999926	
401	0,9978387342000028	
500	0,997657140200013	
602	0,997404319800017	
701	0,9972196290000004	
800	0,9970380349999841	
902	0,9967852145999605	
1001	0,9966005237999439	
1100	0,9964189297999322	
1202	0,9961661093999823	
1301	0,9959814186000194	
1400	0,995799824600056	
1502	0,9955470042001061	
1601	0,9953623134001434	
1700	0,9951807194001799	
1802	0,99492789900023	
1901	0,9947432082002672	
2000	0,9945616142003038	
2102	0,9943087938003539	
2201	0,9941241030003911	
2300	0,9939425090004277	
2402	0,9936896886004778	
2501	0,9935049978005149	
2600	0,9933234038005515	
2702	0,9930705834006016	
2801	0,9928858926006389	
2900	0,9927042986006754	
3002	0,9924514782007255	
3101	0,9922667874007627	
3200	0,9920851934007993	
3302	0,9918323730008495	
3401	0,9916476822008866	
3500	0,9914660882009232	
3602	0,9912132678009733	
3701	0,9910285770010104	
3800	0,9908469830010471	
3902	0,9905941626010972	
4001	0,9904094718011344	
4100	0,9902278778011709	
4202	0,989975057401221	
4301	0,9897903666012583	
4400	0,9896087726012949	
4502	0,989355952201345	
4601	0,9891712614013821	
4700	0,9889896674014187	
4802	0,9887368470014688	
4901	0,988552156201506	
5000	0,9883705622015426	
5102	0,9881177418015927	
5201	0,9879330510016299	
5300	0,9877514570016664	
5402	0,9874986366017167	
5501	0,9873139458017538	
5600	0,9871323518017904	
5702	0,9868795314018405	
5801	0,9866948406018776	
5900	0,9865132466019143	
