Node Energy consumption
Time (sec)	Remain energy (%)
64	0,9999225799999977	
67	0,9997394375999945	
100	0,9995269703999907	
202	0,9950316118617509	
301	0,9921604470617337	
400	0,9892248644754356	
502	0,9861325142891416	
601	0,9832613494891944	
700	0,980544312502931	
802	0,9802403949029019	
901	0,980043316902884	
1000	0,9798415937028657	
1102	0,979537676102859	
1201	0,9793405981028985	
1300	0,9791388749029389	
1402	0,9788349573029987	
1501	0,9786378793030382	
1600	0,9784361561030787	
1702	0,9781322385031386	
1801	0,9779351605031781	
1900	0,9777334373032185	
2002	0,9774295197032783	
2101	0,9772324417033178	
2200	0,9770307185033582	
2302	0,976726800903418	
2401	0,9765297229034576	
2500	0,976327999703498	
2602	0,9760240821035578	
2701	0,9758270041035974	
2800	0,9756252809036378	
2902	0,9753213633036976	
3001	0,9751242853037371	
3100	0,9749225621037775	
3202	0,9746186445038374	
3301	0,9744215665038769	
3400	0,9742198433039173	
3502	0,9739159257039771	
3601	0,9737188477040166	
3700	0,973517124504057	
3802	0,9732132069041168	
3901	0,9730161289041565	
4000	0,9728144057041969	
4102	0,9725104881042567	
4201	0,9723134101042962	
4300	0,9721116869043366	
4402	0,9718077693043964	
4501	0,9716106913044359	
4600	0,9714089681044763	
4702	0,9711050505045362	
4801	0,9709079725045757	
4900	0,9707062493046161	
5002	0,9704023317046759	
5101	0,9702052537047154	
5200	0,9700035305047559	
5302	0,9696996129048157	
5401	0,9695025349048553	
5500	0,9693008117048957	
5602	0,9689968941049555	
5701	0,968799816104995	
5800	0,9685980929050354	
5902	0,9682941753050952	
