Node Energy consumption
Time (sec)	Remain energy (%)
64	0,9999860643999996	
100	0,9998168575999968	
202	0,9971877879999869	
301	0,9956575375999749	
400	0,9940933803999701	
502	0,9924641271999667	
601	0,9909338768000114	
700	0,989481583600037	
802	0,9892829572000189	
901	0,9891214924000047	
1000	0,9889600275999906	
1102	0,9887614011999802	
1201	0,988599936400013	
1300	0,9884384716000457	
1402	0,9882398452000856	
1501	0,9880783804001184	
1600	0,9879169156001512	
1702	0,987718289200191	
1801	0,9875568244002237	
1900	0,9873953596002565	
2002	0,9871967332002963	
2101	0,9870352684003291	
2200	0,9868738036003618	
2302	0,9866751772004017	
2401	0,9865137124004344	
2500	0,9863522476004672	
2602	0,986153621200507	
2701	0,9859921564005398	
2800	0,9858306916005726	
2902	0,9856320652006124	
3001	0,9854706004006452	
3100	0,9853091356006779	
3202	0,9851105092007177	
3301	0,9849490444007505	
3400	0,9847875796007832	
3502	0,9845889532008231	
3601	0,9844274884008558	
3700	0,9842660236008887	
3802	0,9840673972009284	
3901	0,9839059324009612	
4000	0,983744467600994	
4102	0,9835458412010338	
4201	0,9833843764010666	
4300	0,9832229116010993	
4402	0,9830242852011392	
4501	0,9828628204011719	
4600	0,9827013556012046	
4702	0,9825027292012445	
4801	0,9823412644012772	
4900	0,9821797996013101	
5002	0,9819811732013498	
5101	0,9818197084013827	
5200	0,9816582436014154	
5302	0,9814596172014552	
5401	0,981298152401488	
5500	0,9811366876015207	
5602	0,9809380612015606	
5701	0,9807765964015933	
5800	0,9806151316016261	
5902	0,9804165052016659	
