Node Energy consumption
Time (sec)	Remain energy (%)
62	0,9998683859999961	
65	0,9996651143999947	
101	0,9981927206822673	
200	0,9943539562386166	
302	0,9906308384523022	
401	0,9871759268522988	
500	0,9836470226660002	
602	0,9799239048797725	
701	0,9767320632798182	
800	0,976493178479796	
902	0,9761257764797605	
1001	0,9758899884797386	
1100	0,9756511036797264	
1202	0,9752837016797983	
1301	0,9750479136798451	
1400	0,9748090288798926	
1502	0,9744416268799645	
1601	0,9742058388800113	
1700	0,9739669540800588	
1802	0,9735995520801307	
1901	0,9733637640801776	
2000	0,9731248792802251	
2102	0,9727574772802969	
2201	0,9725216892803438	
2300	0,9722828044803913	
2402	0,9719154024804632	
2501	0,9716796144805101	
2600	0,9714407296805575	
2702	0,9710733276806294	
2801	0,9708375396806763	
2900	0,9705986548807237	
3002	0,9702312528807956	
3101	0,9699954648808425	
3200	0,9697565800808899	
3302	0,9693891780809619	
3401	0,9691533900810088	
3500	0,9689145052810563	
3602	0,9685471032811281	
3701	0,968311315281175	
3800	0,9680724304812225	
3902	0,9677050284812944	
4001	0,9674692404813412	
4100	0,9672303556813887	
4202	0,9668629536814606	
4301	0,9666271656815074	
4400	0,9663882808815549	
4502	0,9660208788816268	
4601	0,9657850908816736	
4700	0,9655462060817211	
4802	0,965178804081793	
4901	0,96494301608184	
5000	0,9647041312818874	
5102	0,9643367292819592	
5201	0,9641009412820062	
5300	0,9638620564820536	
5402	0,9634946544821255	
5501	0,9632588664821724	
5600	0,9630199816822198	
5702	0,9626525796822917	
5801	0,9624167916823386	
5900	0,9621779068823861	
