Node Energy consumption
Time (sec)	Remain energy (%)
65	0,9998002563999939	
101	0,9987819108926723	
200	0,9943245589063551	
302	0,9906014411200413	
401	0,9871465295200381	
500	0,9836176253337395	
602	0,9798945075475102	
701	0,976702665947556	
800	0,9764637811475337	
902	0,9760963791474981	
1001	0,9758605911474763	
1100	0,9756217063474673	
1202	0,9752543043475391	
1301	0,975018516347586	
1400	0,9747796315476335	
1502	0,9744122295477053	
1601	0,9741764415477522	
1700	0,9739375567477997	
1802	0,9735701547478716	
1901	0,9733343667479185	
2000	0,9730954819479659	
2102	0,9727280799480378	
2201	0,9724922919480847	
2300	0,9722534071481321	
2402	0,971886005148204	
2501	0,971650217148251	
2600	0,9714113323482984	
2702	0,9710439303483703	
2801	0,9708081423484172	
2900	0,9705692575484647	
3002	0,9702018555485366	
3101	0,9699660675485834	
3200	0,9697271827486309	
3302	0,9693597807487028	
3401	0,9691239927487496	
3500	0,9688851079487971	
3602	0,968517705948869	
3701	0,9682819179489158	
3800	0,9680430331489633	
3902	0,9676756311490352	
4001	0,967439843149082	
4100	0,9672009583491296	
4202	0,9668335563492014	
4301	0,9665977683492484	
4400	0,9663588835492958	
4502	0,9659914815493676	
4601	0,9657556935494146	
4700	0,965516808749462	
4802	0,9651494067495339	
4901	0,9649136187495808	
5000	0,9646747339496282	
5102	0,9643073319497002	
5201	0,964071543949747	
5300	0,9638326591497945	
5402	0,9634652571498664	
5501	0,9632294691499133	
5600	0,9629905843499608	
5702	0,9626231823500326	
5801	0,9623873943500795	
5900	0,962148509550127	
