Node Energy consumption
Time (sec)	Remain energy (%)
67	0,999770836799993	
100	0,9995514175999892	
202	0,9942738205063544	
301	0,9908297477063356	
400	0,9873039403200369	
502	0,9835668869337441	
601	0,9801228141338135	
700	0,9768600767475654	
802	0,9764787391475284	
901	0,9762537899475076	
1000	0,9760180019474857	
1102	0,9756366643474823	
1201	0,9754117151475271	
1300	0,9751759271475741	
1402	0,9747945895476485	
1501	0,9745696403476934	
1600	0,9743338523477403	
1702	0,9739525147478149	
1801	0,9737275655478597	
1900	0,9734917775479065	
2002	0,9731104399479811	
2101	0,9728854907480259	
2200	0,9726497027480727	
2302	0,9722683651481473	
2401	0,9720434159481921	
2500	0,9718076279482389	
2602	0,9714262903483135	
2701	0,9712013411483583	
2800	0,9709655531484052	
2902	0,9705842155484797	
3001	0,9703592663485245	
3100	0,9701234783485715	
3202	0,969742140748646	
3301	0,9695171915486908	
3400	0,9692814035487377	
3502	0,9689000659488122	
3601	0,968675116748857	
3700	0,9684393287489039	
3802	0,9680579911489784	
3901	0,9678330419490233	
4000	0,9675972539490701	
4102	0,9672159163491446	
4201	0,9669909671491895	
4300	0,9667551791492364	
4402	0,9663738415493109	
4501	0,9661488923493557	
4600	0,9659131043494026	
4702	0,9655317667494772	
4801	0,965306817549522	
4900	0,9650710295495688	
5002	0,9646896919496434	
5101	0,9644647427496882	
5200	0,964228954749735	
5302	0,9638476171498096	
5401	0,9636226679498544	
5500	0,9633868799499014	
5602	0,9630055423499758	
5701	0,9627805931500206	
5800	0,9625448051500676	
5902	0,962163467550142	
